Division,WeightClassKg,Place,Name,Team,BodyweightKg,Best3SquatKg,Best3BenchKg,Best3DeadliftKg,TotalKg,Equipment,Event,Sex
Boys,51.71,1,Je'torey Roberts,Mesquite Horn,50.8,106.59,56.7,124.74,288.03,Single-ply,SBD,M
Boys,51.71,2,Luke Duvalle,North Mesquite,51.71,83.91,65.77,124.74,274.42,Single-ply,SBD,M
Boys,51.71,3,Mathew Castillo,North Mesquite,51.71,90.72,54.43,104.33,249.48,Single-ply,SBD,M
Boys,51.71,4,Jacob Lopez,Ferris,44.91,61.23,29.48,61.23,151.95,Single-ply,SBD,M
Boys,59.87,1,Allen Morales,Frisco Centennial,56.02,158.76,77.11,158.76,394.63,Single-ply,SBD,M
Boys,55.79,2,Houston Patterson,Justin Northwest,53.52,90.72,61.23,108.86,260.82,Single-ply,SBD,M
Boys,59.87,1,Cody Lineberry,Ferris,59.19,142.88,97.52,142.88,383.29,Single-ply,SBD,M
Boys,59.87,2,Gerardo Romo,North Mesquite,59.42,113.4,68.04,133.81,315.25,Single-ply,SBD,M
Boys,67.13,1,Stanley Lu,Frisco Centennial,63.96,165.56,108.86,183.7,458.13,Single-ply,SBD,M
Boys,74.84,2,Marcus Henderson,Mesquite Poteet,67.36,165.56,99.79,165.56,430.91,Single-ply,SBD,M
Boys,67.13,3,Jakeem Grant,Mesquite Horn,65.32,151.95,97.52,174.63,424.11,Single-ply,SBD,M
Boys,67.13,4,Brandon Myles,North Mesquite,66.68,147.42,97.52,145.15,390.09,Single-ply,SBD,M
Boys,67.13,5,Derek Yu,Frisco Centennial,61.92,140.61,102.06,140.61,383.29,Single-ply,SBD,M
Boys,67.13,6,Chris Gautier,Frisco Centennial,65.77,154.22,90.72,138.35,383.29,Single-ply,SBD,M
Boys,67.13,7,Hayward Johnson,Mesquite Horn,64.41,151.95,83.91,142.88,378.75,Single-ply,SBD,M
Boys,67.13,8,Stephen Gray,Mesquite Horn,62.14,136.08,88.45,149.69,374.21,Single-ply,SBD,M
Boys,67.13,9,Casey Obesnshain,Justin Northwest,65.32,120.2,86.18,167.83,374.21,Single-ply,SBD,M
Boys,67.13,10,Caleb Williams,Sunnyvale,64.41,122.47,86.18,136.08,344.73,Single-ply,SBD,M
Boys,67.13,11,Patrick Levels,West Mesquite,67.13,124.74,81.65,120.2,326.59,Single-ply,SBD,M
Boys,67.13,12,Devon Deleon,Sunnyvale,66.68,111.13,68.04,142.88,322.05,Single-ply,SBD,M
Boys,67.13,DQ,Charlie Canady,Mesquite Poteet,64.41,129.27,,,,Single-ply,SBD,M
Boys,67.13,DQ,Dylan Stubbe,Justin Northwest,66.22,154.22,,,,Single-ply,SBD,M
Boys,74.84,1,Ottis Nevels,Mesquite Horn,68.27,185.97,111.13,183.7,480.81,Single-ply,SBD,M
Boys,74.84,2,Benny Martinez,Ferris,71.21,181.44,113.4,183.7,478.54,Single-ply,SBD,M
Boys,74.84,3,Jason Thomas,Mesquite Horn,73.48,170.1,108.86,170.1,449.06,Single-ply,SBD,M
Boys,74.84,4,Vincent Chavez,Frisco Centennial,74.62,170.1,104.33,149.69,424.11,Single-ply,SBD,M
Boys,74.84,5,Alec Lafoon,Justin Northwest,70.08,156.49,77.11,167.83,401.43,Single-ply,SBD,M
Boys,74.84,6,Ross Abraham,Frisco Centennial,72.57,147.42,79.38,158.76,385.55,Single-ply,SBD,M
Boys,74.84,7,Bodie Johnson,North Mesquite,74.84,142.88,92.99,147.42,383.29,Single-ply,SBD,M
Boys,74.84,8,Brandon Garza,Sunnyvale,69.4,131.54,88.45,158.76,378.75,Single-ply,SBD,M
Boys,74.84,9,Darius Ennin,Sunnyvale,71.67,140.61,68.04,163.29,371.95,Single-ply,SBD,M
Boys,74.84,10,Adam Jones,Ferris,74.84,151.95,72.57,142.88,367.41,Single-ply,SBD,M
Boys,74.84,11,Marcus Gentry,Ferris,74.84,131.54,83.91,147.42,362.87,Single-ply,SBD,M
Boys,74.84,12,Will Moss,Sunnyvale,69.17,124.74,81.65,154.22,360.61,Single-ply,SBD,M
Boys,74.84,13,Bryan Tucker,Wills Point,69.4,131.54,77.11,136.08,344.73,Single-ply,SBD,M
Boys,74.84,14,Jake Hulsman,Wills Point,73.26,127.01,83.91,120.2,331.12,Single-ply,SBD,M
Boys,74.84,15,Jamie Tolliver,Mesquite Poteet,70.99,102.06,61.23,122.47,285.76,Single-ply,SBD,M
Boys,74.84,DQ,Clay Barnes,Sunnyvale,70.31,113.4,68.04,,,Single-ply,SBD,M
Boys,74.84,DQ,Brennan Sooter,Justin Northwest,70.08,136.08,,,,Single-ply,SBD,M
Boys,82.1,1,Colton Roelofs,Justin Northwest,82.1,201.85,131.54,206.38,539.77,Single-ply,SBD,M
Boys,82.1,2,Lakeylon Rice,Frisco Centennial,76.2,197.31,108.86,183.7,489.88,Single-ply,SBD,M
Boys,82.1,3,Ruben Mendez,Ferris,82.1,181.44,120.2,183.7,485.34,Single-ply,SBD,M
Boys,82.1,4,Horace Borders,North Mesquite,77.11,190.51,102.06,183.7,476.27,Single-ply,SBD,M
Boys,82.1,5,Nick Knox,North Mesquite,80.74,170.1,111.13,154.22,435.45,Single-ply,SBD,M
Boys,82.1,6,Nick Sandoval,North Mesquite,81.65,167.83,108.86,158.76,435.45,Single-ply,SBD,M
Boys,82.1,7,Hayden Long,Sunnyvale,77.56,127.01,74.84,163.29,365.14,Single-ply,SBD,M
Boys,82.1,DQ,Fred Ngwu,West Mesquite,81.19,142.88,111.13,,,Single-ply,SBD,M
Boys,82.1,DQ,Blake Childress,West Mesquite,82.1,138.35,95.25,,,Single-ply,SBD,M
Boys,89.81,1,Tanner Anglin,Frisco Centennial,89.81,226.8,140.61,226.8,594.21,Single-ply,SBD,M
Boys,89.81,2,Jeff Stevens,Justin Northwest,89.81,226.8,145.15,185.97,557.92,Single-ply,SBD,M
Boys,89.81,3,Shina Adejuyigbe,Mesquite Horn,85.28,210.92,115.67,210.92,537.51,Single-ply,SBD,M
Boys,89.81,4,Dezmond Scott,North Mesquite,89.81,208.65,104.33,195.04,508.02,Single-ply,SBD,M
Boys,89.81,5,Adrian Garcia,Ferris,85.96,195.04,127.01,183.7,505.76,Single-ply,SBD,M
Boys,89.81,6,Chris Johnson,Wills Point,89.81,174.63,117.93,210.92,503.49,Single-ply,SBD,M
Boys,89.81,7,Isaac Puga,Mesquite Horn,89.81,181.44,124.74,188.24,494.42,Single-ply,SBD,M
Boys,89.81,8,Cameron Langer,Justin Northwest,84.82,170.1,113.4,199.58,483.08,Single-ply,SBD,M
Boys,89.81,9,Truett Lewis,Wills Point,89.81,172.37,104.33,176.9,453.59,Single-ply,SBD,M
Boys,89.81,10,Chuck Oputa,North Mesquite,86.18,156.49,102.06,176.9,435.45,Single-ply,SBD,M
Boys,89.81,11,Jared Brackens,North Mesquite,84.82,156.49,104.33,172.37,433.18,Single-ply,SBD,M
Boys,89.81,12,Montana James,Ferris,89.81,154.22,102.06,174.63,430.91,Single-ply,SBD,M
Boys,89.81,13,Eddie Alcantor,West Mesquite,87.09,167.83,120.2,136.08,424.11,Single-ply,SBD,M
Boys,89.81,14,Derek Nzeakor,West Mesquite,89.81,156.49,90.72,158.76,405.97,Single-ply,SBD,M
Boys,89.81,15,Anthony Carlin,Mesquite Horn,84.37,142.88,108.86,151.95,403.7,Single-ply,SBD,M
Boys,89.81,16,Austin Morgan,Sunnyvale,85.09,154.22,83.91,154.22,392.36,Single-ply,SBD,M
Boys,89.81,17,John Foster,Sunnyvale,85.5,136.08,83.91,158.76,378.75,Single-ply,SBD,M
Boys,99.79,1,Cyle Henderson,Wills Point,96.16,213.19,127.01,208.65,548.85,Single-ply,SBD,M
Boys,99.79,2,Alex Anderson,Wills Point,95.48,204.12,127.01,190.51,521.63,Single-ply,SBD,M
Boys,99.79,3,Austin Ortiz,West Mesquite,94.35,183.7,108.86,183.7,476.27,Single-ply,SBD,M
Boys,99.79,4,Ryan Joyce,Frisco Centennial,94.8,183.7,111.13,174.63,469.47,Single-ply,SBD,M
Boys,99.79,5,Raymond Trevino,Mesquite Poteet,99.34,165.56,120.2,183.7,469.47,Single-ply,SBD,M
Boys,99.79,6,Shane King,Justin Northwest,93.89,181.44,90.72,195.04,467.2,Single-ply,SBD,M
Boys,99.79,7,Gerrardo Jaquez,Ferris,98.43,188.24,111.13,165.56,464.93,Single-ply,SBD,M
Boys,99.79,8,Cameron Gschwend,Frisco Centennial,91.4,183.7,92.99,176.9,453.59,Single-ply,SBD,M
Boys,99.79,9,Azeze Adawale,West Mesquite,97.07,165.56,117.93,170.1,453.59,Single-ply,SBD,M
Boys,99.79,10,George Green,Mesquite Poteet,96.62,124.74,97.52,142.88,365.14,Single-ply,SBD,M
Boys,109.77,1,Joe Bergeron,North Mesquite,102.06,226.8,145.15,238.14,610.08,Single-ply,SBD,M
Boys,109.77,2,Jared Tyler,Mesquite Horn,102.29,167.83,124.74,197.31,489.88,Single-ply,SBD,M
Boys,109.77,3,Dakota Norton,Justin Northwest,103.87,170.1,113.4,195.04,478.54,Single-ply,SBD,M
Boys,109.77,4,Kyle Miller,West Mesquite,106.14,179.17,117.93,158.76,455.86,Single-ply,SBD,M
Boys,109.77,5,Silas Firstly,Mesquite Poteet,104.33,151.95,129.27,158.76,439.98,Single-ply,SBD,M
Boys,109.77,6,Markeith Thomas,West Mesquite,102.06,158.76,104.33,147.42,410.5,Single-ply,SBD,M
Boys,109.77,DQ,Victor Lopez,Mesquite Poteet,109.77,,,,,Single-ply,SBD,M
Boys,124.74,1,Chase Appleby,Frisco Centennial,121.11,197.31,138.35,204.12,539.77,Single-ply,SBD,M
Boys,124.74,2,Andrew Eisaman,North Mesquite,114.31,204.12,113.4,217.72,535.24,Single-ply,SBD,M
Boys,124.74,3,Kyle Lineberry,Ferris,121.11,195.04,102.06,170.1,467.2,Single-ply,SBD,M
Boys,124.74,4,Alex Wright,North Mesquite,111.13,183.7,86.18,156.49,426.38,Single-ply,SBD,M
Boys,124.74,5,Justin LaFrance,Wills Point,122.24,154.22,102.06,158.76,415.04,Single-ply,SBD,M
Boys,124.74,6,Devante Campbell,North Mesquite,113.4,142.88,102.06,147.42,392.36,Single-ply,SBD,M
Boys,124.74,7,Preston Bass,Mesquite Poteet,114.08,136.08,106.59,127.01,369.68,Single-ply,SBD,M
Boys,124.74+,1,Lewis Ray,Justin Northwest,145.38,204.12,136.08,213.19,553.38,Single-ply,SBD,M
Boys,124.74+,2,Cipriano Almaguer,Mesquite Horn,152.86,199.58,117.93,226.8,544.31,Single-ply,SBD,M
Boys,124.74+,3,Seth Butler,Wills Point,135.17,195.04,113.4,192.78,501.22,Single-ply,SBD,M
Boys,124.74+,4,David Cortinas,Ferris,134.26,195.04,117.93,181.44,494.42,Single-ply,SBD,M
Boys,124.74+,5,Rodney Haynes,Mesquite Poteet,135.85,201.85,102.06,165.56,469.47,Single-ply,SBD,M
Boys,124.74+,6,Jesse Brown,West Mesquite,141.97,204.12,111.13,142.88,458.13,Single-ply,SBD,M
