Division,WeightClassKg,Place,Name,Team,BodyweightKg,Best3SquatKg,Best3BenchKg,Best3DeadliftKg,TotalKg,Equipment,Event,Sex
Boys,51.71,1,Dominique John,Mansfield Summit,50.08,120.2,70.31,140.61,331.12,Single-ply,SBD,M
Boys,51.71,2,Demetricus Dixon,Mansfield,47.9,108.86,56.7,104.33,269.89,Single-ply,SBD,M
Boys,51.71,3,Tyler Anderson,Mansfield Timberview,50.26,79.38,49.9,95.25,224.53,Single-ply,SBD,M
Boys,59.87,1,David Brown,Mansfield,59.42,147.42,88.45,122.47,358.34,Single-ply,SBD,M
Boys,59.87,2,Jake Cook,Mansfield,58.51,120.2,83.91,127.01,331.12,Single-ply,SBD,M
Boys,59.87,3,Ausitn Wooldridge,Mansfield Legacy,59.69,111.13,97.52,111.13,319.78,Single-ply,SBD,M
Boys,59.87,DQ,Mario Anzaldoa,Mansfield Timberview,58.33,,,,,Single-ply,SBD,M
Boys,67.13,1,Darian Glenn,Mansfield,65.95,136.08,72.57,149.69,358.34,Single-ply,SBD,M
Boys,67.13,2,Dre Parker,Mansfield Timberview,64.5,124.74,79.38,142.88,347,Single-ply,SBD,M
Boys,67.13,3,Larron Black,Mansfield Summit,61.33,106.59,74.84,161.03,342.46,Single-ply,SBD,M
Boys,67.13,4,Brendan Rior,Mansfield Legacy,62.96,115.67,83.91,124.74,324.32,Single-ply,SBD,M
Boys,67.13,5,Matt Jones,Mansfield,66.5,111.13,86.18,127.01,324.32,Single-ply,SBD,M
Boys,67.13,6,Kyle Lowe,Mansfield,64.59,106.59,68.04,102.06,276.69,Single-ply,SBD,M
Boys,67.13,7,Johnathan Glover,Mansfield Timberview,64.86,90.72,68.04,117.93,276.69,Single-ply,SBD,M
Boys,67.13,8,Ryan Whitlock,Mansfield,61.87,106.59,61.23,102.06,269.89,Single-ply,SBD,M
Boys,67.13,9,Ravez Jones,Mansfield Summit,64.95,77.11,58.97,97.52,233.6,Single-ply,SBD,M
Boys,67.13,DQ,Travis St John,Mansfield Legacy,64.14,102.06,,,,Single-ply,SBD,M
Boys,67.13,DQ,Cody Feazell,Mansfield,62.96,95.25,,,,Single-ply,SBD,M
Boys,74.84,1,Chris Ikenyei,Mansfield Timberview,74.21,136.08,108.86,163.29,408.23,Single-ply,SBD,M
Boys,74.84,2,Sheldon Gatewood,Mansfield Timberview,69.76,147.42,90.72,158.76,396.89,Single-ply,SBD,M
Boys,74.84,3,Tremayne Green,Mansfield,70.76,142.88,97.52,149.69,390.09,Single-ply,SBD,M
Boys,74.84,4,Cj Eubanks,Mansfield,72.12,142.88,97.52,147.42,387.82,Single-ply,SBD,M
Boys,74.84,5,Matt Nieman,Mansfield Legacy,70.58,136.08,86.18,136.08,358.34,Single-ply,SBD,M
Boys,74.84,6,Marcus Lattimore,Mansfield Legacy,72.03,113.4,111.13,117.93,342.46,Single-ply,SBD,M
Boys,74.84,7,Clark Bohrer,Mansfield Legacy,71.76,124.74,81.65,129.27,335.66,Single-ply,SBD,M
Boys,74.84,8,Zack Worthington,Mansfield Legacy,71.85,124.74,83.91,124.74,333.39,Single-ply,SBD,M
Boys,74.84,9,Richard Akinwale,Mansfield,72.76,111.13,86.18,136.08,333.39,Single-ply,SBD,M
Boys,74.84,10,Jason Acheampong,Mansfield Timberview,68.22,92.99,68.04,140.61,301.64,Single-ply,SBD,M
Boys,74.84,11,Adam Escamilla,Mansfield Summit,69.67,102.06,54.43,111.13,267.62,Single-ply,SBD,M
Boys,74.84,12,Shilo Christian,Mansfield Summit,72.57,83.91,63.5,102.06,249.48,Single-ply,SBD,M
Boys,74.84,13,Chris Sellers,Mansfield Timberview,69.04,56.7,52.16,102.06,210.92,Single-ply,SBD,M
Boys,74.84,DQ,Shaheed Johnson,Mansfield Summit,68.4,,,,,Single-ply,SBD,M
Boys,74.84,DQ,Allen Huynh,Mansfield Summit,74.39,,,,,Single-ply,SBD,M
Boys,82.1,1,Kentrell Joyner,Mansfield,82.1,190.51,120.2,217.72,528.44,Single-ply,SBD,M
Boys,82.1,2,Jimmy Nguyen,Mansfield Summit,75.39,183.7,127.01,199.58,510.29,Single-ply,SBD,M
Boys,82.1,3,Chris Jones,Mansfield Timberview,80.01,199.58,111.13,192.78,503.49,Single-ply,SBD,M
Boys,82.1,4,Ben Ohene,Mansfield Summit,81.83,156.49,102.06,170.1,428.64,Single-ply,SBD,M
Boys,82.1,5,Patrick Hernandez,Mansfield Timberview,80.65,151.95,106.59,163.29,421.84,Single-ply,SBD,M
Boys,82.1,6,Baso Harper,Mansfield Timberview,80.01,147.42,97.52,167.83,412.77,Single-ply,SBD,M
Boys,82.1,7,Michael Adfedarin,Mansfield Timberview,81.92,147.42,102.06,154.22,403.7,Single-ply,SBD,M
Boys,82.1,8,Xavier Williams,Mansfield Timberview,77.11,127.01,102.06,142.88,371.95,Single-ply,SBD,M
Boys,82.1,9,Xavier Williams,Mansfield Summit,76.2,129.27,88.45,147.42,365.14,Single-ply,SBD,M
Boys,82.1,10,Terrance Woodall,Mansfield Legacy,80.65,127.01,79.38,113.4,319.78,Single-ply,SBD,M
Boys,82.1,DQ,Dustin Wheeler,Mansfield Summit,78.47,117.93,95.25,158.76,,Single-ply,SBD,M
Boys,82.1,DQ,Kaleb Richardson,Mansfield Summit,81.19,154.22,97.52,161.03,,Single-ply,SBD,M
Boys,82.1,DQ,Donielle Gillians,Mansfield Timberview,81.92,131.54,102.06,172.37,,Single-ply,SBD,M
Boys,82.1,DQ,Carson Ikey,Mansfield Timberview,77.56,97.52,52.16,115.67,,Single-ply,SBD,M
Boys,82.1,DQ,Ben Patterson,Mansfield Timberview,79.65,97.52,77.11,113.4,,Single-ply,SBD,M
Boys,82.1,DQ,Alex Bowman,Mansfield Timberview,81.19,104.33,52.16,104.33,,Single-ply,SBD,M
Boys,82.1,DQ,Sarwar Mahmoudi,Mansfield Timberview,75.3,,,,,Single-ply,SBD,M
Boys,82.1,DQ,Nick Jim-Lawson,Mansfield Timberview,82.1,127.01,79.38,,,Single-ply,SBD,M
Boys,82.1,DQ,Brandon Thomas,Mansfield,76.48,,,,,Single-ply,SBD,M
Boys,89.81,1,Ozy Ejim,Mansfield Summit,86.64,190.51,124.74,235.87,551.11,Single-ply,SBD,M
Boys,89.81,2,Toriono Lavender,Mansfield,82.46,195.04,131.54,206.38,532.97,Single-ply,SBD,M
Boys,89.81,3,Bryan Ohene,Mansfield Summit,86.18,156.49,113.4,185.97,455.86,Single-ply,SBD,M
Boys,89.81,4,Marcelus Singletary,Mansfield Timberview,84.64,158.76,113.4,181.44,453.59,Single-ply,SBD,M
Boys,89.81,5,Cj Fields,Mansfield Summit,84.1,154.22,102.06,163.29,419.57,Single-ply,SBD,M
Boys,89.81,6,Andrew Loos,Mansfield Summit,85.09,147.42,95.25,167.83,410.5,Single-ply,SBD,M
Boys,89.81,7,Marc Laszez,Mansfield Legacy,88,142.88,111.13,149.69,403.7,Single-ply,SBD,M
Boys,89.81,8,Anthony Thompson #3,Mansfield,82.92,147.42,97.52,151.95,396.89,Single-ply,SBD,M
Boys,89.81,9,Marc Blades,Mansfield Summit,87.91,138.35,104.33,145.15,387.82,Single-ply,SBD,M
Boys,89.81,10,Joshua Byrd,Mansfield Timberview,84.37,70.31,52.16,106.59,229.06,Single-ply,SBD,M
Boys,89.81,DQ,Michael Patterson,Mansfield Timberview,85.28,104.33,79.38,129.27,,Single-ply,SBD,M
Boys,89.81,DQ,Patrick Crisafulli,Mansfield Summit,88,151.95,,,,Single-ply,SBD,M
Boys,89.81,DQ,Tyler Moore,Mansfield Summit,87.82,92.99,,,,Single-ply,SBD,M
Boys,99.79,1,Blake Lilly,Mansfield,95.25,235.87,149.69,231.33,616.89,Single-ply,SBD,M
Boys,99.79,2,Yaw Osei-Baffour,Mansfield Timberview,97.52,170.1,133.81,181.44,485.34,Single-ply,SBD,M
Boys,99.79,3,Dillion Dryg,Mansfield Summit,98.88,181.44,120.2,181.44,483.08,Single-ply,SBD,M
Boys,99.79,4,Lewis Washington,Mansfield Summit,95.25,154.22,124.74,199.58,478.54,Single-ply,SBD,M
Boys,99.79,5,Rene Lawson,Mansfield Timberview,97.43,181.44,111.13,185.97,478.54,Single-ply,SBD,M
Boys,99.79,6,Chris Meno,Mansfield Legacy,92.8,181.44,108.86,163.29,453.59,Single-ply,SBD,M
Boys,99.79,7,Jose Devon,Mansfield Summit,94.8,165.56,104.33,158.76,428.64,Single-ply,SBD,M
Boys,99.79,DQ,Cortez Harris,Mansfield Summit,97.79,136.08,111.13,181.44,,Single-ply,SBD,M
Boys,99.79,DQ,Blake Mendenhall,Mansfield Timberview,93.26,97.52,61.23,124.74,,Single-ply,SBD,M
Boys,99.79,DQ,Jordan Mathews,Mansfield Summit,94.71,,,,,Single-ply,SBD,M
Boys,99.79,DQ,Aj Rackstraw,Mansfield Timberview,99.06,,,,,Single-ply,SBD,M
Boys,109.77,1,Tajh Lang,Mansfield Summit,109.04,224.53,113.4,188.24,526.17,Single-ply,SBD,M
Boys,109.77,2,Jose Guerrero,Mansfield Legacy,104.6,183.7,122.47,154.22,460.4,Single-ply,SBD,M
Boys,109.77,3,Malcolm Carpenter,Mansfield Summit,103.24,176.9,106.59,165.56,449.06,Single-ply,SBD,M
Boys,109.77,4,Dereck Herenda,Mansfield Timberview,100.33,113.4,68.04,136.08,317.51,Single-ply,SBD,M
Boys,109.77,DQ,David Hunter,Mansfield Summit,104.05,136.08,79.38,136.08,,Single-ply,SBD,M
Boys,109.77,DQ,Armani Smith,Mansfield Timberview,105.32,136.08,97.52,163.29,,Single-ply,SBD,M
Boys,109.77,DQ,Matthew Hardy,Mansfield,100.33,,,,,Single-ply,SBD,M
Boys,109.77,DQ,Roger Carlson,Mansfield Timberview,100.7,170.1,,,,Single-ply,SBD,M
Boys,124.74,1,Devin Benton,Mansfield Summit,110.22,226.8,165.56,226.8,619.15,Single-ply,SBD,M
Boys,124.74,2,Terrance Newsom,Mansfield Summit,119.2,238.14,124.74,204.12,566.99,Single-ply,SBD,M
Boys,124.74,3,Marcel McDowell,Mansfield Legacy,113.31,213.19,120.2,158.76,492.15,Single-ply,SBD,M
Boys,124.74,4,Nick Holsomback,Mansfield Timberview,122.02,156.49,129.27,170.1,455.86,Single-ply,SBD,M
Boys,124.74+,1,Jordan Hodgson,Mansfield,130.63,240.4,165.56,208.65,614.62,Single-ply,SBD,M
Boys,124.74+,2,Jimmy Miller,Mansfield Summit,158.3,181.44,106.59,181.44,469.47,Single-ply,SBD,M
Boys,124.74+,DQ,Orlando Cardona,Mansfield Timberview,148.78,204.12,,,,Single-ply,SBD,M
