Division,WeightClassKg,Place,Name,Team,BodyweightKg,Best3SquatKg,Best3BenchKg,Best3DeadliftKg,TotalKg,Equipment,Event,Sex
Boys,51.71,1,Lucas Lara,Mathis,51.53,127.01,74.84,145.15,347,Single-ply,SBD,M
Boys,51.71,2,Marcus Gaza,Alice,51.53,149.69,58.97,127.01,335.66,Single-ply,SBD,M
Boys,51.71,3,Rogelio Hernandez,Ben Bolt-Palito Blanco,49.17,122.47,70.31,131.54,324.32,Single-ply,SBD,M
Boys,51.71,4,Brendon Batteau,Rockport-Fulton,48.81,120.2,68.04,131.54,319.78,Single-ply,SBD,M
Boys,51.71,5,Chase Rios,Rockport-Fulton,49.26,111.13,61.23,129.27,301.64,Single-ply,SBD,M
Boys,51.71,6,Cole Terry,Skidmore-Tynan,49.9,113.4,68.04,113.4,294.84,Single-ply,SBD,M
Boys,51.71,DQ,Ryan de la Garza,Goliad,51.71,,,,,Single-ply,SBD,M
Boys,55.79,1,Tyler Harris,Skidmore-Tynan,55.79,124.74,68.04,142.88,335.66,Single-ply,SBD,M
Boys,55.79,2,Chris Anderson,Ingleside,55.79,120.2,70.31,145.15,335.66,Single-ply,SBD,M
Boys,55.79,3,Jermiah Pena,Corpus Christi Calallen,53.52,104.33,58.97,120.2,283.5,Single-ply,SBD,M
Boys,55.79,DQ,Joey Heard,Orange Grove,53.07,136.08,88.45,,,Single-ply,SBD,M
Boys,55.79,DQ,Moc Moo,Port Lavaca Calhoun,55.79,195.04,102.06,,,Single-ply,SBD,M
Boys,55.79,DQ,Ruben Castro,Corpus Christi West Oso,52.16,,,,,Single-ply,SBD,M
Boys,59.87,1,Marcos Lara,Mathis,59.51,158.76,120.2,192.78,471.74,Single-ply,SBD,M
Boys,59.87,2,Noe Herrera,Kingsville King,59.42,154.22,83.91,156.49,394.63,Single-ply,SBD,M
Boys,59.87,3,Ryan Saenz,Hebbronville,59.87,133.81,72.57,147.42,353.8,Single-ply,SBD,M
Boys,59.87,DQ,Blake Suarez,Corpus Christi Tuloso-Midway,58.15,,,,,Single-ply,SBD,M
Boys,59.87,DQ,Stephen Ranly,Banquete,58.42,,,,,Single-ply,SBD,M
Boys,67.13,1,Estevan Galvan,Freer,64.5,219.99,120.2,240.4,580.6,Single-ply,SBD,M
Boys,67.13,2,Alex Gonzales,Alice,67.04,240.4,113.4,226.8,580.6,Single-ply,SBD,M
Boys,67.13,3,Oscar Camarillo,Alice,67.13,208.65,122.47,195.04,526.17,Single-ply,SBD,M
Boys,67.13,4,Daniel Tortu,Corpus Christi West Oso,65.86,204.12,111.13,201.85,517.1,Single-ply,SBD,M
Boys,67.13,5,Chantz Mickens,Corpus Christi Tuloso-Midway,63.14,215.46,102.06,188.24,505.76,Single-ply,SBD,M
Boys,67.13,6,Cristian Alvarado,Corpus Christi Calallen,65.77,183.7,88.45,192.78,464.93,Single-ply,SBD,M
Boys,67.13,7,Johnathan Castillo,Sinton,66.04,163.29,99.79,197.31,460.4,Single-ply,SBD,M
Boys,67.13,DQ,Chris Eastwood,Goliad,66.77,170.1,,,,Single-ply,SBD,M
Boys,67.13,DQ,John Pizana,Odem,66.41,,,,,Single-ply,SBD,M
Boys,74.84,1,Javier Rodriguez,San Diego,74.3,251.74,142.88,222.26,616.89,Single-ply,SBD,M
Boys,74.84,2,Cristian Perez,Ingleside,71.85,185.97,124.74,217.72,528.44,Single-ply,SBD,M
Boys,74.84,3,Christian Acosta,Ingleside,70.4,190.51,117.93,179.17,487.61,Single-ply,SBD,M
Boys,74.84,4,Arin Saenz,Freer,70.85,181.44,92.99,197.31,471.74,Single-ply,SBD,M
Boys,74.84,5,Mario Zarate,Kingsville King,68.95,181.44,102.06,181.44,464.93,Single-ply,SBD,M
Boys,74.84,6,Nathaniel McRae,Hebbronville,67.59,167.83,92.99,195.04,455.86,Single-ply,SBD,M
Boys,74.84,7,Kaleb Braddock,Corpus Christi Calallen,70.31,145.15,90.72,151.95,387.82,Single-ply,SBD,M
Boys,74.84,DQ,Matthew Valdez,Corpus Christi Calallen,67.95,147.42,,,,Single-ply,SBD,M
Boys,74.84,DQ,Tommy Aguilar,Orange Grove,70.31,,,,,Single-ply,SBD,M
Boys,74.84,DQ,Daniel Leita,Port Lavaca Calhoun,72.94,,,,,Single-ply,SBD,M
Boys,82.1,1,Daniel Rodriguez #6,Port Lavaca Calhoun,81.56,272.16,127.01,226.8,625.96,Single-ply,SBD,M
Boys,82.1,2,Anthony McGuill,Refugio,80.1,231.33,127.01,235.87,594.21,Single-ply,SBD,M
Boys,82.1,3,Rudy Perez,Ingleside,82.1,190.51,142.88,210.92,544.31,Single-ply,SBD,M
Boys,82.1,4,Chase Resendez,Rockport-Fulton,77.11,192.78,122.47,226.8,542.04,Single-ply,SBD,M
Boys,82.1,5,Elijah Holifield,Skidmore-Tynan,79.74,201.85,108.86,226.8,537.51,Single-ply,SBD,M
Boys,82.1,6,David Juarez,Corpus Christi West Oso,78.29,215.46,122.47,190.51,528.44,Single-ply,SBD,M
Boys,82.1,7,Tyler Perez,Goliad,78.65,190.51,111.13,226.8,528.44,Single-ply,SBD,M
Boys,82.1,8,Gabriel Guajardo,Skidmore-Tynan,80.92,147.42,79.38,136.08,362.87,Single-ply,SBD,M
Boys,82.1,DQ,Leonel Salinas,San Diego,75.66,242.67,,,,Single-ply,SBD,M
Boys,82.1,DQ,Brandon Guzman,Sinton,75.02,190.51,,,,Single-ply,SBD,M
Boys,82.1,DQ,Matthew Stringham,Port Lavaca Calhoun,81.74,,,,,Single-ply,SBD,M
Boys,89.81,1,Arnold Sauceda,Hebbronville,88.18,278.96,188.24,249.48,716.68,Single-ply,SBD,M
Boys,89.81,2,Karl Gibson II,Mathis,89.81,260.82,156.49,240.4,657.71,Single-ply,SBD,M
Boys,89.81,3,Rene Osornia,Port Lavaca Calhoun,89.54,249.48,140.61,215.46,605.55,Single-ply,SBD,M
Boys,89.81,4,Barry Hernandez,Corpus Christi West Oso,89.45,233.6,122.47,208.65,564.72,Single-ply,SBD,M
Boys,89.81,5,Rolando Rivas,Aransas Pass,87.36,231.33,138.35,192.78,562.45,Single-ply,SBD,M
Boys,89.81,6,Paul Torres,Aransas Pass,87.91,206.38,111.13,226.8,544.31,Single-ply,SBD,M
Boys,89.81,7,Ilias Rodriguez,Three Rivers,84.55,195.04,104.33,208.65,508.02,Single-ply,SBD,M
Boys,89.81,8,Federico Ruiz Jr,Corpus Christi Calallen,89.63,188.24,104.33,201.85,494.42,Single-ply,SBD,M
Boys,89.81,9,Marcus Hinojosa,Skidmore-Tynan,89.45,167.83,79.38,127.01,374.21,Single-ply,SBD,M
Boys,89.81,DQ,Resha Durst,Rockport-Fulton,85.28,226.8,,,,Single-ply,SBD,M
Boys,89.81,DQ,Victor Moreno,Hebbronville,82.55,,,,,Single-ply,SBD,M
Boys,89.81,DQ,Alec Lara,Mathis,88.63,,,,,Single-ply,SBD,M
Boys,99.79,1,Eddie Garcia,Port Lavaca Calhoun,99.34,297.1,154.22,272.16,723.48,Single-ply,SBD,M
Boys,99.79,2,Brian Tran,Rockport-Fulton,98.61,238.14,158.76,226.8,623.69,Single-ply,SBD,M
Boys,99.79,3,JD Zapata,Rockport-Fulton,97.89,249.48,131.54,226.8,607.81,Single-ply,SBD,M
Boys,99.79,4,John Perez,Port Lavaca Calhoun,97.61,254.01,133.81,199.58,587.4,Single-ply,SBD,M
Boys,99.79,5,Jaime Pedraza,Mathis,99.79,215.46,142.88,215.46,573.79,Single-ply,SBD,M
Boys,99.79,6,Michael Salaiz,San Diego,97.34,240.4,111.13,206.38,557.92,Single-ply,SBD,M
Boys,99.79,7,Andrew Hinojosa,Corpus Christi Calallen,92.35,190.51,120.2,206.38,517.1,Single-ply,SBD,M
Boys,99.79,8,Elias Cantu,Hebbronville,94.53,181.44,122.47,206.38,510.29,Single-ply,SBD,M
Boys,99.79,9,Dylan Hofstetter,Corpus Christi Calallen,98.43,206.38,108.86,188.24,503.49,Single-ply,SBD,M
Boys,99.79,10,Rudolfo Olivarez,Skidmore-Tynan,92.99,199.58,95.25,172.37,467.2,Single-ply,SBD,M
Boys,99.79,11,Thomas Puentes,Skidmore-Tynan,92.08,190.51,102.06,172.37,464.93,Single-ply,SBD,M
Boys,99.79,DQ,Angel Hernandez,Goliad,93.62,,,,,Single-ply,SBD,M
Boys,99.79,DQ,Frankie Lopez,Corpus Christi Tuloso-Midway,97.43,,,,,Single-ply,SBD,M
Boys,99.79,DQ,Toby Trevino,Goliad,92.35,,,,,Single-ply,SBD,M
Boys,109.77,1,Jose Moreno,San Diego,100.43,306.17,156.49,283.5,746.16,Single-ply,SBD,M
Boys,109.77,2,Matt Frazier,Port Lavaca Calhoun,109.32,294.84,170.1,219.99,684.92,Single-ply,SBD,M
Boys,109.77,3,Jose Marquez,Hebbronville,107.95,249.48,138.35,235.87,623.69,Single-ply,SBD,M
Boys,109.77,4,Matt German,Rockport-Fulton,103.78,238.14,145.15,233.6,616.89,Single-ply,SBD,M
Boys,109.77,5,Cameron Calvillo,Orange Grove,103.87,226.8,149.69,195.04,571.53,Single-ply,SBD,M
Boys,109.77,6,Estevan Esqueda,Odem,109.77,219.99,154.22,183.7,557.92,Single-ply,SBD,M
Boys,109.77,7,Tristan Frerich,Odem,109.5,217.72,133.81,195.04,546.58,Single-ply,SBD,M
Boys,109.77,8,Jose Chavera,Banquete,106.32,213.19,122.47,201.85,537.51,Single-ply,SBD,M
Boys,109.77,9,Marcus Avitia,Ingleside,106.41,183.7,115.67,129.27,428.64,Single-ply,SBD,M
Boys,109.77,DQ,Michael Morales,Aransas Pass,107.95,,,,,Single-ply,SBD,M
Boys,124.74,1,Javier Henderson,Mathis,119.57,353.8,185.97,235.87,775.64,Single-ply,SBD,M
Boys,124.74,2,Trace Mascorro,Refugio,115.94,226.8,167.83,240.4,635.03,Single-ply,SBD,M
Boys,124.74,3,Diego Fonseca,Mathis,113.31,244.94,151.95,226.8,623.69,Single-ply,SBD,M
Boys,124.74,4,Josh Sturgeon,Corpus Christi West Oso,121.56,265.35,129.27,226.8,621.42,Single-ply,SBD,M
Boys,124.74,5,Anthony Cantu,Mathis,112.94,258.55,161.03,185.97,605.55,Single-ply,SBD,M
Boys,124.74,6,Fabvian Vargas,Goliad,113.13,215.46,145.15,208.65,569.26,Single-ply,SBD,M
Boys,124.74,DQ,Ezekiel Palacios,Goliad,115.12,,,,,Single-ply,SBD,M
Boys,124.74,DQ,Luis Sanchez,Three Rivers,119.02,254.01,,,,Single-ply,SBD,M
Boys,124.74+,1,Joe Rodriguez,Kingsville King,136.8,242.67,156.49,251.74,650.91,Single-ply,SBD,M
Boys,124.74+,2,Chase Herrig,Sinton,129.73,240.4,167.83,222.26,630.49,Single-ply,SBD,M
Boys,124.74+,3,EJ Hodges,Port Lavaca Calhoun,126.46,226.8,156.49,199.58,582.87,Single-ply,SBD,M
Boys,124.74+,4,George Hughes,San Diego,128.37,226.8,136.08,215.46,578.33,Single-ply,SBD,M
Boys,124.74+,5,Jeremy Iglehart,Corpus Christi Calallen,128.73,231.33,129.27,165.56,526.17,Single-ply,SBD,M
Boys,124.74+,DQ,Mike Esparza,Rockport-Fulton,131.54,328.85,201.85,,,Single-ply,SBD,M
