Division,WeightClassKg,Place,Name,Team,BodyweightKg,Best3SquatKg,Best3BenchKg,Best3DeadliftKg,TotalKg,Equipment,Event,Sex
Boys,51.71,1,Tuti Garcia,Los Fresnos,49.26,142.88,74.84,136.08,353.8,Single-ply,SBD,M
Boys,51.71,DQ,Albert de la Rosa,San Benito,50.8,129.27,,,,Single-ply,SBD,M
Boys,55.79,1,Jerry Lopez,Port Isabel,54.16,195.04,106.59,185.97,487.61,Single-ply,SBD,M
Boys,55.79,2,Raul Mata,San Benito,55.07,145.15,102.06,165.56,412.77,Single-ply,SBD,M
Boys,55.79,3,Ralph Zapata,Rio Hondo,53.98,147.42,83.91,138.35,369.68,Single-ply,SBD,M
Boys,55.79,4,Billy Guerra,La Feria,55.34,133.81,56.7,127.01,317.51,Single-ply,SBD,M
Boys,55.79,DQ,Hugo Abarca,Lyford,54.88,120.2,,,,Single-ply,SBD,M
Boys,59.87,1,Juan Torres,San Benito,57.7,190.51,99.79,199.58,489.88,Single-ply,SBD,M
Boys,59.87,2,Alan Alfaro,Rio Hondo,59.69,167.83,79.38,183.7,430.91,Single-ply,SBD,M
Boys,59.87,3,Heliseo Guerrero,Rio Hondo,59.87,156.49,90.72,174.63,421.84,Single-ply,SBD,M
Boys,59.87,4,Randy Medellin,San Benito,57.42,131.54,81.65,147.42,360.61,Single-ply,SBD,M
Boys,67.13,5,Adam Cancino,La Feria,60.06,113.4,65.77,127.01,306.17,Single-ply,SBD,M
Boys,59.87,DQ,George Hernandez,Santa Rosa,58.97,129.27,,,,Single-ply,SBD,M
Boys,74.84,1,Carlos Castillo,Los Fresnos,67.36,199.58,117.93,199.58,517.1,Single-ply,SBD,M
Boys,67.13,2,Julio Rodriguez,Raymondville,64.14,183.7,115.67,208.65,508.02,Single-ply,SBD,M
Boys,67.13,3,Jesse Leyva,Raymondville,66.32,206.38,102.06,199.58,508.02,Single-ply,SBD,M
Boys,67.13,4,Kenny Atkinson,Los Fresnos,67.04,181.44,122.47,190.51,494.42,Single-ply,SBD,M
Boys,67.13,5,Marco Garate,Rio Hondo,65.95,170.1,104.33,188.24,462.66,Single-ply,SBD,M
Boys,74.84,6,Marco Arista,Port Isabel,67.31,174.63,99.79,172.37,446.79,Single-ply,SBD,M
Boys,67.13,7,Octavio Torres,San Benito,66.95,163.29,99.79,174.63,437.72,Single-ply,SBD,M
Boys,67.13,8,Seth Naranjo,Santa Rosa,61.33,151.95,106.59,174.63,433.18,Single-ply,SBD,M
Boys,67.13,9,Joselito Guardado,Los Fresnos,64.95,158.76,83.91,179.17,421.84,Single-ply,SBD,M
Boys,67.13,10,Jesse Ibanez,San Benito,65.41,140.61,92.99,151.95,385.55,Single-ply,SBD,M
Boys,67.13,11,Anthony Noyola,San Benito,62.78,138.35,88.45,154.22,381.02,Single-ply,SBD,M
Boys,67.13,12,Albert Vasquez,La Feria,65.23,127.01,68.04,136.08,331.12,Single-ply,SBD,M
Boys,67.13,DQ,James A Zarageza,Raymondville,61.33,,,,,Single-ply,SBD,M
Boys,74.84,1,Leonard Ramirez,Raymondville,74.12,226.8,161.03,238.14,625.96,Single-ply,SBD,M
Boys,74.84,2,Adan Cantu,Rio Grande City Grulla,74.12,215.46,104.33,185.97,505.76,Single-ply,SBD,M
Boys,74.84,3,Miguel Mariscal,Edcouch-Elsa,73.57,176.9,124.74,183.7,485.34,Single-ply,SBD,M
Boys,74.84,4,Wally Olivarez,Santa Rosa,74.57,158.76,102.06,165.56,426.38,Single-ply,SBD,M
Boys,74.84,5,David Marroquin,Raymondville,68.67,158.76,90.72,163.29,412.77,Single-ply,SBD,M
Boys,74.84,6,Jesus Perez,Los Fresnos,74.57,142.88,95.25,167.83,405.97,Single-ply,SBD,M
Boys,74.84,7,Ben Parrish,San Benito,69.49,138.35,97.52,163.29,399.16,Single-ply,SBD,M
Boys,74.84,8,Andrew Torres,San Benito,67.68,138.35,79.38,165.56,383.29,Single-ply,SBD,M
Boys,74.84,DQ,Nathan Miereles,San Benito,72.03,201.85,,,,Single-ply,SBD,M
Boys,74.84,DQ,Pedro Gonzalez,Port Isabel,71.4,161.03,,,,Single-ply,SBD,M
Boys,74.84,DQ,Abel Rangel,La Feria,73.48,,,,,Single-ply,SBD,M
Boys,74.84,DQ,Jerry Alaniz,La Feria,73.66,244.94,,,,Single-ply,SBD,M
Boys,74.84,DQ,Alex Lanza,Los Fresnos,72.85,231.33,,,,Single-ply,SBD,M
Boys,74.84,DQ,Lupe Mendieta,Los Fresnos,74.03,165.56,83.91,,,Single-ply,SBD,M
Boys,82.1,1,Ramon Sauceda,La Feria,81.83,260.82,156.49,256.28,673.58,Single-ply,SBD,M
Boys,89.81,2,Robert Trevino,Edcouch-Elsa,82.19,251.74,131.54,247.21,630.49,Single-ply,SBD,M
Boys,82.1,3,Cordero Castro,Lyford,78.93,195.04,108.86,210.92,514.83,Single-ply,SBD,M
Boys,82.1,4,Diego Garcia,Edcouch-Elsa,78.29,183.7,122.47,192.78,498.95,Single-ply,SBD,M
Boys,82.1,5,Travis Ramos,Lyford,78.02,197.31,108.86,181.44,487.61,Single-ply,SBD,M
Boys,82.1,6,Richard Hernandez,Edcouch-Elsa,76.93,172.37,113.4,197.31,483.08,Single-ply,SBD,M
Boys,82.1,7,Rene Gonzalez,Los Fresnos,80.56,165.56,92.99,210.92,469.47,Single-ply,SBD,M
Boys,82.1,8,Brandon Cantu,Port Isabel,81.56,165.56,108.86,188.24,462.66,Single-ply,SBD,M
Boys,82.1,9,Eli Rivas,San Benito,81.83,145.15,104.33,161.03,410.5,Single-ply,SBD,M
Boys,82.1,10,Miguel Medina,Lyford,79.2,149.69,99.79,151.95,401.43,Single-ply,SBD,M
Boys,82.1,DQ,Isai Perez,Rio Grande City Grulla,80.1,,,,,Single-ply,SBD,M
Boys,82.1,DQ,Eduardo Estrada,La Feria,80.29,183.7,122.47,,,Single-ply,SBD,M
Boys,89.81,1,Fernando Rivera,Port Isabel,89.27,242.67,161.03,210.92,614.62,Single-ply,SBD,M
Boys,89.81,2,Jesus Roiz,Rio Grande City Grulla,89.18,231.33,149.69,206.38,587.4,Single-ply,SBD,M
Boys,99.79,3,Ricky Rodriguez,San Benito,89.99,183.7,120.2,201.85,505.76,Single-ply,SBD,M
Boys,89.81,4,Cristian Hoshino,Port Isabel,85.55,195.04,120.2,181.44,496.68,Single-ply,SBD,M
Boys,89.81,5,Isaac Martinez,Port Isabel,86.09,181.44,111.13,195.04,487.61,Single-ply,SBD,M
Boys,89.81,DQ,Ricardo Guajardo,Raymondville,83.1,,,,,Single-ply,SBD,M
Boys,99.79,1,Julio Rivas,San Benito,99.16,258.55,163.29,263.08,684.92,Single-ply,SBD,M
Boys,109.77,2,Alex Valencia,Los Fresnos,99.88,240.4,170.1,235.87,646.37,Single-ply,SBD,M
Boys,99.79,3,Israel Torres,La Feria,94.62,188.24,113.4,188.24,489.88,Single-ply,SBD,M
Boys,109.77,1,Mike Garza,Edcouch-Elsa,108.32,265.35,149.69,244.94,659.98,Single-ply,SBD,M
Boys,109.77,2,Juan Gallegos,Rio Hondo,108.86,233.6,161.03,215.46,610.08,Single-ply,SBD,M
Boys,109.77,3,Jason Medellin,San Benito,108.86,190.51,136.08,197.31,523.9,Single-ply,SBD,M
Boys,109.77,3,Michael Cervantes,Lyford,107.95,247.21,142.88,188.24,578.33,Single-ply,SBD,M
Boys,109.77,4,Lalo Buenrostros,San Benito,101.79,192.78,113.4,208.65,514.83,Single-ply,SBD,M
Boys,109.77,5,Narzario Garza,Rio Grande City Grulla,106.41,199.58,127.01,181.44,508.02,Single-ply,SBD,M
Boys,109.77,6,Frank Alvarez,Port Isabel,106.5,179.17,122.47,199.58,501.22,Single-ply,SBD,M
Boys,109.77,7,Luis Martinez,San Benito,104.05,181.44,136.08,181.44,498.95,Single-ply,SBD,M
Boys,109.77,8,Robert Cervantes,Raymondville,108.41,197.31,133.81,156.49,487.61,Single-ply,SBD,M
Boys,124.74,1,Bobby Gonzales,Raymondville,111.95,306.17,174.63,272.16,752.96,Single-ply,SBD,M
Boys,124.74+,2,Pete Lozano,San Benito,124.92,274.42,195.04,276.69,746.16,Single-ply,SBD,M
Boys,124.74,3,Gabriel Garzoria,Los Fresnos,117.48,240.4,179.17,240.4,659.98,Single-ply,SBD,M
Boys,124.74+,1,John Reyes,Rio Hondo,139.16,272.16,161.03,215.46,648.64,Single-ply,SBD,M
Boys,124.74+,2,Pedro Salto,Edcouch-Elsa,140.3,217.72,129.27,204.12,551.11,Single-ply,SBD,M
Boys,124.74+,DQ,Dominic Tijerina,Raymondville,153.4,,,,,Single-ply,SBD,M
