Division,WeightClassKg,Place,Name,Team,BodyweightKg,Best3SquatKg,Best3BenchKg,Best3DeadliftKg,TotalKg,Equipment,Event,Sex
Boys,55.79,1,Zach Sasser,Lake Dallas,54.98,77.11,47.63,92.99,217.72,Single-ply,SBD,M
Boys,67.13,1,Ryan Arnold,Carrollton Ranchview,60.1,117.93,68.04,133.81,319.78,Single-ply,SBD,M
Boys,59.87,2,Adam Tipps,Lake Dallas,58.74,113.4,61.23,136.08,310.71,Single-ply,SBD,M
Boys,59.87,3,Horatio Gates,Carrollton Ranchview,57.92,86.18,81.65,108.86,276.69,Single-ply,SBD,M
Boys,67.13,1,Manuel Anzures,Carrollton Creekview,65.95,151.95,95.25,158.76,405.97,Single-ply,SBD,M
Boys,67.13,2,Alan Garcia,Carrollton Turner,66.22,154.22,88.45,151.95,394.63,Single-ply,SBD,M
Boys,67.13,3,Matt Stockard,Lake Dallas,66.32,147.42,72.57,158.76,378.75,Single-ply,SBD,M
Boys,74.84,4,Jarrod Mariano,Carrollton Ranchview,67.31,115.67,79.38,147.42,342.46,Single-ply,SBD,M
Boys,67.13,5,Gregory Jordan,Carrollton Creekview,63.32,120.2,77.11,117.93,315.25,Single-ply,SBD,M
Boys,67.13,6,Victor Piniero,Carrollton Creekview,65.09,106.59,68.04,122.47,297.1,Single-ply,SBD,M
Boys,67.13,7,Kolby Davis,Lake Dallas,65.59,102.06,68.04,120.2,290.3,Single-ply,SBD,M
Boys,67.13,8,Bryson Porter,Lake Dallas,64.77,92.99,61.23,102.06,256.28,Single-ply,SBD,M
Boys,67.13,9,Jeff Skinner,Lake Dallas,66,68.04,61.23,90.72,219.99,Single-ply,SBD,M
Boys,67.13,DQ,Domanick Hughes,Carrollton Creekview,64.32,,,,,Single-ply,SBD,M
Boys,67.13,DQ,Darryl Finch,Carrollton Creekview,67.13,,,181.44,,Single-ply,SBD,M
Boys,67.13,DQ,Lantric Carter,Carrollton Creekview,66.63,,72.57,147.42,,Single-ply,SBD,M
Boys,74.84,1,Jaylon Norman,Carrollton Ranchview,71.62,163.29,108.86,201.85,474,Single-ply,SBD,M
Boys,74.84,2,Jacob Gamez,Carrollton Turner,70.17,151.95,83.91,176.9,412.77,Single-ply,SBD,M
Boys,74.84,3,Guillermo Saldana,Carrollton Turner,73.94,151.95,92.99,163.29,408.23,Single-ply,SBD,M
Boys,74.84,4,Isaac Pierce,Carrollton Creekview,71.53,120.2,88.45,163.29,371.95,Single-ply,SBD,M
Boys,74.84,5,Jagger McCarty,Lake Dallas,73.3,129.27,77.11,147.42,353.8,Single-ply,SBD,M
Boys,74.84,6,Garren Schantz,Lake Dallas,73.75,127.01,74.84,151.95,353.8,Single-ply,SBD,M
Boys,82.1,7,Arley Thomas,Carrollton Creekview,75.02,86.18,63.5,99.79,249.48,Single-ply,SBD,M
Boys,82.1,1,Davian Carter,Carrollton Ranchview,75.11,204.12,115.67,201.85,521.63,Single-ply,SBD,M
Boys,82.1,2,Kalon Mitchell,Carrollton Ranchview,75.93,181.44,111.13,199.58,492.15,Single-ply,SBD,M
Boys,82.1,3,Dalton Anderson,Lake Dallas,80.6,151.95,106.59,206.38,464.93,Single-ply,SBD,M
Boys,82.1,4,Uriel Cadena,Carrollton Turner,80.2,172.37,102.06,172.37,446.79,Single-ply,SBD,M
Boys,82.1,5,Chris Cabrera,Carrollton Creekview,78.93,133.81,90.72,151.95,376.48,Single-ply,SBD,M
Boys,82.1,6,Matthew Garcia,Carrollton Ranchview,77.52,115.67,68.04,124.74,308.44,Single-ply,SBD,M
Boys,82.1,7,Jose Solis,Carrollton Creekview,76.57,83.91,54.43,115.67,254.01,Single-ply,SBD,M
Boys,89.81,1,Jordan Simpson,Carrollton Creekview,86.91,204.12,131.54,226.8,562.45,Single-ply,SBD,M
Boys,99.79,2,Maurico Rojas,Carrollton Turner,89.9,172.37,108.86,165.56,446.79,Single-ply,SBD,M
Boys,89.81,3,Layton Lewis,Carrollton Creekview,85.32,156.49,102.06,183.7,442.25,Single-ply,SBD,M
Boys,89.81,4,Damian Hyde,Lake Dallas,88.04,142.88,111.13,158.76,412.77,Single-ply,SBD,M
Boys,89.81,5,Diaondre Moton,Lake Dallas,82.42,122.47,86.18,142.88,351.53,Single-ply,SBD,M
Boys,89.81,6,Orlando Garcia,Carrollton Creekview,88.45,124.74,83.91,140.61,349.27,Single-ply,SBD,M
Boys,89.81,7,Andres Renteria,Carrollton Creekview,84.91,129.27,74.84,142.88,347,Single-ply,SBD,M
Boys,89.81,8,Jayson Ginn,Carrollton Ranchview,86.73,129.27,77.11,136.08,342.46,Single-ply,SBD,M
Boys,89.81,9,Brayan Orellana,Carrollton Creekview,83.32,102.06,70.31,149.69,322.05,Single-ply,SBD,M
Boys,89.81,10,Issa Diop,Carrollton Creekview,86.14,58.97,43.09,70.31,172.37,Single-ply,SBD,M
Boys,99.79,1,David Wilson,Carrollton Turner,98.75,181.44,129.27,215.46,526.17,Single-ply,SBD,M
Boys,99.79,2,Jacob Biggerstaff,Lake Dallas,94.26,158.76,120.2,181.44,460.4,Single-ply,SBD,M
Boys,99.79,3,Bryan Chavez,Carrollton Turner,94.48,145.15,104.33,172.37,421.84,Single-ply,SBD,M
Boys,99.79,4,Renan Olivera,Carrollton Ranchview,93.71,145.15,90.72,181.44,417.3,Single-ply,SBD,M
Boys,99.79,5,Cash Latta,Carrollton Creekview,94.08,147.42,99.79,158.76,405.97,Single-ply,SBD,M
Boys,99.79,DQ,Dagan Myers,Carrollton Creekview,95.57,,,,,Single-ply,SBD,M
Boys,99.79,DQ,Tristen Bennett,Carrollton Ranchview,97.57,,115.67,201.85,,Single-ply,SBD,M
Boys,99.79,DQ,Blake Burkhead,Carrollton Creekview,99.74,,,,,Single-ply,SBD,M
Boys,109.77,1,Taylor Wilson,Carrollton Turner,100.06,163.29,108.86,195.04,467.2,Single-ply,SBD,M
Boys,109.77,2,Mason Parker,Carrollton Creekview,105.69,151.95,102.06,188.24,442.25,Single-ply,SBD,M
Boys,109.77,3,Dominick Weston,Lake Dallas,105.78,142.88,83.91,142.88,369.68,Single-ply,SBD,M
Boys,109.77,DQ,Cameron Officer,Carrollton Creekview,109.63,147.42,,,,Single-ply,SBD,M
Boys,124.74,1,Jonathan Robinson,Carrollton Ranchview,121.43,145.15,97.52,156.49,399.16,Single-ply,SBD,M
Boys,124.74,2,Zachary Baetz,Lake Dallas,123.29,147.42,90.72,142.88,381.02,Single-ply,SBD,M
Boys,124.74,3,Evan Lea,Lake Dallas,112.54,131.54,70.31,163.29,365.14,Single-ply,SBD,M
Boys,124.74,4,Matt Kittridge,Carrollton Creekview,121.97,145.15,92.99,124.74,362.87,Single-ply,SBD,M
Boys,124.74,5,Issah Bogan,Lake Dallas,113.85,115.67,68.04,136.08,319.78,Single-ply,SBD,M
Boys,124.74+,1,Seth Miller,Carrollton Creekview,146.83,263.08,129.27,215.46,607.81,Single-ply,SBD,M
Boys,124.74+,2,CJ Mendoza,Carrollton Ranchview,131.41,204.12,122.47,231.33,557.92,Single-ply,SBD,M
Boys,124.74+,3,Manny Flores,Carrollton Turner,132.81,201.85,129.27,226.8,557.92,Single-ply,SBD,M
Boys,124.74+,4,Austin Livingston,Lake Dallas,167.01,183.7,102.06,183.7,469.47,Single-ply,SBD,M
Boys,124.74+,5,Max Hahn,Carrollton Ranchview,126.42,163.29,74.84,195.04,433.18,Single-ply,SBD,M
Boys,124.74+,6,Francisco Quintero,Carrollton Creekview,126.73,185.97,113.4,,299.37,Single-ply,SB,M
