Division,WeightClassKg,Place,Name,Team,BodyweightKg,Best3SquatKg,Best3BenchKg,Best3DeadliftKg,TotalKg,Equipment,Event,Sex
Boys,51.71,1,Cody Villa,Crawford,51.35,138.35,83.91,163.29,385.55,Single-ply,SBD,M
Boys,55.79,2,Jake Robertson,Clifton,51.8,145.15,86.18,142.88,374.21,Single-ply,SBD,M
Boys,51.71,3,Seth Solis,Troy,47.17,129.27,70.31,127.01,326.59,Single-ply,SBD,M
Boys,51.71,4,Emiliano Mar,Clifton,51.71,122.47,63.5,124.74,310.71,Single-ply,SBD,M
Boys,51.71,5,Pablo Hernandez,Hillsboro,50.35,104.33,63.5,117.93,285.76,Single-ply,SBD,M
Boys,51.71,6,Tyler Dews,Gatesville,51.62,99.79,45.36,113.4,258.55,Single-ply,SBD,M
Boys,51.71,7,Colton Gober,Troy,49.9,88.45,40.82,108.86,238.14,Single-ply,SBD,M
Boys,51.71,8,Josh Olsen,Clifton,48.53,95.25,52.16,86.18,233.6,Single-ply,SBD,M
Boys,51.71,9,Daylan Wiethorn,West,48.26,81.65,47.63,95.25,224.53,Single-ply,SBD,M
Boys,55.79,1,Miguel Contreras,Robinson,52.71,167.83,79.38,163.29,410.5,Single-ply,SBD,M
Boys,55.79,2,Grady Rhoden,Alvarado,55.79,140.61,68.04,163.29,371.95,Single-ply,SBD,M
Boys,55.79,3,Jeremy Alaniz,Riesel,53.98,129.27,74.84,127.01,331.12,Single-ply,SBD,M
Boys,55.79,4,Jeffrey Porter,Alvarado,52.62,136.08,70.31,113.4,319.78,Single-ply,SBD,M
Boys,55.79,5,Javier Sauceda,China Spring,54.79,104.33,65.77,129.27,299.37,Single-ply,SBD,M
Boys,59.87,6,Braden Mitchell,Gatesville,55.97,111.13,56.7,122.47,290.3,Single-ply,SBD,M
Boys,59.87,1,Sean Gibson,Whitney,59.87,185.97,104.33,215.46,505.76,Single-ply,SBD,M
Boys,59.87,2,Luis Juarez,Bosqueville,58.6,183.7,111.13,197.31,492.15,Single-ply,SBD,M
Boys,67.13,3,Eduardo Jaimes,Riesel,60.06,170.1,88.45,172.37,430.91,Single-ply,SBD,M
Boys,59.87,4,Billy Manolakis,West,59.78,156.49,104.33,161.03,421.84,Single-ply,SBD,M
Boys,59.87,5,Cory Sauer,Robinson,59.42,163.29,99.79,136.08,399.16,Single-ply,SBD,M
Boys,59.87,6,Colton Frazier,Riesel,59.6,127.01,68.04,127.01,322.05,Single-ply,SBD,M
Boys,59.87,7,Dylan Green,Whitney,59.42,102.06,61.23,113.4,276.69,Single-ply,SBD,M
Boys,59.87,8,Robert Hill,Alvarado,57.97,102.06,49.9,113.4,265.35,Single-ply,SBD,M
Boys,59.87,9,Sean Murphy,Bosqueville,56.88,77.11,58.97,122.47,258.55,Single-ply,SBD,M
Boys,59.87,DQ,Jossie Palacios,Mexia,59.42,102.06,,,,Single-ply,SBD,M
Boys,67.13,1,Dylan Haralson,Axtell,66.68,226.8,90.72,229.06,546.58,Single-ply,SBD,M
Boys,67.13,2,Cody Brooks,Robinson,66.95,208.65,127.01,206.38,542.04,Single-ply,SBD,M
Boys,74.84,3,Dakotta Thomas,Clifton,67.31,190.51,99.79,208.65,498.95,Single-ply,SBD,M
Boys,74.84,4,Gabe Cobos,Riesel,67.22,172.37,97.52,204.12,474,Single-ply,SBD,M
Boys,67.13,5,Philip Carpenter,Waco La Vega,67.13,181.44,90.72,188.24,460.4,Single-ply,SBD,M
Boys,67.13,6,Kory Kyei,McGregor,67.13,176.9,88.45,183.7,449.06,Single-ply,SBD,M
Boys,67.13,7,Zach Rankin,West,66.32,172.37,104.33,165.56,442.25,Single-ply,SBD,M
Boys,67.13,8,Kyle Jacobs,McGregor,61.14,154.22,108.86,165.56,428.64,Single-ply,SBD,M
Boys,67.13,9,Ty Mooney,McGregor,66.95,199.58,79.38,149.69,428.64,Single-ply,SBD,M
Boys,67.13,10,Bo Pearson,Crawford,66.86,149.69,79.38,147.42,376.48,Single-ply,SBD,M
Boys,67.13,11,Chip Espin,Axtell,64.95,136.08,90.72,147.42,374.21,Single-ply,SBD,M
Boys,67.13,12,Kelby Sultemeier,West,62.96,149.69,79.38,138.35,367.41,Single-ply,SBD,M
Boys,67.13,13,Nick Weigant,Whitney,63.78,145.15,79.38,129.27,353.8,Single-ply,SBD,M
Boys,67.13,14,Lucas Ramsey,Meridian,65.59,124.74,81.65,136.08,342.46,Single-ply,SBD,M
Boys,67.13,15,Cj Smith,Crawford,65.59,136.08,70.31,136.08,342.46,Single-ply,SBD,M
Boys,67.13,16,Anthony Flores,Meridian,65.77,102.06,70.31,133.81,306.17,Single-ply,SBD,M
Boys,67.13,DQ,Alex Smith,Bosqueville,64.5,158.76,,,,Single-ply,SBD,M
Boys,74.84,1,Chase McGhee,Gatesville,70.94,235.87,136.08,219.99,591.94,Single-ply,SBD,M
Boys,74.84,2,Hunter Work,Robinson,74.66,217.72,154.22,206.38,578.33,Single-ply,SBD,M
Boys,74.84,3,Brett Boles,McGregor,74.39,204.12,122.47,213.19,539.77,Single-ply,SBD,M
Boys,74.84,4,Raynard Smith,Waco La Vega,73.3,199.58,108.86,210.92,519.36,Single-ply,SBD,M
Boys,74.84,5,Allen Scott,Gatesville,73.94,199.58,117.93,199.58,517.1,Single-ply,SBD,M
Boys,74.84,6,Dustin Murphy,Clifton,73.3,197.31,117.93,199.58,514.83,Single-ply,SBD,M
Boys,74.84,7,Juan Villa,Robinson,74.57,181.44,124.74,181.44,487.61,Single-ply,SBD,M
Boys,74.84,8,Garrett Michael,Whitney,70.4,201.85,86.18,197.31,485.34,Single-ply,SBD,M
Boys,82.1,9,Jaen Lopez,Clifton,75.02,188.24,117.93,176.9,483.08,Single-ply,SBD,M
Boys,74.84,10,Jt Estes,Whitney,68.67,183.7,113.4,165.56,462.66,Single-ply,SBD,M
Boys,74.84,11,Garrett Salas,McGregor,72.39,181.44,95.25,185.97,462.66,Single-ply,SBD,M
Boys,74.84,12,Justin Poling,China Spring,73.94,158.76,111.13,192.78,462.66,Single-ply,SBD,M
Boys,74.84,13,Edmond Marton,Axtell,72.03,185.97,90.72,183.7,460.4,Single-ply,SBD,M
Boys,74.84,14,Chandler Gordon,Hillsboro,70.76,176.9,97.52,179.17,453.59,Single-ply,SBD,M
Boys,74.84,15,Devyn Hebbe,Axtell,71.76,181.44,86.18,185.97,453.59,Single-ply,SBD,M
Boys,74.84,16,Dillon McBride,Axtell,71.21,154.22,99.79,158.76,412.77,Single-ply,SBD,M
Boys,74.84,17,Oscar Gomez,Hillsboro,73.75,154.22,81.65,154.22,390.09,Single-ply,SBD,M
Boys,74.84,18,Michael Hallman,Gatesville,71.67,140.61,88.45,149.69,378.75,Single-ply,SBD,M
Boys,74.84,19,Sklar Payne,McGregor,74.39,154.22,77.11,147.42,378.75,Single-ply,SBD,M
Boys,74.84,20,Jaime Reynoso,Meridian,72.57,102.06,68.04,136.08,306.17,Single-ply,SBD,M
Boys,74.84,21,Grady Shields,Groesbeck,69.4,104.33,61.23,127.01,292.57,Single-ply,SBD,M
Boys,74.84,DQ,Braxton Stefka,Riesel,74.75,172.37,,,,Single-ply,SBD,M
Boys,74.84,DQ,Ramiro Fraire,West,73.12,195.04,,,,Single-ply,SBD,M
Boys,74.84,DQ,Justin Uptmore,West,74.75,165.56,,,,Single-ply,SBD,M
Boys,74.84,DQ,D'Korey-A Johnson,Hillsboro,74.75,,,,,Single-ply,SBD,M
Boys,82.1,1,Martin Balderas,Groesbeck,80.1,233.6,142.88,258.55,635.03,Single-ply,SBD,M
Boys,89.81,2,Kasey Kiphen,Gatesville,82.28,204.12,120.2,192.78,517.1,Single-ply,SBD,M
Boys,82.1,3,Cole Anderson,West,81.47,208.65,113.4,185.97,508.02,Single-ply,SBD,M
Boys,89.81,4,Chris Dingrando,Whitney,82.28,174.63,122.47,204.12,501.22,Single-ply,SBD,M
Boys,82.1,5,Dylan Connell,China Spring,81.56,167.83,104.33,215.46,487.61,Single-ply,SBD,M
Boys,82.1,6,Matt Brown,Crawford,80.1,181.44,120.2,174.63,476.27,Single-ply,SBD,M
Boys,82.1,7,Antonio Vargas,China Spring,81.01,147.42,129.27,199.58,476.27,Single-ply,SBD,M
Boys,82.1,8,Eric Byers,Gatesville,82.1,170.1,120.2,181.44,471.74,Single-ply,SBD,M
Boys,82.1,9,Manny Garcia,Waco La Vega,80.2,185.97,108.86,165.56,460.4,Single-ply,SBD,M
Boys,82.1,10,Tyler Pustejovsky,West,79.92,181.44,92.99,181.44,455.86,Single-ply,SBD,M
Boys,82.1,11,Jason Schmidt #1,Clifton,81.19,172.37,95.25,183.7,451.32,Single-ply,SBD,M
Boys,82.1,12,Walker Allen,China Spring,81.1,147.42,102.06,176.9,426.38,Single-ply,SBD,M
Boys,82.1,13,Gc Davis,McGregor,82.01,154.22,99.79,158.76,412.77,Single-ply,SBD,M
Boys,82.1,14,Billy Shilling,Axtell,80.92,174.63,72.57,158.76,405.97,Single-ply,SBD,M
Boys,82.1,15,Joseph Holland,Riesel,78.93,149.69,97.52,151.95,399.16,Single-ply,SBD,M
Boys,82.1,16,Jason Marroquin,Axtell,78.2,151.95,77.11,167.83,396.89,Single-ply,SBD,M
Boys,82.1,17,Larry Reid,Robinson,75.84,140.61,97.52,149.69,387.82,Single-ply,SBD,M
Boys,82.1,18,David Librado,Hillsboro,81.74,147.42,90.72,149.69,387.82,Single-ply,SBD,M
Boys,82.1,DQ,Robert Robinson,Mexia,82.1,231.33,,,,Single-ply,SBD,M
Boys,82.1,DQ,Ryan Baty,Riesel,80.65,149.69,,,,Single-ply,SBD,M
Boys,89.81,1,Brody Jones,Crawford,85.55,265.35,151.95,229.06,646.37,Single-ply,SBD,M
Boys,89.81,2,Gerald Horne II,Waco La Vega,89.81,240.4,138.35,238.14,616.89,Single-ply,SBD,M
Boys,89.81,3,Zach Koening,China Spring,89.63,238.14,131.54,206.38,576.06,Single-ply,SBD,M
Boys,89.81,4,Bailey Guynes,Troy,83.01,195.04,124.74,204.12,523.9,Single-ply,SBD,M
Boys,89.81,5,Caleb Gauer,China Spring,87.54,185.97,136.08,183.7,505.76,Single-ply,SBD,M
Boys,89.81,6,Taylor Hull,China Spring,88.63,192.78,113.4,192.78,498.95,Single-ply,SBD,M
Boys,89.81,7,Riley Allen,Robinson,84.46,183.7,113.4,174.63,471.74,Single-ply,SBD,M
Boys,89.81,8,Dillion Van Zandt,Crawford,87.82,192.78,97.52,181.44,471.74,Single-ply,SBD,M
Boys,89.81,9,Cole Pisarcik,Crawford,85.73,176.9,95.25,170.1,442.25,Single-ply,SBD,M
Boys,89.81,10,Dustin Brown,Waco La Vega,88.81,172.37,99.79,165.56,437.72,Single-ply,SBD,M
Boys,89.81,11,Tristan Cale,Bosqueville,88.81,161.03,95.25,165.56,421.84,Single-ply,SBD,M
Boys,89.81,12,Patrick Gonzalez,Whitney,88.27,156.49,90.72,170.1,417.3,Single-ply,SBD,M
Boys,89.81,13,Griffin Smith,Troy,88.81,170.1,92.99,154.22,417.3,Single-ply,SBD,M
Boys,89.81,14,Cody Trammell,Troy,88.99,145.15,77.11,149.69,371.95,Single-ply,SBD,M
Boys,89.81,15,Levi Darby,Mexia,84.1,147.42,68.04,142.88,358.34,Single-ply,SBD,M
Boys,89.81,16,Rahi Patel,Mexia,88.54,124.74,81.65,133.81,340.19,Single-ply,SBD,M
Boys,89.81,17,Luis Reyes,McGregor,87.18,136.08,72.57,124.74,333.39,Single-ply,SBD,M
Boys,89.81,DQ,Marco Vasquez,Riesel,82.64,217.72,,,,Single-ply,SBD,M
Boys,89.81,DQ,Cody Finnegan,Riesel,89.09,195.04,,,,Single-ply,SBD,M
Boys,89.81,DQ,Isaiah Gardea,Clifton,89.18,213.19,,,,Single-ply,SBD,M
Boys,99.79,1,D'Andre Minnitt,Waco La Vega,96.71,254.01,131.54,260.82,646.37,Single-ply,SBD,M
Boys,99.79,2,Jeff Stark,Troy,91.53,226.8,167.83,229.06,623.69,Single-ply,SBD,M
Boys,99.79,3,Tyler Martinez,Axtell,91.53,247.21,133.81,238.14,619.15,Single-ply,SBD,M
Boys,99.79,4,Dalton Symm,China Spring,96.98,235.87,151.95,215.46,603.28,Single-ply,SBD,M
Boys,99.79,5,Jacob Kevil,Crawford,97.98,195.04,127.01,210.92,532.97,Single-ply,SBD,M
Boys,99.79,6,Joseph Reddick,Riesel,94.53,181.44,131.54,204.12,517.1,Single-ply,SBD,M
Boys,99.79,7,Matt McNew,Robinson,93.08,188.24,122.47,192.78,503.49,Single-ply,SBD,M
Boys,99.79,8,Jason Harris,West,99.25,201.85,111.13,176.9,489.88,Single-ply,SBD,M
Boys,99.79,9,Brayan Villa,Grandview,99.06,181.44,127.01,172.37,480.81,Single-ply,SBD,M
Boys,99.79,10,Nathan Rameriz,Whitney,93.35,181.44,108.86,181.44,471.74,Single-ply,SBD,M
Boys,99.79,11,Devin Reeves,Mexia,93.35,185.97,95.25,181.44,462.66,Single-ply,SBD,M
Boys,99.79,12,Amalio Trejo,Hillsboro,90.99,185.97,99.79,170.1,455.86,Single-ply,SBD,M
Boys,99.79,13,Jared Camp,Grandview,98.43,190.51,106.59,158.76,455.86,Single-ply,SBD,M
Boys,99.79,14,Grayson Graham,China Spring,91.08,147.42,106.59,181.44,435.45,Single-ply,SBD,M
Boys,99.79,15,Jared Simpson,Robinson,94.71,172.37,86.18,174.63,433.18,Single-ply,SBD,M
Boys,99.79,16,Thomas Hernandez,Troy,97.52,167.83,102.06,154.22,424.11,Single-ply,SBD,M
Boys,99.79,17,Evan Watts,Gatesville,98.43,163.29,90.72,147.42,401.43,Single-ply,SBD,M
Boys,99.79,18,Austin Gonzales,Alvarado,91.9,149.69,81.65,136.08,367.41,Single-ply,SBD,M
Boys,99.79,19,Dylan Morgan,Riesel,97.25,142.88,81.65,136.08,360.61,Single-ply,SBD,M
Boys,99.79,DQ,Arkiel Winn,Mexia,92.62,154.22,,,,Single-ply,SBD,M
Boys,99.79,DQ,Gustavo Campos,Hillsboro,96.52,136.08,,,,Single-ply,SBD,M
Boys,99.79,DQ,Christian Gonzales,Gatesville,96.34,181.44,,,,Single-ply,SBD,M
Boys,109.77,1,Shane Sibila,Clifton,108.77,276.69,149.69,240.4,666.78,Single-ply,SBD,M
Boys,109.77,2,Chris Mullens,Clifton,109.68,222.26,142.88,224.53,589.67,Single-ply,SBD,M
Boys,109.77,3,Cortlund Rice,Mexia,108.23,226.8,147.42,204.12,578.33,Single-ply,SBD,M
Boys,109.77,4,Erik Zavala,Hillsboro,109.59,231.33,120.2,222.26,573.79,Single-ply,SBD,M
Boys,109.77,5,Byron Bryant,Waco La Vega,105.41,226.8,133.81,201.85,562.45,Single-ply,SBD,M
Boys,109.77,6,Justin Rhyne,Gatesville,105.6,213.19,156.49,190.51,560.19,Single-ply,SBD,M
Boys,109.77,7,Ace Rurak,Grandview,104.87,222.26,124.74,190.51,537.51,Single-ply,SBD,M
Boys,109.77,8,Logan Willenborg,West,105.14,210.92,115.67,199.58,526.17,Single-ply,SBD,M
Boys,109.77,9,Jaime Saucedo,Bosqueville,102.51,215.46,106.59,185.97,508.02,Single-ply,SBD,M
Boys,109.77,10,Ricky Reyes,Mexia,106.05,197.31,108.86,192.78,498.95,Single-ply,SBD,M
Boys,109.77,11,Michael Padgett,Troy,101.24,192.78,120.2,174.63,487.61,Single-ply,SBD,M
Boys,109.77,12,Rolando Duran,Mexia,106.32,192.78,131.54,158.76,483.08,Single-ply,SBD,M
Boys,109.77,13,Ethan Sedberry,Meridian,101.97,183.7,90.72,204.12,478.54,Single-ply,SBD,M
Boys,109.77,14,Diego Gutierrez,Robinson,103.87,174.63,108.86,179.17,462.66,Single-ply,SBD,M
Boys,109.77,15,Trevor Freeman,Waco La Vega,104.6,170.1,81.65,170.1,421.84,Single-ply,SBD,M
Boys,109.77,16,Drew Zacharias,McGregor,105.41,181.44,102.06,136.08,419.57,Single-ply,SBD,M
Boys,109.77,17,Marquis McCullen,Mexia,103.69,149.69,74.84,176.9,401.43,Single-ply,SBD,M
Boys,124.74,1,Brian Pullen,China Spring,124.1,294.84,174.63,244.94,714.41,Single-ply,SBD,M
Boys,124.74,2,Garrett Evans,Clifton,124.1,265.35,138.35,217.72,621.42,Single-ply,SBD,M
Boys,124.74,3,John Pineda,Troy,120.29,238.14,124.74,233.6,596.47,Single-ply,SBD,M
Boys,124.74,4,William Willis,Grandview,122.38,217.72,142.88,199.58,560.19,Single-ply,SBD,M
Boys,124.74,5,Zak Hudspeth,Gatesville,113.94,229.06,115.67,213.19,557.92,Single-ply,SBD,M
Boys,124.74,6,Art Kelley,Whitney,116.66,213.19,115.67,215.46,544.31,Single-ply,SBD,M
Boys,124.74,7,Carlton Hollister,Riesel,122.38,181.44,140.61,204.12,526.17,Single-ply,SBD,M
Boys,124.74,8,Te Dixon,McGregor,118.93,226.8,120.2,172.37,519.36,Single-ply,SBD,M
Boys,124.74,9,Bobby Davis,Bosqueville,114.21,188.24,117.93,210.92,517.1,Single-ply,SBD,M
Boys,124.74,10,Cody Gohlke,Crawford,114.85,213.19,106.59,190.51,510.29,Single-ply,SBD,M
Boys,124.74,11,Blake Kasparian,Crawford,116.12,206.38,113.4,185.97,505.76,Single-ply,SBD,M
Boys,124.74,12,Josh LeBron,Crawford,115.67,129.27,61.23,138.35,328.85,Single-ply,SBD,M
Boys,124.74+,1,Shane Murphy,Robinson,162.02,308.44,206.38,238.14,752.96,Single-ply,SBD,M
Boys,124.74+,2,Jessie Wilson,Whitney,142.79,290.3,192.78,265.35,748.43,Single-ply,SBD,M
Boys,124.74+,3,Edgar Salvador,Hillsboro,154.31,272.16,181.44,226.8,680.39,Single-ply,SBD,M
Boys,124.74+,4,Dwight Holder,Waco La Vega,131.63,283.5,161.03,226.8,671.32,Single-ply,SBD,M
Boys,124.74+,5,Marcelo Ramirez,Waco La Vega,140.52,263.08,136.08,260.82,659.98,Single-ply,SBD,M
Boys,124.74+,6,Brandon Cross,Alvarado,131.63,181.44,113.4,158.76,453.59,Single-ply,SBD,M
Boys,124.74+,7,Cody Harris,Waco La Vega,128.46,181.44,92.99,165.56,439.98,Single-ply,SBD,M
Boys,124.74+,8,Kenneth Crocker,Axtell,136.8,167.83,81.65,147.42,396.89,Single-ply,SBD,M
Boys,124.74+,DQ,Pedro Salvador,Hillsboro,130.45,,,,,Single-ply,SBD,M
Boys,,NS,Alfredo Librado,Hillsboro,,,,,,Single-ply,SBD,M
Boys,,NS,JD VanDyke,Groesbeck,,,,,,Single-ply,SBD,M
Boys,,NS,Sterling Cable,Groesbeck,,,,,,Single-ply,SBD,M
Boys,,NS,Stephen Contreras,Groesbeck,,,,,,Single-ply,SBD,M
Boys,,NS,Cj Sims,McGregor,,,,,,Single-ply,SBD,M
Boys,,NS,Jonathan Lira,Meridian,,,,,,Single-ply,SBD,M
Boys,,NS,James Bradford,Troy,,,,,,Single-ply,SBD,M
Boys,,NS,Jason Skains,Axtell,,,,,,Single-ply,SBD,M
Boys,,NS,Tanner Coone,Axtell,,,,,,Single-ply,SBD,M
Boys,,NS,Bryce Johnson #1,Alvarado,,,,,,Single-ply,SBD,M
Boys,,NS,Logan Nuss,Alvarado,,,,,,Single-ply,SBD,M
Boys,,NS,Micah Lasater,Alvarado,,,,,,Single-ply,SBD,M
Boys,,NS,Trent Andrews,Bosqueville,,,,,,Single-ply,SBD,M
Boys,,NS,Cole Brunett,Whitney,,,,,,Single-ply,SBD,M
Boys,,NS,Elija Booth,Whitney,,,,,,Single-ply,SBD,M
