Division,WeightClassKg,Place,Name,Team,BodyweightKg,Best3SquatKg,Best3BenchKg,Best3DeadliftKg,TotalKg,Equipment,Event,Sex
Girls,44.23,1,Amber Flores,Uvalde,43.82,88.45,36.29,106.59,231.33,Single-ply,SBD,F
Girls,44.23,2,Stephanie Vega Zapater,San Antonio Southside,42.82,88.45,38.56,86.18,213.19,Single-ply,SBD,F
Girls,44.23,3,Catalyna Mata,San Antonio Brooks Academy,42.37,38.56,29.48,83.91,151.95,Single-ply,SBD,F
Girls,44.23,DQ,Madelyn Jackson,Bandera,40.14,,,,,Single-ply,SBD,F
Girls,44.23,NS,Bailey Luckman,Jourdanton,,,,,,Single-ply,SBD,F
Girls,44.23,NS,Gabby Gonzales,Jourdanton,,,,,,Single-ply,SBD,F
Girls,47.85,1,Brianna Aguinaga,San Antonio Southside,47.81,86.18,54.43,95.25,235.87,Single-ply,SBD,F
Girls,47.85,2,Caitlin Watson,Bandera,45.72,86.18,38.56,92.99,217.72,Single-ply,SBD,F
Girls,47.85,3,Xeauna Rodriguez,Bandera,45.9,81.65,43.09,74.84,199.58,Single-ply,SBD,F
Girls,47.85,4,Alena Swan,Bandera,47.26,77.11,27.22,90.72,195.04,Single-ply,SBD,F
Girls,47.85,5,Dominique Obregon,Castroville Medina Valley,47.17,70.31,31.75,90.72,192.78,Single-ply,SBD,F
Girls,47.85,6,Destiny Labrador,San Antonio East Central,45.09,56.7,27.22,72.57,156.49,Single-ply,SBD,F
Girls,47.85,DQ,Sabrina Mechler,Castroville Medina Valley,47.17,,,,,Single-ply,SBD,F
Girls,51.94,1,Liszette Rosado-Ortiz,San Antonio Brooks Academy,51.26,138.35,92.99,127.01,358.34,Single-ply,SBD,F
Girls,51.94,2,Jackie Flores,San Antonio Southside,50.89,83.91,49.9,106.59,240.4,Single-ply,SBD,F
Girls,51.94,3,Celeste Correa,Carrizo Springs,48.81,83.91,36.29,104.33,224.53,Single-ply,SBD,F
Girls,51.94,4,Selena Williams,Del Rio,51.07,86.18,40.82,95.25,222.26,Single-ply,SBD,F
Girls,51.94,5,Tiffany Benavides,Carrizo Springs,50.62,72.57,31.75,95.25,199.58,Single-ply,SBD,F
Girls,51.94,6,Nimue Amaya,Pearsall,51.71,68.04,43.09,79.38,190.51,Single-ply,SBD,F
Girls,51.94,7,Ailyn Carrizalez,Uvalde,48.26,56.7,31.75,74.84,163.29,Single-ply,SBD,F
Girls,51.94,8,Kahlia Rodriguez,San Antonio Memorial,49.71,77.11,36.29,47.63,161.03,Single-ply,SBD,F
Girls,51.94,DQ,Gylvia Gil,San Antonio Kennedy,51.71,,,,,Single-ply,SBD,F
Girls,51.94,DQ,Belle Hoover,Bandera,51.17,45.36,,,,Single-ply,SBD,F
Girls,56.02,1,Jessandra Gamble,San Antonio Memorial,56.02,117.93,45.36,115.67,278.96,Single-ply,SBD,F
Girls,56.02,2,Sophia Chavez,Uvalde,52.71,102.06,40.82,106.59,249.48,Single-ply,SBD,F
Girls,56.02,3,Cierra Alonzo,Uvalde,52.16,86.18,36.29,95.25,217.72,Single-ply,SBD,F
Girls,56.02,4,Jackie Garcia,Del Rio,54.79,88.45,31.75,95.25,215.46,Single-ply,SBD,F
Girls,56.02,5,Ariana Perez,Uvalde,55.07,90.72,34.02,79.38,204.12,Single-ply,SBD,F
Girls,56.02,6,Cielo Rodriguez,Pearsall,52.98,77.11,38.56,83.91,199.58,Single-ply,SBD,F
Girls,56.02,7,Demi Douglas,San Antonio Memorial,55.79,68.04,36.29,90.72,195.04,Single-ply,SBD,F
Girls,60.1,1,Kelly Huerta,Carrizo Springs,58.88,133.81,63.5,113.4,310.71,Single-ply,SBD,F
Girls,60.1,2,Cristina Lazos,San Antonio East Central,57.15,106.59,47.63,117.93,272.16,Single-ply,SBD,F
Girls,60.1,3,Tressa Reading,Knippa,59.78,113.4,54.43,104.33,272.16,Single-ply,SBD,F
Girls,60.1,4,Lexie Reyes,Carrizo Springs,57.88,97.52,56.7,113.4,267.62,Single-ply,SBD,F
Girls,60.1,5,Dellanie Fleming,Castroville Medina Valley,58.51,102.06,52.16,111.13,265.35,Single-ply,SBD,F
Girls,60.1,6,Tori Luce,Brackettville Brackett,58.42,106.59,43.09,106.59,256.28,Single-ply,SBD,F
Girls,60.1,7,Carleen Holcomb,Castroville Medina Valley,57.42,86.18,43.09,120.2,249.48,Single-ply,SBD,F
Girls,60.1,8,Cora Christiansen,Castroville Medina Valley,58.6,90.72,43.09,104.33,238.14,Single-ply,SBD,F
Girls,60.1,9,Jasimin Montes,Rocksprings,58.15,90.72,36.29,108.86,235.87,Single-ply,SBD,F
Girls,60.1,10,Jessie Puckett,Jourdanton,57.52,95.25,40.82,97.52,233.6,Single-ply,SBD,F
Girls,60.1,11,Kimberley Salinas,Bandera,58.33,97.52,31.75,99.79,229.06,Single-ply,SBD,F
Girls,60.1,DQ,Miranda Franklin,Somerset,59.24,54.43,,,,Single-ply,SBD,F
Girls,67.36,1,Nallely Gutierrez,San Antonio Brooks Academy,63.68,154.22,99.79,161.03,415.04,Single-ply,SBD,F
Girls,67.36,2,Alee Ruiz,Dilley,61.23,138.35,68.04,136.08,342.46,Single-ply,SBD,F
Girls,67.36,3,Lauren Lara,San Antonio Brooks Academy,64.86,108.86,63.5,122.47,294.84,Single-ply,SBD,F
Girls,67.36,4,Lexie Martinez,Uvalde,61.23,97.52,45.36,120.2,263.08,Single-ply,SBD,F
Girls,67.36,5,Melanie Delgado,San Antonio Brooks Academy,60.96,102.06,45.36,111.13,258.55,Single-ply,SBD,F
Girls,67.36,6,Kelsi Pfanzelt,Castroville Medina Valley,60.78,86.18,47.63,99.79,233.6,Single-ply,SBD,F
Girls,67.36,7,Madison Delanghe,Bandera,66,86.18,40.82,102.06,229.06,Single-ply,SBD,F
Girls,67.36,8,Heavenly Corpus,San Antonio Kennedy,65.14,102.06,38.56,86.18,226.8,Single-ply,SBD,F
Girls,67.36,9,Alizandra Berrelez,Pearsall,65.23,81.65,47.63,95.25,224.53,Single-ply,SBD,F
Girls,67.36,10,Lexi Ramirez,Dilley,65.14,79.38,40.82,81.65,201.85,Single-ply,SBD,F
Girls,67.36,11,Ofelia Macias,Bandera,60.96,74.84,29.48,70.31,174.63,Single-ply,SBD,F
Girls,67.36,DQ,Allie Elkins,Bandera,65.54,,,,,Single-ply,SBD,F
Girls,67.36,DQ,Rosemary Soto,San Antonio Kennedy,67.13,,,,,Single-ply,SBD,F
Girls,67.36,DQ,Samantha Ramos,Poteet,64.59,,,,,Single-ply,SBD,F
Girls,75.07,1,Loren Chavez,San Antonio Brooks Academy,73.21,136.08,95.25,129.27,360.61,Single-ply,SBD,F
Girls,75.07,2,Kiersten Paul,La Pryor,67.59,133.81,74.84,131.54,340.19,Single-ply,SBD,F
Girls,75.07,3,Jessica Stein,Castroville Medina Valley,72.57,136.08,70.31,115.67,322.05,Single-ply,SBD,F
Girls,75.07,4,Avery Contreras,Uvalde,69.58,131.54,56.7,127.01,315.25,Single-ply,SBD,F
Girls,75.07,5,Adrianna Landry,San Antonio Brooks Academy,69.22,124.74,58.97,124.74,308.44,Single-ply,SBD,F
Girls,75.07,6,Elizabeth Alejandro,Carrizo Springs,67.68,133.81,52.16,120.2,306.17,Single-ply,SBD,F
Girls,75.07,7,Bianca Jijon,Castroville Medina Valley,74.12,113.4,49.9,129.27,292.57,Single-ply,SBD,F
Girls,75.07,8,Nadia Gonzales,Uvalde,68.76,106.59,49.9,108.86,265.35,Single-ply,SBD,F
Girls,75.07,9,Alondra Morales,San Antonio Memorial,72.3,124.74,38.56,102.06,265.35,Single-ply,SBD,F
Girls,75.07,10,Brianna Coronado,Jourdanton,70.4,88.45,52.16,108.86,249.48,Single-ply,SBD,F
Girls,75.07,11,Marissa Aguilera,Castroville Medina Valley,73.48,99.79,43.09,97.52,240.4,Single-ply,SBD,F
Girls,75.07,12,Karlee Kindred,Castroville Medina Valley,72.12,95.25,45.36,97.52,238.14,Single-ply,SBD,F
Girls,75.07,13,Lisa Vigil,San Antonio Memorial,72.76,81.65,36.29,90.72,208.65,Single-ply,SBD,F
Girls,75.07,DQ,Anna Freeman,Bandera,67.81,,,,,Single-ply,SBD,F
Girls,75.07,NS,Rakel Aguero,Jourdanton,,,,,,Single-ply,SBD,F
Girls,75.07,DQ,Victoria Garcia,Pearsall,75.07,,,,,Single-ply,SBD,F
Girls,75.07,DQ,Andrea Ruiz,Rocksprings,70.03,92.99,,,,Single-ply,SBD,F
Girls,75.07,DQ,Alana Gallegos,Jourdanton,70.31,72.57,,,,Single-ply,SBD,F
Girls,75.07,DQ,Janie Martinez,Uvalde,73.03,61.23,,,,Single-ply,SBD,F
Girls,82.33,1,Alyssa Alva,Pearsall,80.38,156.49,70.31,161.03,387.82,Single-ply,SBD,F
Girls,82.33,2,Destiny Andrade,Castroville Medina Valley,79.11,158.76,88.45,138.35,385.55,Single-ply,SBD,F
Girls,82.33,3,Cierra Lopez,Jourdanton,76.75,145.15,70.31,138.35,353.8,Single-ply,SBD,F
Girls,82.33,4,Natalia Ortiz,San Antonio Brooks Academy,78.47,149.69,72.57,131.54,353.8,Single-ply,SBD,F
Girls,82.33,5,Illea Lugo,Somerset,79.74,127.01,77.11,111.13,315.25,Single-ply,SBD,F
Girls,82.33,6,Kassandra Luna,San Antonio Memorial,77.56,117.93,56.7,136.08,310.71,Single-ply,SBD,F
Girls,82.33,7,Madyson Devoria,Somerset,75.84,129.27,68.04,106.59,303.91,Single-ply,SBD,F
Girls,82.33,8,Ivy Rodriguez,Bandera,78.93,127.01,52.16,120.2,299.37,Single-ply,SBD,F
Girls,82.33,9,Sally Telles,Pearsall,78.2,120.2,49.9,124.74,294.84,Single-ply,SBD,F
Girls,82.33,10,Crystal Sierra,San Antonio Kennedy,81.74,111.13,52.16,131.54,294.84,Single-ply,SBD,F
Girls,82.33,11,Rosa Lara,San Antonio Southside,80.38,111.13,47.63,113.4,272.16,Single-ply,SBD,F
Girls,82.33,12,Aurora Medrano,San Antonio Memorial,82.01,68.04,40.82,90.72,199.58,Single-ply,SBD,F
Girls,82.33,NS,Cheyenne Leal,Jourdanton,,,,,,Single-ply,SBD,F
Girls,82.33,NS,Abigail Escalante,Jourdanton,,,,,,Single-ply,SBD,F
Girls,82.33,DQ,Amanda Rivera,Poteet,77.75,147.42,58.97,,,Single-ply,SBD,F
Girls,90.04,1,Sara Ramos,Uvalde,87.27,154.22,61.23,156.49,371.95,Single-ply,SBD,F
Girls,90.04,2,Yazmine Garcia,Pearsall,84.1,151.95,65.77,151.95,369.68,Single-ply,SBD,F
Girls,90.04,3,Destiny Terrazas,Brackettville Brackett,85.46,151.95,61.23,138.35,351.53,Single-ply,SBD,F
Girls,90.04,4,Gretta Epperson,Pearsall,87.82,117.93,52.16,136.08,306.17,Single-ply,SBD,F
Girls,90.04,5,Mikayla Carrol,Castroville Medina Valley,88.45,122.47,65.77,115.67,303.91,Single-ply,SBD,F
Girls,90.04,6,DeAnna Wood,San Antonio Brooks Academy,88.81,102.06,83.91,113.4,299.37,Single-ply,SBD,F
Girls,90.04,7,Juanita Torres,Carrizo Springs,87.54,113.4,61.23,113.4,288.03,Single-ply,SBD,F
Girls,90.04,8,Jocelyn Bustamante,Uvalde,83.82,113.4,47.63,102.06,263.08,Single-ply,SBD,F
Girls,90.04,DQ,Alllison Penta,La Pryor,88.81,,,,,Single-ply,SBD,F
Girls,90.04,DQ,Esmeralda Hernandez,Jourdanton,89.27,,,,,Single-ply,SBD,F
Girls,100.02,1,Fatima Herrera,San Antonio Southside,92.99,156.49,79.38,142.88,378.75,Single-ply,SBD,F
Girls,100.02,2,Liliana Martinez,Carrizo Springs,95.8,127.01,72.57,127.01,326.59,Single-ply,SBD,F
Girls,100.02,3,Destiny Ramirez,Pearsall,95.98,124.74,49.9,115.67,290.3,Single-ply,SBD,F
Girls,100.02,4,Brianna Trevino,San Antonio East Central,94.98,124.74,49.9,113.4,288.03,Single-ply,SBD,F
Girls,100.02,5,Jenna Brady,San Antonio Memorial,94.44,102.06,36.29,120.2,258.55,Single-ply,SBD,F
Girls,100.02,6,Sabrina Moreno,San Antonio Kennedy,91.44,79.38,31.75,102.06,213.19,Single-ply,SBD,F
Girls,100.02,NS,Madison McCleary,Jourdanton,,,,,,Single-ply,SBD,F
Girls,100.02,NS,Ilse Guerrero,Jourdanton,,,,,,Single-ply,SBD,F
Girls,100.02,DQ,Noemie Covurrbias,Carrizo Springs,92.08,102.06,,,,Single-ply,SBD,F
Girls,117.71,1,Samantha Heimer,San Antonio Brooks Academy,101.79,179.17,122.47,147.42,449.06,Single-ply,SBD,F
Girls,117.71,2,Aria Metcalf,San Antonio East Central,116.85,145.15,79.38,158.76,383.29,Single-ply,SBD,F
Girls,117.71,3,Nikki Rangel,Rocksprings,100.24,140.61,49.9,142.88,333.39,Single-ply,SBD,F
Girls,117.71,4,Marissa Martinez,Poteet,102.06,97.52,54.43,115.67,267.62,Single-ply,SBD,F
Girls,117.71,5,Jessenia Moreno,Del Rio,100.97,65.77,29.48,102.06,197.31,Single-ply,SBD,F
Girls,117.71+,1,Jacklyn Perez,La Pryor,120.66,122.47,74.84,136.08,333.39,Single-ply,SBD,F
Girls,117.71+,2,Sophia Arredondo,San Antonio Brooks Academy,126.64,90.72,54.43,113.4,258.55,Single-ply,SBD,F
