Division,WeightClassKg,Place,Name,Team,BodyweightKg,Best3SquatKg,Best3BenchKg,Best3DeadliftKg,TotalKg,Equipment,Event,Sex
Boys,51.71,1,Milton Torres,Nacogdoches,50.26,108.86,77.11,129.27,315.25,Single-ply,SBD,M
Boys,51.71,2,Alec Page,Tyler Lee,47.08,86.18,38.56,83.91,208.65,Single-ply,SBD,M
Boys,55.79,1,Raul Rodriquez,Diboll,54.98,145.15,72.57,136.08,353.8,Single-ply,SBD,M
Boys,55.79,2,Vann Rainer,Tyler Lee,55.43,133.81,58.97,131.54,324.32,Single-ply,SBD,M
Boys,55.79,3,Lukas Gill,Tyler Lee,54.16,127.01,70.31,122.47,319.78,Single-ply,SBD,M
Boys,59.87,1,Tysen Pierce,Henderson,59.6,131.54,65.77,147.42,344.73,Single-ply,SBD,M
Boys,59.87,2,Hunter Clemmons,Tyler Lee,59.6,117.93,52.16,145.15,315.25,Single-ply,SBD,M
Boys,67.13,1,Roshabrius Garrett,Carthage,65.77,181.44,117.93,179.17,478.54,Single-ply,SBD,M
Boys,67.13,2,JJ Beckfield,Frankston,65.86,188.24,104.33,181.44,474,Single-ply,SBD,M
Boys,67.13,3,Bryce Gregory,Tyler Lee,65.86,165.56,104.33,181.44,451.32,Single-ply,SBD,M
Boys,67.13,4,Hunter Mayes,Huntington,65.77,161.03,92.99,176.9,430.91,Single-ply,SBD,M
Boys,67.13,5,Esteban Orozco,Pollok Central,64.5,151.95,83.91,165.56,401.43,Single-ply,SBD,M
Boys,67.13,6,Jakihyon Whitaker,Nacogdoches,61.51,145.15,81.65,165.56,392.36,Single-ply,SBD,M
Boys,67.13,7,Daniel White,Huntington,66.86,136.08,97.52,156.49,390.09,Single-ply,SBD,M
Boys,67.13,8,Pedro Bahena,San Augustine,67.13,142.88,74.84,161.03,378.75,Single-ply,SBD,M
Boys,67.13,9,Blake Brown,Huntington,62.6,111.13,72.57,147.42,331.12,Single-ply,SBD,M
Boys,67.13,10,Brayden Williams,Chireno,63.59,97.52,65.77,142.88,306.17,Single-ply,SBD,M
Boys,74.84,1,Victor Ayala,Diboll,73.39,210.92,106.59,183.7,501.22,Single-ply,SBD,M
Boys,74.84,2,Chase Tamez,Diboll,72.67,176.9,108.86,179.17,464.93,Single-ply,SBD,M
Boys,74.84,3,John Cunyus,Henderson,69.31,161.03,97.52,192.78,451.32,Single-ply,SBD,M
Boys,74.84,4,Garrett Basey,Huntington,69.49,163.29,77.11,145.15,385.55,Single-ply,SBD,M
Boys,74.84,5,Hugo Cepeda,Diboll,70.76,151.95,79.38,154.22,385.55,Single-ply,SBD,M
Boys,74.84,DQ,Andrew Quick,Huntington,73.75,,,,,Single-ply,SBD,M
Boys,82.1,1,Brady Jordan,Diboll,80.83,229.06,122.47,215.46,566.99,Single-ply,SBD,M
Boys,82.1,2,Christian Arthur,Lufkin,81.74,210.92,115.67,233.6,560.19,Single-ply,SBD,M
Boys,82.1,3,Alex Marston,Malakoff Cross Roads,81.6,231.33,102.06,215.46,548.85,Single-ply,SBD,M
Boys,82.1,4,Jared McLean,Tyler Lee,78.65,192.78,115.67,208.65,517.1,Single-ply,SBD,M
Boys,82.1,5,Tyveon Williams,Diboll,79.83,213.19,102.06,199.58,514.83,Single-ply,SBD,M
Boys,82.1,6,Luis Lajqi,Tyler Lee,81.47,174.63,92.99,213.19,480.81,Single-ply,SBD,M
Boys,82.1,7,Isaac Concha,Diboll,81.47,179.17,104.33,183.7,467.2,Single-ply,SBD,M
Boys,82.1,8,Peyton Goodwin,Chireno,80.01,154.22,104.33,190.51,449.06,Single-ply,SBD,M
Boys,82.1,9,Julian Acevedo,Diboll,75.66,170.1,102.06,167.83,439.98,Single-ply,SBD,M
Boys,82.1,10,Keshawn Holmes,Nacogdoches,77.84,151.95,88.45,190.51,430.91,Single-ply,SBD,M
Boys,82.1,11,John Dee Johnson,Huntington,81.65,172.37,81.65,174.63,428.64,Single-ply,SBD,M
Boys,82.1,DQ,Gage Gosse,Frankston,79.02,183.7,,,,Single-ply,SBD,M
Boys,89.81,1,Jalen Brooks,Carthage,84.73,238.14,113.4,240.4,591.94,Single-ply,SBD,M
Boys,89.81,2,Cole Seaman,Diboll,87.18,231.33,133.81,204.12,569.26,Single-ply,SBD,M
Boys,89.81,3,Cameron Castles,Henderson,86.64,204.12,115.67,217.72,537.51,Single-ply,SBD,M
Boys,89.81,4,Jamichael Nicholson,Tyler Lee,89.18,204.12,108.86,204.12,517.1,Single-ply,SBD,M
Boys,89.81,5,Carlos Acosta,San Augustine,88.99,154.22,102.06,172.37,428.64,Single-ply,SBD,M
Boys,89.81,6,Mikeal Garrett,Huntington,82.46,131.54,61.23,149.69,342.46,Single-ply,SBD,M
Boys,89.81,7,Ugur Ensahin,Huntington,87.91,86.18,58.97,133.81,278.96,Single-ply,SBD,M
Boys,89.81,DQ,Blaine Hendry,Malakoff Cross Roads,84.28,151.95,104.33,,,Single-ply,SBD,M
Boys,89.81,DQ,Jacob Taylor,Henderson,87.82,208.65,106.59,,,Single-ply,SBD,M
Boys,89.81,DQ,Jamarcus Ingram,Lufkin,88.13,199.58,,224.53,,Single-ply,SBD,M
Boys,89.81,DQ,Keshawn Clark,Lufkin,87.18,199.58,102.06,,,Single-ply,SBD,M
Boys,99.79,1,Juan Perez,Frankston,97.98,226.8,124.74,240.4,591.94,Single-ply,SBD,M
Boys,99.79,2,Hayden McLeroy,Diboll,96.52,235.87,124.74,226.8,587.4,Single-ply,SBD,M
Boys,99.79,3,Jaeryn Green,Huntsville,91.44,213.19,136.08,222.26,571.53,Single-ply,SBD,M
Boys,99.79,4,Jay'Quan Barnett,Henderson,93.62,226.8,122.47,204.12,553.38,Single-ply,SBD,M
Boys,99.79,5,Kayson Elijah,Lufkin,98.57,199.58,127.01,217.72,544.31,Single-ply,SBD,M
Boys,99.79,6,Keshon Mayers,Huntsville,91.99,215.46,131.54,188.24,535.24,Single-ply,SBD,M
Boys,99.79,7,Wilburn Smallwood,Lufkin,99.02,172.37,99.79,201.85,474,Single-ply,SBD,M
Boys,99.79,8,Khaden Maxie,Lufkin,97.2,172.37,102.06,195.04,469.47,Single-ply,SBD,M
Boys,99.79,9,Kylon Lister,Carthage,98.16,163.29,106.59,181.44,451.32,Single-ply,SBD,M
Boys,99.79,10,Aiden Henson,Huntington,96.71,161.03,104.33,183.7,449.06,Single-ply,SBD,M
Boys,99.79,11,Enrique Contreras,Lufkin,95.44,163.29,83.91,181.44,428.64,Single-ply,SBD,M
Boys,99.79,12,Kaed Staton,Carthage,93.35,142.88,86.18,172.37,401.43,Single-ply,SBD,M
Boys,99.79,13,Trevor Adams,Huntington,91.72,163.29,72.57,147.42,383.29,Single-ply,SBD,M
Boys,99.79,DQ,Quan Brown,Carthage,91.99,165.56,,,,Single-ply,SBD,M
Boys,99.79,DQ,Preston Turner,Malakoff Cross Roads,97.16,170.1,,,,Single-ply,SBD,M
Boys,99.79,DQ,Justin Patton,Lufkin,98.07,,122.47,238.14,,Single-ply,SBD,M
Boys,99.79,DQ,Quay Burleigh,Nacogdoches,99.16,226.8,124.74,,,Single-ply,SBD,M
Boys,109.77,1,Clayton Conrad,Henderson,104.69,247.21,133.81,242.67,623.69,Single-ply,SBD,M
Boys,109.77,2,Eliaser Tamayo,Huntsville,108.95,244.94,138.35,233.6,616.89,Single-ply,SBD,M
Boys,109.77,3,Devin Luker,Huntington,101.79,197.31,104.33,206.38,508.02,Single-ply,SBD,M
Boys,109.77,4,Noah Ross,Huntington,101.79,185.97,92.99,210.92,489.88,Single-ply,SBD,M
Boys,109.77,DQ,Kieron Ross,Huntsville,103.24,197.31,,197.31,,Single-ply,SBD,M
Boys,124.74,1,Zykee Allen,Lufkin,119.39,260.82,149.69,263.08,673.58,Single-ply,SBD,M
Boys,124.74,2,Roberto Miranda,Henderson,120.66,244.94,129.27,217.72,591.94,Single-ply,SBD,M
Boys,124.74,3,Mike Jones,Nacogdoches,111.4,238.14,129.27,204.12,571.53,Single-ply,SBD,M
Boys,124.74,4,Audrey Wallace,Carthage,112.94,185.97,115.67,249.48,551.11,Single-ply,SBD,M
Boys,124.74,5,Zhedestian Griffen,Lufkin,123.51,226.8,102.06,219.99,548.85,Single-ply,SBD,M
Boys,124.74,6,Billy Leverett,Diboll,110.95,204.12,122.47,199.58,526.17,Single-ply,SBD,M
Boys,124.74,7,Dario Garcia,Nacogdoches,114.49,210.92,113.4,195.04,519.36,Single-ply,SBD,M
Boys,124.74,8,Kedaren Holman,Lufkin,121.7,188.24,104.33,210.92,503.49,Single-ply,SBD,M
Boys,124.74,9,Nash Jones,Nacogdoches,118.39,195.04,113.4,190.51,498.95,Single-ply,SBD,M
Boys,124.74,10,Trevor Marquez,Malakoff Cross Roads,113.94,204.12,108.86,181.44,494.42,Single-ply,SBD,M
Boys,124.74,11,Kaleb Douglass,Nacogdoches,118.84,195.04,90.72,185.97,471.74,Single-ply,SBD,M
Boys,124.74+,1,Carl Williams,Lufkin,159.85,326.59,176.9,310.71,814.2,Single-ply,SBD,M
Boys,124.74+,2,Brandon Bobino,Huntsville,168.01,308.44,183.7,244.94,737.09,Single-ply,SBD,M
Boys,124.74+,3,Atyias Casteel,Huntsville,132.54,272.16,158.76,208.65,639.57,Single-ply,SBD,M
Boys,124.74+,4,Jordan Payne,Huntington,147.51,260.82,113.4,226.8,601.01,Single-ply,SBD,M
Boys,124.74+,5,Karston Williams,Carthage,160.03,226.8,138.35,222.26,587.4,Single-ply,SBD,M
Boys,124.74+,6,Tee Kellum,Carthage,142.61,226.8,136.08,197.31,560.19,Single-ply,SBD,M
Boys,124.74+,7,Tykiest Crawford,Carthage,142.97,210.92,142.88,204.12,557.92,Single-ply,SBD,M
Boys,124.74+,8,Ricardo Harrison,Diboll,125.55,226.8,120.2,204.12,551.11,Single-ply,SBD,M
Boys,124.74+,9,Alex Pruitt,Lufkin,135.49,210.92,115.67,224.53,551.11,Single-ply,SBD,M
Boys,124.74+,10,Seth Stephens,San Augustine,154.31,238.14,111.13,195.04,544.31,Single-ply,SBD,M
Boys,124.74+,11,Seth Williams,Lufkin,182.43,208.65,113.4,222.26,544.31,Single-ply,SBD,M
Boys,124.74+,12,Riley Self,Lufkin,131.22,183.7,108.86,190.51,483.08,Single-ply,SBD,M
Boys,124.74+,DQ,Zachary Carlisle,Carthage,138.35,154.22,,181.44,,Single-ply,SBD,M
Boys,124.74+,DQ,Jacolten Jones,Lufkin,137.62,,136.08,229.06,,Single-ply,SBD,M
