Division,WeightClassKg,Place,Name,Team,BodyweightKg,Best3SquatKg,Best3BenchKg,Best3DeadliftKg,TotalKg,Equipment,Event,Sex
Boys,51.71,1,Ignacio Romero,Plainview,51.07,154.22,72.57,147.42,374.21,Single-ply,SBD,M
Boys,55.79,2,Talon Romero,Amarillo Highland Park,51.8,133.81,81.65,133.81,349.27,Single-ply,SBD,M
Boys,51.71,3,Nathan Shadle,Clarendon,50.53,92.99,54.43,108.86,256.28,Single-ply,SBD,M
Boys,55.79,1,Bryan Tran,Amarillo Highland Park,55.43,142.88,77.11,142.88,362.87,Single-ply,SBD,M
Boys,55.79,2,Kordell Lawerence,Dalhart,54.7,138.35,65.77,136.08,340.19,Single-ply,SBD,M
Boys,59.87,3,Ezekiel Cuellar,Perryton,55.88,115.67,65.77,142.88,324.32,Single-ply,SBD,M
Boys,55.79,4,Dakota Anaya,Perryton,53.98,108.86,54.43,142.88,306.17,Single-ply,SBD,M
Boys,55.79,5,Billy Lee,Amarillo Highland Park,55.7,117.93,70.31,117.93,306.17,Single-ply,SBD,M
Boys,55.79,6,Sergio Romero,Childress,53.52,95.25,61.23,124.74,281.23,Single-ply,SBD,M
Boys,55.79,7,Patrick Pickens,Sunray,54.88,90.72,56.7,108.86,256.28,Single-ply,SBD,M
Boys,59.87,8,Zach Moore,Panhandle,55.97,90.72,43.09,122.47,256.28,Single-ply,SBD,M
Boys,59.87,1,Anthony Washington,Plainview,59.51,158.76,90.72,190.51,439.98,Single-ply,SBD,M
Boys,59.87,2,Hector Bustillos,Sunray,58.24,163.29,81.65,181.44,426.38,Single-ply,SBD,M
Boys,59.87,3,Elijah Zambrano,Plainview,56.97,149.69,79.38,151.95,381.02,Single-ply,SBD,M
Boys,59.87,4,Alex Lugo,Perryton,59.6,122.47,83.91,170.1,376.48,Single-ply,SBD,M
Boys,59.87,5,Ray Jaramillo,Clarendon,57.97,133.81,74.84,142.88,351.53,Single-ply,SBD,M
Boys,67.13,6,Zack Sellinger,Amarillo Highland Park,60.06,122.47,58.97,158.76,340.19,Single-ply,SBD,M
Boys,59.87,7,Logan Giles,Canyon,59.42,127.01,77.11,127.01,331.12,Single-ply,SBD,M
Boys,59.87,8,Ceasar Luther,Perryton,59.15,111.13,70.31,122.47,303.91,Single-ply,SBD,M
Boys,59.87,DQ,Esteban Alanis,Memphis,59.87,90.72,,,,Single-ply,SBD,M
Boys,67.13,1,Zane Ponder,Plainview,64.95,185.97,99.79,176.9,462.66,Single-ply,SBD,M
Boys,67.13,2,Layton Lamberson,Panhandle,66.86,172.37,92.99,181.44,446.79,Single-ply,SBD,M
Boys,67.13,3,Joseph Jaramillo,Clarendon,66.59,170.1,97.52,176.9,444.52,Single-ply,SBD,M
Boys,67.13,4,Daniel Patterson,Sunray,66.04,151.95,83.91,170.1,405.97,Single-ply,SBD,M
Boys,67.13,5,Kaiden Summerville,Perryton,64.14,142.88,90.72,154.22,387.82,Single-ply,SBD,M
Boys,67.13,6,Christian Bejerano,Lockney,61.96,138.35,83.91,156.49,378.75,Single-ply,SBD,M
Boys,74.84,7,Gustavo Enriquez,Perryton,67.31,124.74,92.99,158.76,376.48,Single-ply,SBD,M
Boys,67.13,8,Terrin Campbell,Amarillo Highland Park,64.77,136.08,79.38,154.22,369.68,Single-ply,SBD,M
Boys,74.84,9,Braxton Brogdon,Amarillo River Road,67.22,131.54,88.45,142.88,362.87,Single-ply,SBD,M
Boys,67.13,10,Bailey King,Bushland,65.95,115.67,88.45,142.88,347,Single-ply,SBD,M
Boys,67.13,11,Clint Franks,Clarendon,62.32,124.74,90.72,124.74,340.19,Single-ply,SBD,M
Boys,74.84,12,Nick Shadle,Clarendon,67.22,122.47,74.84,131.54,328.85,Single-ply,SBD,M
Boys,67.13,13,Alex Alcantar,Sunray,60.15,117.93,61.23,127.01,306.17,Single-ply,SBD,M
Boys,67.13,14,Deonte Woodard,Amarillo River Road,61.33,120.2,61.23,102.06,283.5,Single-ply,SBD,M
Boys,67.13,15,Jayden Shaver,Panhandle,61.96,102.06,65.77,113.4,281.23,Single-ply,SBD,M
Boys,67.13,16,Carson Gross,Amarillo River Road,62.14,83.91,61.23,113.4,258.55,Single-ply,SBD,M
Boys,67.13,17,Noah Edwards,Amarillo River Road,60.6,88.45,52.16,106.59,247.21,Single-ply,SBD,M
Boys,74.84,1,Jarric Weber,Borger,71.49,188.24,120.2,226.8,535.24,Single-ply,SBD,M
Boys,74.84,2,Dylan Davidson,Childress,74.03,181.44,90.72,199.58,471.74,Single-ply,SBD,M
Boys,74.84,3,Ethan Brotherton,Sunray,73.12,176.9,102.06,188.24,467.2,Single-ply,SBD,M
Boys,74.84,4,Noah Martinez,Dalhart,73.66,190.51,97.52,174.63,462.66,Single-ply,SBD,M
Boys,74.84,5,Aldo Ramirez,Perryton,73.94,183.7,95.25,174.63,453.59,Single-ply,SBD,M
Boys,74.84,6,Garron Weber,Borger,71.03,142.88,102.06,172.37,417.3,Single-ply,SBD,M
Boys,74.84,7,Devin Novak,Amarillo Highland Park,73.57,158.76,88.45,170.1,417.3,Single-ply,SBD,M
Boys,74.84,8,David Del Val Fraire,Perryton,73.3,149.69,86.18,176.9,412.77,Single-ply,SBD,M
Boys,82.1,9,Rowdy Vaughn,Canyon,74.93,156.49,95.25,156.49,408.23,Single-ply,SBD,M
Boys,74.84,10,Thomas Adams #3,Childress,72.94,149.69,88.45,163.29,401.43,Single-ply,SBD,M
Boys,74.84,11,Julio Sanchez,Perryton,72.76,140.61,99.79,158.76,399.16,Single-ply,SBD,M
Boys,74.84,12,Rene Cantu,Memphis,73.84,147.42,88.45,158.76,394.63,Single-ply,SBD,M
Boys,74.84,13,Dat Luu,Amarillo Highland Park,73.94,142.88,83.91,167.83,394.63,Single-ply,SBD,M
Boys,74.84,14,Cody Alexander,Dalhart,71.49,142.88,68.04,147.42,358.34,Single-ply,SBD,M
Boys,74.84,15,Trey Lopez,Childress,74.21,124.74,74.84,145.15,344.73,Single-ply,SBD,M
Boys,74.84,16,Micah Casas,Memphis,74.84,127.01,70.31,145.15,342.46,Single-ply,SBD,M
Boys,74.84,17,Jaime Lizama,Childress,74.3,127.01,79.38,131.54,337.93,Single-ply,SBD,M
Boys,74.84,18,Bryan McGovern,Bushland,72.48,102.06,77.11,142.88,322.05,Single-ply,SBD,M
Boys,74.84,19,Colton Ingle,Amarillo River Road,71.21,92.99,88.45,133.81,315.25,Single-ply,SBD,M
Boys,74.84,20,Callon Belcher,Dalhart,74.3,111.13,61.23,140.61,312.98,Single-ply,SBD,M
Boys,74.84,DQ,Rolando Gill,Plainview,73.3,,,,,Single-ply,SBD,M
Boys,74.84,DQ,Isiah Perez,Dalhart,73.12,170.1,108.86,,,Single-ply,SBD,M
Boys,82.1,1,Steven Vallejo,Plainview,77.93,190.51,97.52,233.6,521.63,Single-ply,SBD,M
Boys,82.1,2,Tyler Baker,Borger,79.29,188.24,124.74,195.04,508.02,Single-ply,SBD,M
Boys,82.1,3,Jaiden Puga,Dalhart,78.56,188.24,120.2,165.56,474,Single-ply,SBD,M
Boys,82.1,4,Michael Guerrero,Lockney,81.19,181.44,113.4,172.37,467.2,Single-ply,SBD,M
Boys,82.1,5,Mario Lechuga,Sunray,79.38,172.37,92.99,199.58,464.93,Single-ply,SBD,M
Boys,82.1,6,Blaine McGregor,Amarillo Highland Park,81.83,183.7,115.67,163.29,462.66,Single-ply,SBD,M
Boys,82.1,7,Reyes Lujan,Dalhart,80.01,181.44,113.4,165.56,460.4,Single-ply,SBD,M
Boys,82.1,8,Ethan Hays,Panhandle,78.11,174.63,102.06,174.63,451.32,Single-ply,SBD,M
Boys,82.1,9,Jacob Clevinger,Canyon,81.1,163.29,104.33,174.63,442.25,Single-ply,SBD,M
Boys,82.1,10,Jake Garland,Canyon,81.65,142.88,104.33,170.1,417.3,Single-ply,SBD,M
Boys,82.1,11,Miguel Olivas,Perryton,77.84,136.08,95.25,172.37,403.7,Single-ply,SBD,M
Boys,82.1,12,Mason Hollaway,Sunray,82.01,142.88,90.72,147.42,381.02,Single-ply,SBD,M
Boys,82.1,13,Angel Luther,Perryton,75.57,142.88,83.91,142.88,369.68,Single-ply,SBD,M
Boys,82.1,14,Tylor Genn,Memphis,78.83,142.88,92.99,133.81,369.68,Single-ply,SBD,M
Boys,82.1,15,Ben Cooper,Amarillo River Road,77.56,113.4,61.23,145.15,319.78,Single-ply,SBD,M
Boys,82.1,16,Garrett McIlroy,Panhandle,76.75,122.47,63.5,131.54,317.51,Single-ply,SBD,M
Boys,82.1,DQ,Cole Bacon,Panhandle,78.38,,,,,Single-ply,SBD,M
Boys,89.81,1,Domingo Saucedo,Plainview,87.72,260.82,174.63,249.48,684.92,Single-ply,SBD,M
Boys,89.81,2,Miguel Rangel,Borger,88.09,226.8,142.88,226.8,596.47,Single-ply,SBD,M
Boys,99.79,3,Mario Flores,Memphis,89.99,199.58,113.4,247.21,560.19,Single-ply,SBD,M
Boys,89.81,4,Courtney Gravely,Amarillo Highland Park,86.45,188.24,129.27,215.46,532.97,Single-ply,SBD,M
Boys,89.81,5,Wesley Ward,Borger,85.28,158.76,92.99,183.7,435.45,Single-ply,SBD,M
Boys,89.81,6,Taylor McClellan,Borger,82.92,151.95,111.13,165.56,428.64,Single-ply,SBD,M
Boys,89.81,7,Cesar Calderon,Sunray,88.18,158.76,97.52,158.76,415.04,Single-ply,SBD,M
Boys,89.81,8,Jarrett Jordan,Canyon,87.91,151.95,90.72,161.03,403.7,Single-ply,SBD,M
Boys,89.81,9,Blaine Trimmell,Bushland,84.46,147.42,97.52,149.69,394.63,Single-ply,SBD,M
Boys,89.81,10,Charles Taylor,Amarillo Highland Park,89.18,133.81,70.31,163.29,367.41,Single-ply,SBD,M
Boys,89.81,11,Estaban Casas,Borger,86,120.2,115.67,120.2,356.07,Single-ply,SBD,M
Boys,89.81,12,Brody Barfield,Bushland,82.64,127.01,83.91,138.35,349.27,Single-ply,SBD,M
Boys,89.81,13,Coleman Lott,Childress,84.46,127.01,92.99,120.2,340.19,Single-ply,SBD,M
Boys,89.81,14,Ryan Ortiz,Dalhart,87.91,113.4,74.84,124.74,312.98,Single-ply,SBD,M
Boys,89.81,15,Dawson Hodges,Amarillo River Road,82.83,102.06,83.91,122.47,308.44,Single-ply,SBD,M
Boys,89.81,DQ,Alex Guerrero,Childress,86,,,,,Single-ply,SBD,M
Boys,99.79,1,Kevin Flores,Sunray,91.9,199.58,131.54,204.12,535.24,Single-ply,SBD,M
Boys,99.79,2,Cody Duran,Memphis,95.44,204.12,124.74,158.76,487.61,Single-ply,SBD,M
Boys,99.79,3,Ezequiel Porras,Borger,98.34,206.38,113.4,156.49,476.27,Single-ply,SBD,M
Boys,99.79,4,Gage Alexander,Panhandle,97.25,170.1,102.06,181.44,453.59,Single-ply,SBD,M
Boys,99.79,5,Austin Archuleta,Panhandle,91.26,181.44,106.59,158.76,446.79,Single-ply,SBD,M
Boys,99.79,6,Quentin Weigle,Canyon,92.9,149.69,88.45,172.37,410.5,Single-ply,SBD,M
Boys,99.79,7,Justin Gandy,Panhandle,91.44,151.95,83.91,163.29,399.16,Single-ply,SBD,M
Boys,99.79,8,Tj Barnes,Amarillo River Road,95.62,124.74,79.38,158.76,362.87,Single-ply,SBD,M
Boys,99.79,9,Justin Christopher,Clarendon,91.08,124.74,81.65,120.2,326.59,Single-ply,SBD,M
Boys,99.79,10,Patrick Cheney,Amarillo Highland Park,92.44,117.93,79.38,127.01,324.32,Single-ply,SBD,M
Boys,99.79,11,Parker Oliver,Amarillo River Road,93.98,113.4,70.31,138.35,322.05,Single-ply,SBD,M
Boys,99.79,12,Braxton Novak,Amarillo Highland Park,93.62,99.79,92.99,111.13,303.91,Single-ply,SBD,M
Boys,99.79,DQ,Matt Perez,Amarillo Highland Park,96.98,170.1,115.67,,,Single-ply,SBD,M
Boys,109.77,1,Christian Baston,Plainview,101.33,249.48,147.42,247.21,644.1,Single-ply,SBD,M
Boys,109.77,2,Roy Abonanu,Plainview,104.05,231.33,138.35,235.87,605.55,Single-ply,SBD,M
Boys,109.77,3,Gustavo Navarrete,Perryton,107.14,197.31,108.86,204.12,510.29,Single-ply,SBD,M
Boys,109.77,4,Andrew Vasquez,Perryton,103.96,197.31,111.13,188.24,496.68,Single-ply,SBD,M
Boys,109.77,5,Ashton Canida,Panhandle,109.59,208.65,115.67,154.22,478.54,Single-ply,SBD,M
Boys,109.77,6,Rhett Buckley,Childress,101.7,183.7,113.4,170.1,467.2,Single-ply,SBD,M
Boys,109.77,7,Aaron Williams,Sunray,103.15,165.56,97.52,183.7,446.79,Single-ply,SBD,M
Boys,109.77,8,Cole Byrd,Amarillo River Road,105.51,161.03,102.06,183.7,446.79,Single-ply,SBD,M
Boys,109.77,9,Dom Velasquez,Amarillo River Road,105.41,158.76,95.25,158.76,412.77,Single-ply,SBD,M
Boys,109.77,10,Isaac Huseman,Canyon,107.14,147.42,90.72,170.1,408.23,Single-ply,SBD,M
Boys,109.77,11,Brady Cooke,Panhandle,108.14,158.76,81.65,142.88,383.29,Single-ply,SBD,M
Boys,109.77,12,Mayson Dompe,Borger,103.15,124.74,68.04,102.06,294.84,Single-ply,SBD,M
Boys,109.77,DQ,Dakota McWhorter,Panhandle,108.41,204.12,,,,Single-ply,SBD,M
Boys,124.74,1,Erik Mendez,Plainview,122.65,299.37,170.1,249.48,718.94,Single-ply,SBD,M
Boys,124.74,2,Dalton Torres,Dalhart,123.74,219.99,106.59,226.8,553.38,Single-ply,SBD,M
Boys,124.74,3,Casey Stewart,Dalhart,122.92,215.46,136.08,183.7,535.24,Single-ply,SBD,M
Boys,124.74,4,Damian Provencio,Borger,116.21,188.24,108.86,181.44,478.54,Single-ply,SBD,M
Boys,124.74,5,Russell Tuley,Canyon,112.04,170.1,115.67,167.83,453.59,Single-ply,SBD,M
Boys,124.74,6,Tanner Latham,Bushland,113.04,158.76,117.93,158.76,435.45,Single-ply,SBD,M
Boys,124.74,7,Chris Boroughs,Amarillo River Road,122.47,145.15,97.52,188.24,430.91,Single-ply,SBD,M
Boys,124.74,8,Zach Jones,Dalhart,115.3,151.95,79.38,156.49,387.82,Single-ply,SBD,M
Boys,124.74,9,Kole Barrow,Dalhart,118.57,142.88,79.38,145.15,367.41,Single-ply,SBD,M
Boys,124.74,10,Jack Moore,Clarendon,111.58,124.74,72.57,145.15,342.46,Single-ply,SBD,M
Boys,124.74,DQ,Stephen Mosier,Memphis,122.56,,,,,Single-ply,SBD,M
Boys,124.74,DQ,Moises Garcia,Plainview,110.22,294.84,,,,Single-ply,SBD,M
Boys,124.74+,1,Anthony Anzuldua,Dalhart,126.92,219.99,142.88,197.31,560.19,Single-ply,SBD,M
Boys,124.74+,2,Hector Martinez,Dalhart,131.27,161.03,104.33,181.44,446.79,Single-ply,SBD,M
Boys,124.74+,3,Brylee Walker,Canyon,136.53,147.42,102.06,163.29,412.77,Single-ply,SBD,M
Boys,124.74+,4,Jose Duran,Memphis,144.15,165.56,68.04,161.03,394.63,Single-ply,SBD,M
Boys,124.74+,5,Daniel Munoz,Memphis,125.65,104.33,58.97,127.01,290.3,Single-ply,SBD,M
Boys,124.74+,DQ,Rodrigo Calderon,Sunray,132.18,,,,,Single-ply,SBD,M
