Division,WeightClassKg,Place,Name,Team,BodyweightKg,Best3SquatKg,Best3BenchKg,Best3DeadliftKg,TotalKg,Equipment,Event,Sex
Boys,51.71,1,Nic Schnitzius,Dallas Jesuit,49.71,124.74,63.5,138.35,326.59,Single-ply,SBD,M
Boys,51.71,2,Jaheim Bluitt,Cedar Hill,46.58,61.23,52.16,74.84,188.24,Single-ply,SBD,M
Boys,55.79,1,Will Nickols,Dallas Jesuit,54.66,136.08,79.38,151.95,367.41,Single-ply,SBD,M
Boys,55.79,2,Emmet Halm,Dallas Jesuit,54.7,127.01,81.65,156.49,365.14,Single-ply,SBD,M
Boys,55.79,3,Charles Williams,Wilmer-Hutchins,52.48,111.13,65.77,136.08,312.98,Single-ply,SBD,M
Boys,55.79,4,Dan O'Brien,Dallas Jesuit,55.38,104.33,61.23,108.86,274.42,Single-ply,SBD,M
Boys,55.79,DQ,Christian Cabra,Bishop Lynch,54.02,149.69,77.11,147.42,,Single-ply,SBD,M
Boys,59.87,1,Chance Cruz,Argyle,59.6,129.27,70.31,176.9,376.48,Single-ply,SBD,M
Boys,59.87,2,Roberto Fernandez,Bishop Lynch,57.88,124.74,58.97,124.74,308.44,Single-ply,SBD,M
Boys,59.87,3,Alex Luong,Oakridge School,58.65,83.91,45.36,90.72,219.99,Single-ply,SBD,M
Boys,67.13,1,Daniel Van Amerongen,Dallas Jesuit,66.81,183.7,102.06,206.38,492.15,Single-ply,SBD,M
Boys,67.13,2,Tj Bah,Hurst Bell,66.54,161.03,86.18,183.7,430.91,Single-ply,SBD,M
Boys,67.13,3,Tj Bellah,Oakridge School,66.77,142.88,72.57,179.17,394.63,Single-ply,SBD,M
Boys,67.13,4,Jeremiah Devezin,Cedar Hill,62.69,136.08,70.31,145.15,351.53,Single-ply,SBD,M
Boys,67.13,5,Henry Robinson,Argyle,65.18,111.13,65.77,151.95,328.85,Single-ply,SBD,M
Boys,67.13,6,Toan Nguyen,Oakridge School,64.27,113.4,56.7,138.35,308.44,Single-ply,SBD,M
Boys,67.13,7,Kobie Anderson,Wilmer-Hutchins,67.13,83.91,72.57,138.35,294.84,Single-ply,SBD,M
Boys,67.13,8,Shikeem Davis,Wilmer-Hutchins,63.64,92.99,70.31,111.13,274.42,Single-ply,SBD,M
Boys,67.13,9,Dylan Widup,Oakridge School,66,92.99,54.43,106.59,254.01,Single-ply,SBD,M
Boys,67.13,10,Josh Wilson,Oakridge School,61.05,92.99,54.43,102.06,249.48,Single-ply,SBD,M
Boys,67.13,11,Nick Campbell,Oakridge School,67.04,70.31,56.7,102.06,229.06,Single-ply,SBD,M
Boys,67.13,12,Nicholas Miller,Oakridge School,66.95,77.11,36.29,90.72,204.12,Single-ply,SBD,M
Boys,74.84,1,Presley Luce,Bishop Lynch,74.8,199.58,138.35,222.26,560.19,Single-ply,SBD,M
Boys,74.84,2,Kisi Moeakiola,Hurst Bell,74.34,183.7,113.4,165.56,462.66,Single-ply,SBD,M
Boys,74.84,3,Mario Smith,Cedar Hill,73.8,165.56,111.13,181.44,458.13,Single-ply,SBD,M
Boys,74.84,4,William Courtney,Dallas Jesuit,72.03,161.03,90.72,197.31,449.06,Single-ply,SBD,M
Boys,74.84,5,Greg Stringfellow,Argyle,73.71,170.1,92.99,174.63,437.72,Single-ply,SBD,M
Boys,74.84,6,Rashad Anderson,Wilmer-Hutchins,68.13,124.74,90.72,149.69,365.14,Single-ply,SBD,M
Boys,74.84,7,Nick Drkulec,Oakridge School,68.4,127.01,92.99,136.08,356.07,Single-ply,SBD,M
Boys,74.84,8,Sean Sachnick,Plano John Paul II,74.8,108.86,79.38,111.13,299.37,Single-ply,SBD,M
Boys,74.84,9,Shane Kelly,Oakridge School,71.35,92.99,61.23,124.74,278.96,Single-ply,SBD,M
Boys,74.84,10,Luis Ramírez,Oakridge School,72.57,95.25,58.97,124.74,278.96,Single-ply,SBD,M
Boys,74.84,DQ,Charles Haw,Cedar Hill,67.99,181.44,,142.88,,Single-ply,SBD,M
Boys,74.84,DQ,Jalen Hollins,Cedar Hill,71.99,,83.91,142.88,,Single-ply,SBD,M
Boys,74.84,DQ,Grant Delanoy,Dallas Jesuit,72.44,176.9,83.91,206.38,,Single-ply,SBD,M
Boys,82.1,1,Nick Golden,Argyle,81.92,204.12,95.25,276.69,576.06,Single-ply,SBD,M
Boys,82.1,2,Naton Edwards,Argyle,80.2,192.78,113.4,229.06,535.24,Single-ply,SBD,M
Boys,82.1,3,John McCoy,Northwest Nelson,79.61,183.7,92.99,195.04,471.74,Single-ply,SBD,M
Boys,82.1,4,Alan Habashy,Plano John Paul II,75.25,138.35,102.06,197.31,437.72,Single-ply,SBD,M
Boys,82.1,5,Treyvon Lewis,Cedar Hill,82.01,158.76,108.86,165.56,433.18,Single-ply,SBD,M
Boys,82.1,6,Kenneth Kemp,Cedar Hill,77.97,136.08,86.18,204.12,426.38,Single-ply,SBD,M
Boys,82.1,7,Joseph Buskmiller,Dallas Jesuit,78.93,136.08,88.45,165.56,390.09,Single-ply,SBD,M
Boys,82.1,8,Kiedric Chancellor,Wilmer-Hutchins,78.52,156.49,90.72,136.08,383.29,Single-ply,SBD,M
Boys,82.1,9,David Ritter,Dallas Jesuit,81.15,147.42,65.77,170.1,383.29,Single-ply,SBD,M
Boys,82.1,10,Anthony Lu,Oakridge School,80.78,136.08,74.84,163.29,374.21,Single-ply,SBD,M
Boys,82.1,11,Carter Benton,Plano John Paul II,78.15,124.74,70.31,138.35,333.39,Single-ply,SBD,M
Boys,82.1,12,Preston Tran,Oakridge School,75.61,117.93,63.5,136.08,317.51,Single-ply,SBD,M
Boys,82.1,13,Jared Burkhart,Plano John Paul II,77.47,106.59,72.57,138.35,317.51,Single-ply,SBD,M
Boys,82.1,DQ,Jerry DeCarlo,Plano John Paul II,79.56,97.52,,106.59,,Single-ply,SBD,M
Boys,82.1,DQ,William Sproull,Plano John Paul II,76.52,185.97,97.52,,,Single-ply,SBD,M
Boys,89.81,1,Joel Kayoka,Hurst Bell,87.54,217.72,133.81,244.94,596.47,Single-ply,SBD,M
Boys,89.81,2,Josh Vakapuna,Hurst Bell,88.81,195.04,127.01,204.12,526.17,Single-ply,SBD,M
Boys,89.81,3,Cameron Cornelius,Cedar Hill,85.64,156.49,97.52,154.22,408.23,Single-ply,SBD,M
Boys,89.81,4,Cole Record,Plano John Paul II,82.46,120.2,74.84,142.88,337.93,Single-ply,SBD,M
Boys,89.81,5,Nick Horne,Plano John Paul II,83.87,113.4,68.04,136.08,317.51,Single-ply,SBD,M
Boys,99.79,1,Joseph Torres,Hurst Bell,99.38,226.8,165.56,215.46,607.81,Single-ply,SBD,M
Boys,99.79,2,Phillip Villalba,Dallas Jesuit,99.34,226.8,129.27,210.92,566.99,Single-ply,SBD,M
Boys,99.79,3,Matthew Aribisala,Cedar Hill,91.35,170.1,104.33,192.78,467.2,Single-ply,SBD,M
Boys,99.79,4,Kameron Martin,Bishop Lynch,95.21,158.76,92.99,192.78,444.52,Single-ply,SBD,M
Boys,99.79,5,Isaac Chavez,Bishop Lynch,97.39,165.56,108.86,165.56,439.98,Single-ply,SBD,M
Boys,99.79,6,Latrell Cooper,Wilmer-Hutchins,92.58,124.74,113.4,188.24,426.38,Single-ply,SBD,M
Boys,99.79,7,Lyn Gaines,Oakridge School,97.11,149.69,74.84,188.24,412.77,Single-ply,SBD,M
Boys,99.79,DQ,Peter Lilomaiva,Hurst Bell,94.71,167.83,,,,Single-ply,SBD,M
Boys,109.77,1,Branson Hickman,Dallas Jesuit,108.45,204.12,129.27,190.51,523.9,Single-ply,SBD,M
Boys,109.77,2,Cameron Sirleaf,Hurst Bell,109.68,204.12,122.47,181.44,508.02,Single-ply,SBD,M
Boys,109.77,3,Rashawn Johnson,Hurst Bell,109.32,190.51,117.93,181.44,489.88,Single-ply,SBD,M
Boys,109.77,4,Daniel Villegas,Wilmer-Hutchins,107.37,170.1,102.06,170.1,442.25,Single-ply,SBD,M
Boys,109.77,5,Nathan Brown,Plano John Paul II,108.86,106.59,74.84,129.27,310.71,Single-ply,SBD,M
Boys,109.77,6,Josh Hsu,Oakridge School,100.65,122.47,52.16,124.74,299.37,Single-ply,SBD,M
Boys,124.74,1,Ethan Lane,Dallas Jesuit,115.89,226.8,120.2,204.12,551.11,Single-ply,SBD,M
Boys,124.74,2,Branden Tran,Hurst Bell,119.7,217.72,120.2,185.97,523.9,Single-ply,SBD,M
Boys,124.74,3,Gregory Birdow,Wilmer-Hutchins,118.12,154.22,97.52,142.88,394.63,Single-ply,SBD,M
Boys,124.74,DQ,Mack Premo,Plano John Paul II,114.44,,102.06,142.88,,Single-ply,SBD,M
Boys,124.74,DQ,Billy Overton,Denton Guyer,123.33,204.12,113.4,,,Single-ply,SBD,M
Boys,124.74+,1,David Morales,Dallas Jesuit,126.01,199.58,120.2,199.58,519.36,Single-ply,SBD,M
Boys,124.74+,DQ,Josh Hicks,Argyle,125.69,,117.93,,,Single-ply,SBD,M
Boys,,NS,Jayton Polley,Argyle,,,,,,Single-ply,SBD,M
Boys,,NS,Matthew Krause,Dallas Jesuit,,,,,,Single-ply,SBD,M
Boys,,NS,Brandon Hernandez,Cedar Hill,,,,,,Single-ply,SBD,M
Boys,,NS,Abel Ghebramariam,Plano John Paul II,,,,,,Single-ply,SBD,M
Boys,,NS,James Dipple,Wilmer-Hutchins,,,,,,Single-ply,SBD,M
Boys,,NS,Tyreik Frazier,Wilmer-Hutchins,,,,,,Single-ply,SBD,M
