Place,Sex,Name,Event,Division,WeightClassKg,Equipment,Team,BodyweightKg,Squat1Kg,Squat2Kg,Best3SquatKg,Bench1Kg,Bench2Kg,Bench3Kg,Best3BenchKg,Deadlift1Kg,Deadlift2Kg,Deadlift3Kg,Best3DeadliftKg,TotalKg,BirthYear
1,M,Matt Romano,B,MR-O,66,Raw,,62.9,,,,82.5,90,97.5,97.5,,,,,97.5,
1,M,Al Roth,B,MR-O,93,Raw,URI,91.1,,,,120,130,140,140,,,,,140,1993
1,M,Bill Gillespie,B,MR-O,120+,Raw,,138.6,,,,200,210,-218,210,,,,,210,1959
2,M,Cameron Gillespie,B,MR-O,120+,Raw,,141.6,,,,192.5,200,-215,200,,,,,200,
1,M,Chris Keeley,D,MR-O,74,Raw,Phnx,70.6,,,,,,,,182.5,190,200,200,200,1986
1,M,Larry Emerson,D,MR-O,83,Raw,,79.4,,,,,,,,205,216,220,220,220,
2,M,Dan Hechler,D,MR-O,83,Raw,,78.4,,,,,,,,180,185,-187.5,185,185,
3,M,Royce Claflin Jr,D,MR-O,83,Raw,Phnx,82.5,,,,,,,,120,132.5,140,140,140,
1,F,Brenna Muschiano,D,FR-O,72,Raw,,68.6,,,,,,,,105,110,120,120,120,1986
1,M,John Flores,SBD,MR-T,59,Raw,,57.8,115,122.5,122.5,80,85,87.5,87.5,135,140,145,145,355,1997
1,M,Justin Myers,SBD,MR-T,66,Raw,SJH,66,152.5,157.5,157.5,115,117.5,-120,117.5,165,175,-182.5,175,450,1997
2,M,Nick Speicher,SBD,MR-T,66,Raw,SJP,64.8,130,145,145,75,80,-85,80,175,190,-200,190,415,
3,M,Jake Connolly,SBD,MR-T,66,Raw,SJP,63.6,112.5,-125,112.5,72.5,-77.5,77.5,77.5,130,145,155,155,345,1999
4,M,Sam Zerega,SBD,MR-T,66,Raw,,62.1,115,125,125,77.5,-82.5,-82.5,77.5,130,135,-145,135,337.5,
5,M,Matt Everett,SBD,MR-T,66,Raw,SJP,65.2,97.5,107.5,107.5,55,-60,-60,55,142.5,157.5,172.5,172.5,335,1997
6,M,Fiachra Daly,SBD,MR-T,66,Raw,SJP,64,87.5,95,95,52.5,60,67.5,67.5,102.5,120,137.5,137.5,300,1998
1,M,Wilson Casado,SBD,MR-T,74,Raw,,69.7,190,200,200,107.5,117.5,-122.5,117.5,-227.5,230,247.5,247.5,565,1995
2,M,Gregory Roberge,SBD,MR-T,74,Raw,Phnx,72.8,150,160,160,82.5,90,92.5,92.5,180,190,-195,190,442.5,
3,M,Michael Terranova,SBD,MR-T,74,Raw,SJP,67.7,87.5,100,100,55,60,67.5,67.5,100,115,132.5,132.5,300,1998
DQ,M,Joshua Gelb,SBD,MR-T,74,Raw,,69.2,-142.5,-142.5,,95,97.5,-105,97.5,-125,125,145,145,,
1,M,Sean Noriega,SBD,MR-T,83,Raw,,82.2,225,240,240,140,-145,150,150,245,262.5,-277.5,262.5,652.5,1996
1,M,Ryan McCusker,SBD,MR-T,83,Raw,SJP,77.8,90,-100,90,80,85,-90,85,135,150,160,160,335,1998
1,M,Michael Pennacchia Jr,SBD,MR-T,93,Raw,,91.2,227.5,-237.5,227.5,130,137.5,-142.5,137.5,275,285,-290,285,650,1995
2,M,Saul Vasquez,SBD,MR-T,93,Raw,,90.5,197.5,215,215,130,-140,-147.5,130,227.5,245,257.5,257.5,602.5,1991
3,M,Domenic Palmieri,SBD,MR-T,93,Raw,,86.8,125,135,135,112.5,120,122.5,122.5,182.5,187.5,192.5,192.5,450,1996
4,M,Kevin Redmond,SBD,MR-T,93,Raw,SJP,89.2,145,152.5,152.5,75,80,85,85,160,170,-182.5,170,407.5,1998
5,M,Jake Topel,SBD,MR-T,93,Raw,SJP,83.1,97.5,110,110,80,85,-92.5,85,137.5,152.5,160,160,355,
1,M,Luke Melanson,SBD,MR-T,93,Raw,SJP,84,85,95,95,60,-65,65,65,90,105,115,115,275,1999
1,M,Chris Bechara,SBD,MR-T,105,Raw,,97.3,185,192.5,192.5,-125,127.5,-142.5,127.5,257.5,267.5,-272.5,267.5,587.5,1997
2,M,Sean Fallon,SBD,MR-T,105,Raw,SJP,99.6,182.5,192.5,192.5,110,117.5,-125,117.5,210,217.5,-227.5,217.5,527.5,1997
1,M,Charles Ruffin II,SBD,MR-T2,105,Raw,,100.7,255,272.5,272.5,155,167.5,-175,167.5,265,280,287.5,287.5,727.5,
1,M,Michael Kalter,SBD,M-O,105,Single-ply,TG,104.9,275,300,300,175,-182.5,,175,280,305,-317.5,305,780,1972
2,M,Frank Juszynski,SBD,M-O,105,Single-ply,,96.1,187.5,195,195,125,130,-132.5,130,230,237.5,-242.5,237.5,562.5,1970
1,M,John Flores,SBD,MR-O,59,Raw,,57.8,115,122.5,122.5,80,85,87.5,87.5,135,140,145,145,355,1997
1,M,Robert Ambrose,SBD,MR-O,66,Raw,GLSN,65.2,155,170,170,107.5,117.5,122.5,122.5,192.5,210,-227.5,210,502.5,1991
1,M,Raymond Cheung,SBD,MR-O,66,Raw,,64.8,135,145,145,95,-102.5,-102.5,95,-205,227.5,-235,227.5,467.5,1995
2,M,Justin Myers,SBD,MR-O,66,Raw,SJH,66,152.5,157.5,157.5,115,117.5,-120,117.5,165,175,-182.5,175,450,1997
3,M,Nick Speicher,SBD,MR-O,66,Raw,SJP,64.8,130,145,145,75,80,-85,80,175,190,-200,190,415,
4,M,Nick Petit,SBD,MR-O,66,Raw,TP,65.2,90,97.5,97.5,85,92.5,-100,92.5,150,-165,170,170,360,
5,M,Jake Connolly,SBD,MR-O,66,Raw,SJP,63.6,112.5,-125,112.5,72.5,-77.5,77.5,77.5,130,145,155,155,345,1999
6,M,Sam Zerega,SBD,MR-O,66,Raw,,62.1,115,125,125,77.5,-82.5,-82.5,77.5,130,135,-145,135,337.5,
7,M,Matt Everett,SBD,MR-O,66,Raw,SJP,65.2,97.5,107.5,107.5,55,-60,-60,55,142.5,157.5,172.5,172.5,335,1997
8,M,Fiachra Daly,SBD,MR-O,66,Raw,SJP,64,87.5,95,95,52.5,60,67.5,67.5,102.5,120,137.5,137.5,300,1998
1,M,Wilson Casado,SBD,MR-O,74,Raw,,69.7,190,200,200,107.5,117.5,-122.5,117.5,-227.5,230,247.5,247.5,565,1995
1,M,Kyle Coogan,SBD,MR-O,74,Raw,,68.8,160,175,175,107.5,112.5,-117.5,112.5,227.5,242.5,255,255,542.5,1994
3,M,Evan Chaffey,SBD,MR-O,74,Raw,NL,66.9,165,175,175,120,-130,-130,120,220,-232.5,-232.5,220,515,1991
2,M,Erik Joseph LaChance,SBD,MR-O,74,Raw,GLSN,73.7,155,170,170,102.5,110,115,115,192.5,207.5,217.5,217.5,502.5,
5,M,Adam Matson,SBD,MR-O,74,Raw,NUPL,72.6,152.5,165,165,97.5,107.5,-110,107.5,200,-212.5,-212.5,200,472.5,
6,M,Chris Keeley,SBD,MR-O,74,Raw,Phnx,70.6,157.5,170,170,95,100,-102.5,100,182.5,190,200,200,470,1986
3,M,Jae Hyeon Lee,SBD,MR-O,74,Raw,,69.7,142.5,152.5,152.5,-100,102.5,-110,102.5,180,187.5,195,195,450,
8,M,Erwin Castenada,SBD,MR-O,74,Raw,,71.6,167.5,-182.5,167.5,-80,80,,80,172.5,187.5,200,200,447.5,
9,M,Gregory Roberge,SBD,MR-O,74,Raw,Phnx,72.8,150,160,160,82.5,90,92.5,92.5,180,190,-195,190,442.5,
4,M,Joe Cassaro,SBD,MR-O,74,Raw,BC,69.4,150,160,160,95,-100,102.5,102.5,160,175,-180,175,437.5,
10,M,Joe Cassaro,SBD,MR-O,74,Raw,BC,69.4,150,160,160,95,-100,102.5,102.5,160,175,-180,175,437.5,
11,M,Richard Frattalone,SBD,MR-O,74,Raw,545,70.2,105,110,110,102.5,-115,-122.5,102.5,172.5,185,-187.5,185,397.5,
12,M,Zack LaCasse,SBD,MR-O,74,Raw,NL,73.6,110,122.5,122.5,75,-85,87.5,87.5,147.5,165,182.5,182.5,392.5,
13,M,Michael Terranova,SBD,MR-O,74,Raw,SJP,67.7,87.5,100,100,55,60,67.5,67.5,100,115,132.5,132.5,300,1998
DQ,M,Joshua Gelb,SBD,MR-O,74,Raw,,69.2,-142.5,-142.5,,95,97.5,-105,97.5,-125,125,145,145,,
DQ,M,Derek Silva,SBD,MR-O,74,Raw,,71.5,160,170,170,-100,-105,105,105,175,185,192.5,192.5,,
1,M,Craig Kelly,SBD,MR-O,83,Raw,,82.9,205,217.5,217.5,147.5,155,-157.5,155,255,-272.5,272.5,272.5,645,1992
1,M,Craig Kelly,SBD,MR-O,83,Raw,,82.9,205,217.5,217.5,147.5,155,-157.5,155,255,-272.5,272.5,272.5,645,1992
2,M,Sean Noriega,SBD,MR-O,83,Raw,,82.2,225,240,240,140,-145,150,150,245,262.5,-277.5,262.5,652.5,1996
3,M,Frank Wu,SBD,MR-O,83,Raw,,82,177.5,190,190,130,137.5,-140,137.5,265,-280,-280,265,592.5,1983
2,M,Nick Wright #1,SBD,MR-O,83,Raw,,81.4,187.5,195,195,142.5,150,-152.5,150,227.5,237.5,242.5,242.5,587.5,1991
5,M,Mark DeMaio,SBD,MR-O,83,Raw,,82.3,177.5,185,185,112.5,120,-127.5,120,227.5,245,-257.5,245,550,
6,M,Christopher Contois,SBD,MR-O,83,Raw,,78.5,197.5,-210,197.5,125,-135,-135,125,205,215,-227.5,215,537.5,1983
3,M,Anthony Garasino,SBD,MR-O,83,Raw,,80.4,192.5,205,205,110,117.5,120,120,210,-227.5,-227.5,210,535,
8,M,Eric Rosenthal,SBD,MR-O,83,Raw,,81.4,147.5,160,160,110,122.5,-130,122.5,210,230,245,245,527.5,
9,M,Jeff Berume,SBD,MR-O,83,Raw,,82.8,165,175,175,120,-130,-130,120,210,220,227.5,227.5,522.5,
10,M,Paul Wright,SBD,MR-O,83,Raw,Phnx,83,175,-182.5,175,120,127.5,-137.5,127.5,220,-227.5,-227.5,220,522.5,1978
4,M,Joe Babcock,SBD,MR-O,83,Raw,,79.9,177.5,190,190,97.5,105,-112.5,105,200,217.5,-230,217.5,512.5,
11,M,Joe Babcock,SBD,MR-O,83,Raw,,79.9,177.5,190,190,97.5,105,-112.5,105,200,217.5,-230,217.5,512.5,
12,M,JP Faherty,SBD,MR-O,83,Raw,,79,165,175,175,125,130,135,135,185,197.5,205,205,515,
5,M,Louis Spina,SBD,MR-O,83,Raw,,80.5,155,165,165,117.5,127.5,-135,127.5,182.5,192.5,-200,192.5,485,
14,M,Krzysztof Mroczkowski,SBD,MR-O,83,Raw,,81.9,167.5,-185,167.5,-112.5,117.5,-122.5,117.5,175,185,-195,185,470,
1,M,Larry Emerson,SBD,MR-O,83,Raw,,79.4,-145,145,145,85,90,92.5,92.5,205,216,220,220,457.5,
16,M,Nicholas Rao,SBD,MR-O,83,Raw,,81.4,137.5,147.5,147.5,127.5,-135,135,135,172.5,,,172.5,455,
17,M,Shawn Lukeman,SBD,MR-O,83,Raw,NL,78.4,142.5,152.5,152.5,107.5,-115,120,120,145,155,167.5,167.5,440,1988
2,M,Sean McClure,SBD,MR-O,83,Raw,,77,125,142.5,142.5,110,122.5,-125,122.5,142.5,152.5,157.5,157.5,422.5,1963
6,M,Justin Franchetti,SBD,MR-O,83,Raw,,78.1,132.5,140,140,-97.5,100,-107.5,100,160,167.5,-182.5,167.5,407.5,1993
20,M,Mohammad Nourmohammadi,SBD,MR-O,83,Raw,,79.6,110,115,115,105,110,-115,110,160,170,175,175,400,
21,M,Ryan McCusker,SBD,MR-O,83,Raw,SJP,77.8,90,-100,90,80,85,-90,85,135,150,160,160,335,1998
1,M,Michael Pennacchia Jr,SBD,MR-O,93,Raw,NL,91.2,227.5,-237.5,227.5,130,137.5,-142.5,137.5,275,285,-290,285,650,1995
1,M,Sam Pagan,SBD,MR-O,93,Raw,CCG,91.8,202.5,215,215,160,167.5,175,175,235,250,260,260,650,1967
3,M,Phil Najemy,SBD,MR-O,93,Raw,,92.1,-200,215,215,120,-130,-130,120,260,282.5,,282.5,617.5,1980
4,M,Saul Vasquez,SBD,MR-O,93,Raw,,90.5,197.5,215,215,130,-140,-147.5,130,227.5,245,257.5,257.5,602.5,1991
5,M,Michael Frye,SBD,MR-O,93,Raw,,91.8,192.5,207.5,207.5,135,142.5,-145,142.5,230,-242.5,242.5,242.5,592.5,
6,M,Jared Carmichael,SBD,MR-O,93,Raw,CCG,92.3,190,-200,190,120,-125,-125,120,217.5,230,242.5,242.5,552.5,1989
1,M,Joshua Wakefield,SBD,MR-O,93,Raw,Chaos,91.1,175,185,185,120,-127.5,-127.5,120,222.5,235,242.5,242.5,547.5,1991
7,M,Paul Cardente,SBD,MR-O,93,Raw,NL,87.8,172.5,182.5,182.5,117.5,125,135,135,217.5,227.5,240,240,557.5,1984
8,M,Joshua Wakefield,SBD,MR-O,93,Raw,Chaos,91.1,175,185,185,120,-127.5,-127.5,120,222.5,235,242.5,242.5,547.5,1991
9,M,Nicalos Westgate,SBD,MR-O,93,Raw,,87.9,175,182.5,182.5,140,150,-160,150,185,197.5,210,210,542.5,1988
10,M,Brandon Peoples,SBD,MR-O,93,Raw,,92,170,177.5,177.5,125,130,-137.5,130,207.5,220,230,230,537.5,1986
2,M,Christian Matros,SBD,MR-O,93,Raw,,90.2,145,165,165,110,122.5,-127.5,122.5,222.5,242.5,247.5,247.5,535,
11,M,Christian Matros,SBD,MR-O,93,Raw,,90.2,145,165,165,110,122.5,-127.5,122.5,222.5,242.5,247.5,247.5,535,
12,M,Michael Proctor,SBD,MR-O,93,Raw,,91.4,185,197.5,197.5,102.5,-107.5,115,115,212.5,230,-232.5,230,542.5,1989
13,M,Don Marini,SBD,MR-O,93,Raw,,90.4,182.5,185,185,115,122.5,125,125,215,-225,-225,215,525,
2,M,Mark Knowles,SBD,MR-O,93,Raw,,92.6,170,187.5,187.5,102.5,115,117.5,117.5,185,202.5,207.5,207.5,512.5,1963
14,M,Mark Knowles,SBD,MR-O,93,Raw,,92.6,170,187.5,187.5,102.5,115,117.5,117.5,185,202.5,207.5,207.5,512.5,1963
15,M,Steve Gabriel,SBD,MR-O,93,Raw,,90.2,165,175,175,115,122.5,-127.5,122.5,195,205,-217.5,205,502.5,1978
16,M,Christopher Frye,SBD,MR-O,93,Raw,,91.6,150,157.5,157.5,122.5,127.5,-132.5,127.5,200,210,217.5,217.5,502.5,
17,M,Tyler Berry,SBD,MR-O,93,Raw,,89.9,180,190,190,105,112.5,-115,112.5,195,-205,,195,497.5,
18,M,Thiago Santos,SBD,MR-O,93,Raw,,89.8,-125,157.5,157.5,112.5,-122.5,-130,112.5,160,185,192.5,192.5,462.5,
19,M,Sam Wood,SBD,MR-O,93,Raw,,89.7,147.5,157.5,157.5,97.5,105,112.5,112.5,165,182.5,195,195,465,
20,M,Domenic DiSisto,SBD,MR-O,93,Raw,,89.5,145,-160,145,110,122.5,130,130,167.5,187.5,-205,187.5,462.5,1995
21,M,Domenic Palmieri,SBD,MR-O,93,Raw,,86.8,125,135,135,112.5,120,122.5,122.5,182.5,187.5,192.5,192.5,450,1996
22,M,Ryan Olney,SBD,MR-O,93,Raw,,85,135,145,145,-100,105,115,115,-185,190,195,195,455,
23,M,Kevin Redmond,SBD,MR-O,93,Raw,SJP,89.2,145,152.5,152.5,75,80,85,85,160,170,-182.5,170,407.5,1998
24,M,William Reinerth,SBD,MR-O,93,Raw,,91.9,125,-135,125,85,90,95,95,162.5,172.5,182.5,182.5,402.5,1968
4,M,Gene Whiting,SBD,MR-O,93,Raw,Phnx,85.3,-127.5,-135,92.5,82.5,87.5,92.5,92.5,165,175,180,180,365,1961
25,M,Jake Topel,SBD,MR-O,93,Raw,SJP,83.1,97.5,110,110,80,85,-92.5,85,137.5,152.5,160,160,355,
26,M,Luke Melanson,SBD,MR-O,93,Raw,SJP,84,85,95,95,60,-65,65,65,90,105,115,115,275,1999
DQ,M,Daniel Pearl,SBD,MR-O,93,Raw,,87.4,-187.5,-197.5,,132.5,137.5,-140,137.5,242.5,-255,-255,242.5,,
DQ,M,Daniel Pearl,SBD,MR-O,93,Raw,,87.4,-187.5,-197.5,,132.5,137.5,-140,137.5,242.5,-255,-255,242.5,,
DQ,M,Jeffrey DeNunzio,SBD,MR-O,93,Raw,,90.1,205,-215,205,-142.5,-142.5,142.5,142.5,265,272.5,-275,272.5,,1990
DQ,M,John Kimball,SBD,MR-O,93,Raw,,90.3,165,177.5,177.5,-112.5,-112.5,-112.5,,182.5,200,215,215,,1989
DQ,M,Michael Taylor,SBD,MR-O,93,Raw,,91.6,-130,-137.5,,120,-125,-130,120,137.5,160,182.5,182.5,,1988
1,M,Charles Ruffin II,SBD,MR-O,105,Raw,,100.7,255,272.5,272.5,155,167.5,-175,167.5,265,280,287.5,287.5,727.5,
2,M,Nicholas Guidice,SBD,MR-O,105,Raw,,99.2,-225,225,225,192.5,-202.5,-202.5,192.5,272.5,290,305,305,722.5,1987
3,M,Brandon Diamond,SBD,MR-O,105,Raw,,103.4,235,245,245,145,-155,-155,145,267.5,-277.5,282.5,282.5,672.5,1981
4,M,Garrett Berna,SBD,MR-O,105,Raw,CCG,99,-212.5,212.5,212.5,152.5,162.5,165,165,227.5,237.5,-250,237.5,615,1986
5,M,Chris Bechara,SBD,MR-O,105,Raw,,97.3,185,192.5,192.5,-125,127.5,-142.5,127.5,257.5,267.5,-272.5,267.5,587.5,1997
6,M,Dustin Diedrich,SBD,MR-O,105,Raw,,98.3,212.5,220,220,130,135,-137.5,135,215,-230,232.5,232.5,587.5,1985
7,M,Sean Fallon,SBD,MR-O,105,Raw,SJP,99.6,182.5,192.5,192.5,110,117.5,-125,117.5,210,217.5,-227.5,217.5,527.5,1997
1,M,Clarence Forman,SBD,MR-O,105,Raw,,97.7,162.5,172.5,172.5,112.5,120,-122.5,120,207.5,220,-232.5,220,512.5,
8,M,Clarence Forman,SBD,MR-O,105,Raw,,97.7,162.5,172.5,172.5,112.5,120,-122.5,120,207.5,220,-232.5,220,512.5,
9,M,Tyler Berry,SBD,MR-O,105,Raw,,101.5,-175,185,185,90,97.5,105,105,220,227.5,-232.5,227.5,517.5,
10,M,Matthew Farnsworth,SBD,MR-O,105,Raw,,101.9,150,155,155,125,137.5,-152.5,137.5,167.5,182.5,205,205,497.5,
11,M,Chris Boucher,SBD,MR-O,105,Raw,Chaos,100.6,175,180,180,110,112.5,115,115,172.5,180,197.5,197.5,492.5,1987
12,M,Spenser Piasecki,SBD,MR-O,105,Raw,,98.6,-165,-165,122.5,105,-115,122.5,122.5,192.5,210,-225,210,455,
1,M,William Trottier,SBD,MR-O,105,Raw,,100.3,135,145,145,100,-110,-110,100,175,-185,,175,420,
13,M,William Trottier,SBD,MR-O,105,Raw,,100.3,135,145,145,100,-110,-110,100,175,-185,,175,420,
1,M,Michael Sullivan,SBD,MR-O,120,Raw,CCG,118.1,220,232.5,232.5,150,160,170,170,280,305,317.5,317.5,720,1997
2,M,James Afonso,SBD,MR-O,120,Raw,,114.2,247.5,265,265,162.5,-172.5,-172.5,162.5,245,262.5,-267.5,262.5,690,
3,M,Carl Hollant,SBD,MR-O,120,Raw,CCG,119.1,225,235,235,152.5,-160,-165,152.5,237.5,260,272.5,272.5,660,1992
4,M,Fredrick Zeiba,SBD,MR-O,120,Raw,,117.1,215,-227.5,215,122.5,130,-135,130,-205,215,-227.5,215,560,1988
5,M,Richard Bettina,SBD,MR-O,120,Raw,,117.1,155,-170,155,102.5,112.5,-120,112.5,162.5,195,207.5,207.5,475,1957
6,M,Charlie Cocci,SBD,MR-O,120,Raw,CCG,110,-152.5,162.5,162.5,95,100,-105,100,197.5,,,197.5,460,
1,M,Adam Delancy,SBD,MR-O,120+,Raw,CCG,128.6,190,200,200,120,127.5,-137.5,127.5,-220,230,-240,230,557.5,
DQ,M,Brian Burns,SBD,MR-O,120+,Raw,,122.4,-140,140,140,-80,-100,100,100,-175,-182.5,182.5,182.5,,1999
1,F,Kimberly Walker,SBD,FR-M,63,Raw,,62.2,60,62.5,62.5,42.5,45,-47.5,45,75,80,90,90,197.5,
DQ,F,Carole Krassner,SBD,FR-M,63,Raw,Phnx,61.3,-32.5,-37.5,,-25,-25,-27.5,,-70,,,,,1940
DQ,F,Marie-Andree Cleary,SBD,FR-M,63,Raw,Phnx,62.3,70,-72.5,70,45,-47.5,-52.5,45,-92.5,-92.5,-92.5,,,1972
1,F,Kathy Goss,SBD,FR-M,72,Raw,Phnx,63.3,-95,100,100,47.5,-52.5,-52.5,47.5,115,117.5,122.5,122.5,270,1964
2,F,Jan Pigott,SBD,FR-M,72,Raw,Phnx,69.8,-75,82.5,82.5,52.5,57.5,60,60,82.5,85,92.5,92.5,235,1969
3,F,Anabela Papamitrou,SBD,FR-M,72,Raw,,70,-60,60,60,35,40,42.5,42.5,85,97.5,102.5,102.5,205,1969
4,F,Suzanne Cyr,SBD,FR-M,72,Raw,,68.6,-52.5,52.5,52.5,40,42.5,45,45,85,95,-110,95,192.5,1966
5,F,Denise Montini,SBD,FR-M,72,Raw,Phnx,71.1,60,65,65,35,37.5,-40,37.5,75,80,85,85,187.5,1973
1,F,Deb Mason,SBD,FR-M,84,Raw,NL,79,70,77.5,77.5,42.5,50,52.5,52.5,115,-122.5,-122.5,115,245,1956
1,F,Cindy Tilton,SBD,FR-M,84+,Raw,Phnx,87,130,140,140,95,-100,100,100,162.5,172.5,-180,172.5,412.5,1969
2,F,Chris Colbert,SBD,FR-M,84+,Raw,Phnx,97,130,137.5,137.5,67.5,-72.5,-77.5,67.5,-145,155,167.5,167.5,372.5,1969
3,F,Kristin Bolton,SBD,FR-M,84+,Raw,Phnx,89.6,102.5,112.5,112.5,57.5,62.5,-65,62.5,-132.5,137.5,-147.5,137.5,312.5,1975
DQ,F,Mutamon Hunthaisong,SBD,FR-T,52,Raw,,51,-85,-85,,42.5,47.5,-50,47.5,102.5,112.5,122.5,122.5,,1997
1,F,Emily Lewis,SBD,FR-T,72,Raw,,71.4,70,75,75,42.5,-47.5,-47.5,42.5,115,120,135,135,252.5,
1,F,Jaclyn Cortese,SBD,FR-T,84,Raw,,75.4,67.5,75,75,-42.5,47.5,-52.5,47.5,102.5,110,117.5,117.5,240,
1,F,Miranda Lovett,SBD,FR-Jr,52,Raw,,51.3,-82.5,82.5,82.5,42.5,50,55,55,120,125,-127.5,125,262.5,1994
2,F,Leah Citron,SBD,FR-Jr,52,Raw,Phnx,48.4,82.5,87.5,87.5,45,47.5,50,50,102.5,110,-117.5,110,247.5,1992
DQ,F,Emily Notini,SBD,FR-Jr,52,Raw,,51.1,-82.5,-90,,42.5,45,-50,45,112.5,120,-135,120,,1991
1,F,Samantha Blindt,SBD,FR-Jr,57,Raw,,55.7,75,-85,75,52.5,-57.5,-57.5,52.5,102.5,110,115,115,242.5,
1,F,Ewa Januszkiewicz,SBD,FR-Jr,63,Raw,GLSN,62.1,125,135,135,62.5,67.5,70,70,165,180,182.5,182.5,387.5,1991
2,F,Bianca Thomas,SBD,FR-Jr,63,Raw,,61.5,85,95,95,47.5,52.5,60,60,102.5,110,122.5,122.5,277.5,1995
1,F,Kelsey McCarthy,SBD,FR-Jr,72,Raw,NUPL,69.7,117.5,125,125,60,67.5,70,70,142.5,152.5,160,160,355,1992
DQ,F,Amanda Mendez,SBD,FR-Jr,72,Raw,,67.2,-92.5,-92.5,,47.5,52.5,-57.5,52.5,105,115,-120,115,,
1,F,Sarah Lin Fang Yi,SBD,FR-Jr,84,Raw,,75.5,102.5,115,115,-62.5,67.5,72.5,72.5,142.5,157.5,-165,157.5,345,
1,F,Lisa Randazzo,SBD,FR-O,47,Raw,Phnx,46.4,102.5,107.5,107.5,55,-60,-60,55,115,122.5,-132.5,122.5,285,1976
2,F,Samantha Reynolds,SBD,FR-O,47,Raw,,44.8,75,80,80,40,42.5,45,45,102.5,110,120,120,245,
3,F,Maribeth Lino-Coyle,SBD,FR-O,47,Raw,,46.1,82.5,90,90,-42.5,45,50,50,95,102.5,105,105,245,1987
1,F,Miranda Lovett,SBD,FR-O,52,Raw,NL,51.3,-82.5,82.5,82.5,42.5,50,55,55,120,125,-127.5,125,262.5,1994
2,F,Shayna Bennett,SBD,FR-O,52,Raw,,51.5,70,80,80,47.5,52.5,-55,52.5,102.5,112.5,120,120,252.5,1986
3,F,Leah Citron,SBD,FR-O,52,Raw,Phnx,48.4,82.5,87.5,87.5,45,47.5,50,50,102.5,110,-117.5,110,247.5,1992
DQ,F,Mutamon Hunthaisong,SBD,FR-O,52,Raw,,51,-85,-85,,42.5,47.5,-50,47.5,102.5,112.5,122.5,122.5,,1997
DQ,F,Emily Notini,SBD,FR-O,52,Raw,,51.1,-82.5,-90,,42.5,45,-50,45,112.5,120,-135,120,,1991
1,F,Luz Adorno,SBD,FR-O,57,Raw,,57,87.5,92.5,92.5,42.5,-45,-45,42.5,110,-115,117.5,117.5,252.5,1986
2,F,Samantha Blindt,SBD,FR-O,57,Raw,,55.7,75,-85,75,52.5,-57.5,-57.5,52.5,102.5,110,115,115,242.5,
1,F,Ewa Januszkiewicz,SBD,FR-O,63,Raw,GLSN,62.1,125,135,135,62.5,67.5,70,70,165,180,182.5,182.5,387.5,1991
2,F,Ashley Svendbye,SBD,FR-O,63,Raw,,61.1,130,-137.5,130,75,77.5,82.5,82.5,157.5,-165,,157.5,370,1990
3,F,Jessica Diedrich,SBD,FR-O,63,Raw,,62.7,105,110,110,55,57.5,-60,57.5,142.5,-152.5,-152.5,142.5,310,
4,F,Bianca Thomas,SBD,FR-O,63,Raw,,61.5,85,95,95,47.5,52.5,60,60,102.5,110,122.5,122.5,277.5,1995
5,F,Kimberly Walker,SBD,FR-O,63,Raw,,62.2,60,62.5,62.5,42.5,45,-47.5,45,75,80,90,90,197.5,
6,F,Andrea Fogg,SBD,FR-O,63,Raw,CCG,61.3,62.5,-67.5,62.5,35,-40,-40,35,87.5,92.5,-100,92.5,190,1979
7,F,Erin Struzzulla,SBD,FR-O,63,Raw,,61.1,45,47.5,47.5,32.5,35,37.5,37.5,75,85,90,90,175,
DQ,F,Carole Krassner,SBD,FR-O,63,Raw,Phnx,61.3,-32.5,-37.5,,-25,-25,-27.5,,-70,,,,,1940
DQ,F,Marie-Andree Cleary,SBD,FR-O,63,Raw,Phnx,62.3,70,-72.5,70,45,-47.5,-52.5,45,-92.5,-92.5,-92.5,,,1972
1,F,Kelsey McCarthy,SBD,FR-O,72,Raw,NUPL,69.7,117.5,125,125,60,67.5,70,70,142.5,152.5,160,160,355,1992
2,F,Jennifer Rodrigues,SBD,FR-O,72,Raw,,69.7,120,127.5,127.5,62.5,-67.5,-67.5,62.5,147.5,152.5,157.5,157.5,347.5,1982
3,F,Brittni Perry,SBD,FR-O,72,Raw,CCG,71.1,112.5,122.5,122.5,-62.5,67.5,-70,67.5,145,155,-167.5,155,345,1989
4,F,Chrystn Fisher,SBD,FR-O,72,Raw,Phnx,64.5,102.5,107.5,107.5,57.5,62.5,-65,62.5,122.5,132.5,142.5,142.5,312.5,1978
5,F,Molie Kimmel,SBD,FR-O,72,Raw,,67.9,92.5,100,100,52.5,57.5,-60,57.5,137.5,145,150,150,307.5,
6,F,Alicia Deane,SBD,FR-O,72,Raw,,70.2,102.5,-107.5,102.5,55,-62.5,-62.5,55,112.5,117.5,125,125,282.5,
7,F,Kathy Goss,SBD,FR-O,72,Raw,Phnx,63.3,-95,100,100,47.5,-52.5,-52.5,47.5,115,117.5,122.5,122.5,270,1964
8,F,Emily Lewis,SBD,FR-O,72,Raw,NL,71.4,70,75,75,42.5,-47.5,-47.5,42.5,115,120,135,135,252.5,
9,F,Jan Pigott,SBD,FR-O,72,Raw,Phnx,69.8,-75,82.5,82.5,52.5,57.5,60,60,82.5,85,92.5,92.5,235,1969
10,F,Jennifer Daley,SBD,FR-O,72,Raw,,65.8,60,-75,60,35,40,-45,40,100,110,-117.5,110,210,
11,F,Anabela Papamitrou,SBD,FR-O,72,Raw,,70,-60,60,60,35,40,42.5,42.5,85,97.5,102.5,102.5,205,1969
12,F,Suzanne Cyr,SBD,FR-O,72,Raw,,68.6,-52.5,52.5,52.5,40,42.5,45,45,85,95,-110,95,192.5,1966
13,F,Denise Montini,SBD,FR-O,72,Raw,Phnx,71.1,60,65,65,35,37.5,-40,37.5,75,80,85,85,187.5,1973
DQ,F,Pamela Trow,SBD,FR-O,72,Raw,,63.6,-97.5,-97.5,,52.5,-57.5,-57.5,52.5,102.5,107.5,115,115,,1979
DQ,F,Amanda Mendez,SBD,FR-O,72,Raw,,67.2,-92.5,-92.5,,47.5,52.5,-57.5,52.5,105,115,-120,115,,
DQ,F,Sabrina De Costa,SBD,FR-O,72,Raw,,71.4,-102.5,102.5,102.5,-62.5,-67.5,-67.5,,-102.5,107.5,115,115,,1982
1,F,Sarah Lin Fang Yi,SBD,FR-O,84,Raw,,75.5,102.5,115,115,-62.5,67.5,72.5,72.5,142.5,157.5,-165,157.5,345,
2,F,Elyse Bezarro,SBD,FR-O,84,Raw,CCG,81,75,82.5,82.5,42.5,47.5,-50,47.5,95,105,115,115,245,
3,F,Deb Mason,SBD,FR-O,84,Raw,NL,79,70,77.5,77.5,42.5,50,52.5,52.5,115,-122.5,-122.5,115,245,1956
4,F,Jaclyn Cortese,SBD,FR-O,84,Raw,,75.4,67.5,75,75,-42.5,47.5,-52.5,47.5,102.5,110,117.5,117.5,240,
1,F,Cindy Tilton,SBD,FR-O,84+,Raw,Phnx,87,130,140,140,95,-100,100,100,162.5,172.5,-180,172.5,412.5,1969
2,F,Chris Colbert,SBD,FR-O,84+,Raw,Phnx,97,130,137.5,137.5,67.5,-72.5,-77.5,67.5,-145,155,167.5,167.5,372.5,1969
3,F,Kristin Bolton,SBD,FR-O,84+,Raw,Phnx,89.6,102.5,112.5,112.5,57.5,62.5,-65,62.5,-132.5,137.5,-147.5,137.5,312.5,1975
DQ,M,Enrique Rodriguez #1,SBD,MR-O,74,Raw,,73.3,,,,-120,120,-132.5,120,182.5,192.5,-200,192.5,,1990
DQ,M,Royce Claflin Jr,SBD,MR-O,83,Raw,Phnx,82.5,,,,-87.5,-90,-102.5,,120,132.5,140,140,,
DQ,M,Joshua Hughes,SBD,MR-O,105,Raw,,103.2,,,,-150,150,-170,150,245,265,-275,265,,
DQ,M,Joshua Hughes,SBD,MR-O,105,Raw,,103.2,,,,-150,150,-170,150,245,265,-275,265,,
DQ,M,William Lyons,SBD,MR-O,120,Raw,,116.1,,,,127.5,137.5,-145,137.5,207.5,225,240,240,,1987
