Division,WeightClassKg,Place,Name,Team,BodyweightKg,Best3SquatKg,Best3BenchKg,Best3DeadliftKg,TotalKg,Equipment,Event,Sex
Boys,51.71,1,Chase Chapa,Port Lavaca Calhoun,51.53,131.54,90.72,158.76,381.02,Single-ply,SBD,M
Boys,51.71,2,Cory Moore,Corpus Christi Calallen,50.8,83.91,45.36,104.33,233.6,Single-ply,SBD,M
Boys,55.79,1,Michael Casillas,Victoria West,55.79,197.31,111.13,199.58,508.02,Single-ply,SBD,M
Boys,55.79,2,Lupe Garcia,Agua Dulce,53.89,108.86,52.16,117.93,278.96,Single-ply,SBD,M
Boys,55.79,DQ,Zacheriah Segovia,Beeville Jones,55.79,,,,,Single-ply,SBD,M
Boys,55.79,DQ,Miguel Ramirez,Agua Dulce,55.61,,,,,Single-ply,SBD,M
Boys,59.87,1,Joe Alvarez,Beeville Jones,59.87,172.37,95.25,183.7,451.32,Single-ply,SBD,M
Boys,59.87,2,Jakob Cortez,Port Lavaca Calhoun,58.88,172.37,92.99,181.44,446.79,Single-ply,SBD,M
Boys,59.87,3,Juan Vasquez,Corpus Christi Calallen,59.87,165.56,81.65,172.37,419.57,Single-ply,SBD,M
Boys,59.87,4,Drake Moya,Beeville Jones,58.33,136.08,74.84,158.76,369.68,Single-ply,SBD,M
Boys,59.87,5,Andrew Medina,Corpus Christi Calallen,59.06,127.01,65.77,145.15,337.93,Single-ply,SBD,M
Boys,59.87,6,Timothy Mendez,Victoria West,57.74,102.06,63.5,120.2,285.76,Single-ply,SBD,M
Boys,59.87,DQ,Bryan Lucio,Beeville Jones,59.87,,,,,Single-ply,SBD,M
Boys,67.13,1,Cristian Alvarado,Corpus Christi Calallen,66.59,215.46,122.47,206.38,544.31,Single-ply,SBD,M
Boys,67.13,2,Jaysen Orozco,Corpus Christi Calallen,66.86,195.04,131.54,201.85,528.44,Single-ply,SBD,M
Boys,67.13,3,Gabriel Quinones,Gregory-Portland,64.95,204.12,106.59,195.04,505.76,Single-ply,SBD,M
Boys,67.13,4,Noah Martinez,Victoria West,66.68,185.97,97.52,204.12,487.61,Single-ply,SBD,M
Boys,67.13,5,Jose Munoz,Port Lavaca Calhoun,64.05,188.24,106.59,185.97,480.81,Single-ply,SBD,M
Boys,67.13,6,Trey Hernandez,Beeville Jones,67.13,190.51,95.25,181.44,467.2,Single-ply,SBD,M
Boys,67.13,7,Landen Valdez,Victoria West,63.05,183.7,92.99,156.49,433.18,Single-ply,SBD,M
Boys,67.13,8,Benjamin Luna,Goliad,65.95,165.56,95.25,170.1,430.91,Single-ply,SBD,M
Boys,67.13,9,Joshua Dutiel,Beeville Jones,65.41,142.88,99.79,158.76,401.43,Single-ply,SBD,M
Boys,67.13,10,Brittian Brown,Port Lavaca Calhoun,65.05,149.69,74.84,156.49,381.02,Single-ply,SBD,M
Boys,67.13,11,Allen Dry,Victoria West,64.59,124.74,74.84,156.49,356.07,Single-ply,SBD,M
Boys,67.13,12,Jose Garza,Kingsville King,62.78,129.27,83.91,138.35,351.53,Single-ply,SBD,M
Boys,67.13,DQ,Eric Lara,Beeville Jones,67.13,,,,,Single-ply,SBD,M
Boys,74.84,1,Oscar Lopez,Agua Dulce,74.84,185.97,122.47,197.31,505.76,Single-ply,SBD,M
Boys,74.84,2,Aaron Saenz,Kingsville King,68.58,147.42,86.18,165.56,399.16,Single-ply,SBD,M
Boys,74.84,DQ,Patrick Prieto,Beeville Jones,73.94,,,,,Single-ply,SBD,M
Boys,82.1,1,Joel Garza,Corpus Christi Calallen,77.02,238.14,142.88,244.94,625.96,Single-ply,SBD,M
Boys,82.1,2,Steven Brandt,Victoria West,81.56,215.46,129.27,226.8,571.53,Single-ply,SBD,M
Boys,82.1,3,Damian Hinojosa,Corpus Christi Calallen,80.56,215.46,140.61,204.12,560.19,Single-ply,SBD,M
Boys,82.1,4,Gary Hunley,Victoria West,80.74,192.78,129.27,204.12,526.17,Single-ply,SBD,M
Boys,82.1,5,Joe Isaac Pena,Port Lavaca Calhoun,77.93,170.1,92.99,188.24,451.32,Single-ply,SBD,M
Boys,82.1,DQ,Eh Klo Htoo,Port Lavaca Calhoun,81.28,,,,,Single-ply,SBD,M
Boys,89.81,1,Jaime Rios,Port Lavaca Calhoun,87.91,265.35,138.35,240.4,644.1,Single-ply,SBD,M
Boys,89.81,2,Raul Padilla,Victoria West,89.72,235.87,172.37,210.92,619.15,Single-ply,SBD,M
Boys,89.81,3,Marcus Cerda,Taft,89.72,222.26,133.81,224.53,580.6,Single-ply,SBD,M
Boys,89.81,4,Edemiro Reyna,Gregory-Portland,87.45,208.65,115.67,188.24,512.56,Single-ply,SBD,M
Boys,89.81,5,Robert Dorsch,Corpus Christi Calallen,86.73,185.97,106.59,210.92,503.49,Single-ply,SBD,M
Boys,89.81,6,Joe Montoya,Beeville Jones,89.72,190.51,106.59,174.63,471.74,Single-ply,SBD,M
Boys,89.81,7,Caleb Smith,Victoria West,89.72,158.76,104.33,158.76,421.84,Single-ply,SBD,M
Boys,89.81,8,Christian Moreno,Kingsville King,86.73,142.88,72.57,122.47,337.93,Single-ply,SBD,M
Boys,89.81,9,Kaden Collins,Goliad,85.37,111.13,56.7,113.4,281.23,Single-ply,SBD,M
Boys,99.79,1,Austin Kennemer,Agua Dulce,99.79,231.33,149.69,240.4,621.42,Single-ply,SBD,M
Boys,99.79,2,Victor Mendez,Gregory-Portland,95.71,233.6,131.54,229.06,594.21,Single-ply,SBD,M
Boys,99.79,3,Ross Delgado,Gregory-Portland,96.16,251.74,129.27,210.92,591.94,Single-ply,SBD,M
Boys,99.79,4,Rylan Griffin,Corpus Christi Calallen,99.34,158.76,111.13,147.42,417.3,Single-ply,SBD,M
Boys,109.77,1,Nick Galvan,Beeville Jones,104.78,272.16,183.7,244.94,700.8,Single-ply,SBD,M
Boys,109.77,2,Angel Hernandez,Goliad,105.14,258.55,158.76,263.08,680.39,Single-ply,SBD,M
Boys,109.77,3,Sebastian Opal,Gregory-Portland,100.43,217.72,131.54,215.46,564.72,Single-ply,SBD,M
Boys,109.77,4,Seth Colsa,Corpus Christi Calallen,102.42,215.46,106.59,197.31,519.36,Single-ply,SBD,M
Boys,109.77,5,Clayton Kleckler,Goliad,105.96,185.97,127.01,204.12,517.1,Single-ply,SBD,M
Boys,109.77,6,Paul Rojas,Goliad,105.32,176.9,99.79,181.44,458.13,Single-ply,SBD,M
Boys,109.77,7,Jessiah Castellanos,Kingsville King,104.33,154.22,92.99,154.22,401.43,Single-ply,SBD,M
Boys,124.74,1,Juan LeBron,Port Lavaca Calhoun,124.28,256.28,149.69,240.4,646.37,Single-ply,SBD,M
Boys,124.74,2,Demitri Castro,Corpus Christi Calallen,119.48,183.7,111.13,192.78,487.61,Single-ply,SBD,M
Boys,124.74,DQ,Julian Beltran,Corpus Christi Calallen,111.95,213.19,,,,Single-ply,SBD,M
Boys,124.74,DQ,Jermayne Miller,Beeville Jones,119.48,,,,,Single-ply,SBD,M
Boys,124.74,DQ,Mario Cano,Beeville Jones,120.11,,,,,Single-ply,SBD,M
Boys,124.74+,1,Oscar Castillo,Pleasanton,135.53,294.84,204.12,242.67,741.62,Single-ply,SBD,M
Boys,124.74+,2,Leo Madera,Port Lavaca Calhoun,145.88,278.96,158.76,240.4,678.12,Single-ply,SBD,M
Boys,124.74+,3,Ray Martinez,Port Lavaca Calhoun,126.82,265.35,156.49,217.72,639.57,Single-ply,SBD,M
Boys,124.74+,4,Brycen Castillo,Victoria West,128.55,229.06,142.88,222.26,594.21,Single-ply,SBD,M
Boys,124.74+,5,Jonathan Rodriguez,Agua Dulce,135.08,249.48,147.42,183.7,580.6,Single-ply,SBD,M
Boys,124.74+,6,Damian Chavez,Port Lavaca Calhoun,134.35,240.4,117.93,165.56,523.9,Single-ply,SBD,M
Boys,124.74+,DQ,Daniel Martinez,Beeville Jones,140.07,269.89,,,,Single-ply,SBD,M
