Division,WeightClassKg,Place,Name,Team,BodyweightKg,Best3SquatKg,Best3BenchKg,Best3DeadliftKg,TotalKg,Equipment,Event,Sex
Boys,51.71,1,John Davis,Center,50.8,97.52,58.97,111.13,267.62,Single-ply,SBD,M
Boys,51.71,2,Mason Walker,Livingston,45.81,102.06,43.09,106.59,251.74,Single-ply,SBD,M
Boys,51.71,3,Mykal Vera,Corrigan-Camden,51.26,106.59,49.9,92.99,249.48,Single-ply,SBD,M
Boys,51.71,DQ,Austin Pruett,Shepherd,42.18,61.23,,,,Single-ply,SBD,M
Boys,51.71,DQ,Patrick Dishman,Huntsville,51.71,,,,,Single-ply,SBD,M
Boys,55.79,1,Salvador Bahena,Beaumont Ozen,55.34,111.13,86.18,149.69,347,Single-ply,SBD,M
Boys,55.79,2,Datari Jalomo,Pollok Central,55.79,111.13,61.23,133.81,306.17,Single-ply,SBD,M
Boys,55.79,3,Brandon Williams,Pollok Central,55.34,113.4,58.97,113.4,285.76,Single-ply,SBD,M
Boys,55.79,4,Casey Avellaneda,Splendora,55.34,102.06,58.97,120.2,281.23,Single-ply,SBD,M
Boys,55.79,5,Angel Gomez,Cleveland,55.79,83.91,56.7,102.06,242.67,Single-ply,SBD,M
Boys,59.87,1,Jaden Schroeder,Huntsville,58.97,170.1,92.99,165.56,428.64,Single-ply,SBD,M
Boys,59.87,2,Noah Courvelle,Shepherd,59.87,165.56,86.18,170.1,421.84,Single-ply,SBD,M
Boys,59.87,3,Aundrea Holmes,Trinity,59.87,161.03,90.72,154.22,405.97,Single-ply,SBD,M
Boys,59.87,4,Brendan Alexander,Pollok Central,59.42,136.08,81.65,161.03,378.75,Single-ply,SBD,M
Boys,59.87,5,Clay Coogler,Shepherd,59.87,147.42,83.91,147.42,378.75,Single-ply,SBD,M
Boys,59.87,6,Dylan Purvis,Corrigan-Camden,57.61,147.42,65.77,147.42,360.61,Single-ply,SBD,M
Boys,59.87,7,Dylan McMullen,Splendora,58.06,136.08,72.57,142.88,351.53,Single-ply,SBD,M
Boys,59.87,8,Cody Chreene,Shepherd,57.15,102.06,52.16,115.67,269.89,Single-ply,SBD,M
Boys,59.87,DQ,Justin Compean,Splendora,59.87,,,,,Single-ply,SBD,M
Boys,59.87,DQ,Gesyler Llanos,Trinity,59.87,,,,,Single-ply,SBD,M
Boys,67.13,1,BJ Mottu,Livingston,67.04,192.78,124.74,213.19,530.7,Single-ply,SBD,M
Boys,67.13,2,Emmanuel Walker,Corrigan-Camden,64.86,188.24,102.06,204.12,494.42,Single-ply,SBD,M
Boys,67.13,3,Ivan Fuentes,Willis,66.68,181.44,106.59,195.04,483.08,Single-ply,SBD,M
Boys,67.13,4,Micah Legg,Livingston,67.09,183.7,83.91,174.63,442.25,Single-ply,SBD,M
Boys,67.13,5,Zach Jenkins,Shepherd,67.13,170.1,79.38,179.17,428.64,Single-ply,SBD,M
Boys,67.13,6,Joel Dees,Trinity,65.77,147.42,102.06,176.9,426.38,Single-ply,SBD,M
Boys,67.13,7,Edwin Amaya,Huntsville,66.22,167.83,83.91,161.03,412.77,Single-ply,SBD,M
Boys,67.13,8,Cameron Collier,Willis,64.86,124.74,74.84,147.42,347,Single-ply,SBD,M
Boys,67.13,9,Caleb Clay,Crosby,62.14,136.08,47.63,151.95,335.66,Single-ply,SBD,M
Boys,67.13,10,Emiliano Linares,Shepherd,63.05,117.93,65.77,138.35,322.05,Single-ply,SBD,M
Boys,67.13,11,Gustavo Heredia,Corrigan-Camden,64.41,115.67,72.57,124.74,312.98,Single-ply,SBD,M
Boys,67.13,12,Julian Cheek,Shepherd,60.78,113.4,68.04,124.74,306.17,Single-ply,SBD,M
Boys,67.13,13,David Lazcano,Corrigan-Camden,63.5,111.13,43.09,138.35,292.57,Single-ply,SBD,M
Boys,67.13,14,James Carr,Splendora,63.5,83.91,63.5,124.74,272.16,Single-ply,SBD,M
Boys,67.13,15,Deric Lowe,Beaumont Ozen,66.68,95.25,65.77,104.33,265.35,Single-ply,SBD,M
Boys,67.13,DQ,Jacarveious Horton,Center,66.68,97.52,,,,Single-ply,SBD,M
Boys,67.13,DQ,Justan Vaughan,Pollok Central,67.13,,,,,Single-ply,SBD,M
Boys,74.84,1,Parker Hay,Trinity,74.39,217.72,127.01,204.12,548.85,Single-ply,SBD,M
Boys,74.84,2,Angel Navarro,Crosby,74.39,215.46,113.4,210.92,539.77,Single-ply,SBD,M
Boys,74.84,3,Fabian Salazar,Cleveland,72.12,213.19,115.67,199.58,528.44,Single-ply,SBD,M
Boys,74.84,4,Ryan Hoffart,Splendora,73.48,183.7,120.2,210.92,514.83,Single-ply,SBD,M
Boys,74.84,5,Eric Perez,Cleveland,70.31,179.17,106.59,226.8,512.56,Single-ply,SBD,M
Boys,74.84,6,Kendre Rogers,Huntsville,68.95,192.78,113.4,201.85,508.02,Single-ply,SBD,M
Boys,74.84,7,Malik Griffin,Crosby,70.31,210.92,102.06,181.44,494.42,Single-ply,SBD,M
Boys,74.84,8,James Harrison,Shepherd,73.48,190.51,99.79,195.04,485.34,Single-ply,SBD,M
Boys,74.84,9,Jonathan Alemen,Trinity,73.03,165.56,102.06,197.31,464.93,Single-ply,SBD,M
Boys,74.84,10,Sebastian Maldonado,Trinity,73.48,165.56,102.06,183.7,451.32,Single-ply,SBD,M
Boys,74.84,11,Larry Lawson,Corrigan-Camden,73.94,174.63,92.99,183.7,451.32,Single-ply,SBD,M
Boys,74.84,12,Darian McCarty,Cleveland,71.21,158.76,102.06,165.56,426.38,Single-ply,SBD,M
Boys,74.84,13,Cameron Carson,Shepherd,71.21,161.03,90.72,163.29,415.04,Single-ply,SBD,M
Boys,74.84,14,Jacob Bosquez,Pollok Central,74.39,136.08,83.91,165.56,385.55,Single-ply,SBD,M
Boys,74.84,15,Anthony Horton,Center,71.21,136.08,90.72,136.08,362.87,Single-ply,SBD,M
Boys,74.84,16,Daniel Vasquez,Shepherd,73.48,136.08,88.45,136.08,360.61,Single-ply,SBD,M
Boys,74.84,17,Kobi Poage,Corrigan-Camden,68.49,138.35,86.18,129.27,353.8,Single-ply,SBD,M
Boys,74.84,18,Kaleb Murray,Pollok Central,70.31,111.13,86.18,154.22,351.53,Single-ply,SBD,M
Boys,74.84,19,Marco Martínez,Corrigan-Camden,71.67,147.42,70.31,124.74,342.46,Single-ply,SBD,M
Boys,74.84,20,Brandt Hart,Corrigan-Camden,68.95,115.67,52.16,124.74,292.57,Single-ply,SBD,M
Boys,74.84,21,Kole Eaton,Livingston,74.84,129.27,52.16,111.13,292.57,Single-ply,SBD,M
Boys,74.84,22,Brett Oliver,Pollok Central,68.49,74.84,58.97,117.93,251.74,Single-ply,SBD,M
Boys,74.84,DQ,Craig Martin,Livingston,72.48,,,,,Single-ply,SBD,M
Boys,74.84,DQ,Josh Barnhill,Willis,74.84,,,,,Single-ply,SBD,M
Boys,74.84,DQ,Kaelin Redmon,Beaumont Ozen,74.84,,,,,Single-ply,SBD,M
Boys,74.84,DQ,Gabe West,New Caney Porter,74.84,,,,,Single-ply,SBD,M
Boys,74.84,DQ,Jared Hope,Livingston,72.57,172.37,95.25,204.12,,Single-ply,SBD,M
Boys,82.1,1,JaCarlos Hall,Center,78.02,242.67,140.61,222.26,605.55,Single-ply,SBD,M
Boys,82.1,2,Luis Vasquez,Cleveland,80.29,199.58,142.88,204.12,546.58,Single-ply,SBD,M
Boys,82.1,3,Donovan Leach,Splendora,79.83,174.63,131.54,208.65,514.83,Single-ply,SBD,M
Boys,82.1,4,Dylan Reeves,Cleveland,81.19,199.58,122.47,188.24,510.29,Single-ply,SBD,M
Boys,82.1,5,Dylan Denby,Center,77.56,206.38,111.13,181.44,498.95,Single-ply,SBD,M
Boys,82.1,6,Kane Placker,Livingston,82.05,174.63,124.74,197.31,496.68,Single-ply,SBD,M
Boys,82.1,7,Christian Randell,Cleveland,77.11,183.7,117.93,167.83,469.47,Single-ply,SBD,M
Boys,82.1,8,Jackson Chamblee,Corrigan-Camden,77.56,170.1,86.18,181.44,437.72,Single-ply,SBD,M
Boys,82.1,9,Kyle Palenik,Splendora,76.66,165.56,95.25,167.83,428.64,Single-ply,SBD,M
Boys,82.1,10,Kade Elliott,Corrigan-Camden,78.02,156.49,70.31,161.03,387.82,Single-ply,SBD,M
Boys,82.1,11,Aaron Sims,Cleveland,78.02,145.15,77.11,149.69,371.95,Single-ply,SBD,M
Boys,82.1,12,Jaylon Hunt,Corrigan-Camden,79.83,151.95,86.18,129.27,367.41,Single-ply,SBD,M
Boys,82.1,DQ,Fabian Bogany,Cleveland,81.19,156.49,,,,Single-ply,SBD,M
Boys,82.1,DQ,Joey Corona,New Caney Porter,82.1,,,,,Single-ply,SBD,M
Boys,82.1,DQ,Carlos Norman,New Caney Porter,82.1,,,,,Single-ply,SBD,M
Boys,82.1,DQ,Eduardo Maury,Beaumont Ozen,82.1,,,,,Single-ply,SBD,M
Boys,82.1,DQ,Kylan Louis,Beaumont Ozen,82.1,,,,,Single-ply,SBD,M
Boys,82.1,DQ,Jose Estupinan,Beaumont Ozen,82.1,,,,,Single-ply,SBD,M
Boys,82.1,DQ,Alan Casper,Corrigan-Camden,82.1,,,,,Single-ply,SBD,M
Boys,89.81,1,Witt Dockens,Center,85.73,249.48,154.22,226.8,630.49,Single-ply,SBD,M
Boys,89.81,2,Treyvaun Crawford,Trinity,85.28,226.8,138.35,238.14,603.28,Single-ply,SBD,M
Boys,89.81,3,Austin Cartwright,Cleveland,89.36,231.33,127.01,238.14,596.47,Single-ply,SBD,M
Boys,89.81,4,Dakota Piper,Livingston,89.68,226.8,142.88,226.8,596.47,Single-ply,SBD,M
Boys,89.81,5,Sterling Winzor,Beaumont Ozen,85.73,210.92,140.61,240.4,591.94,Single-ply,SBD,M
Boys,89.81,6,Colton Maxey,Crosby,87.09,197.31,113.4,199.58,510.29,Single-ply,SBD,M
Boys,89.81,7,Caleb Butler,Huntsville,88.45,195.04,115.67,190.51,501.22,Single-ply,SBD,M
Boys,89.81,8,Jaeryn Green,Huntsville,83.73,179.17,117.93,201.85,498.95,Single-ply,SBD,M
Boys,89.81,9,Will Broussard,Livingston,83.91,192.78,97.52,208.65,498.95,Single-ply,SBD,M
Boys,89.81,10,Brice Sweppenhiser,New Caney Porter,84.37,165.56,97.52,174.63,437.72,Single-ply,SBD,M
Boys,89.81,11,Michael Espitia,New Caney Porter,83.91,158.76,108.86,163.29,430.91,Single-ply,SBD,M
Boys,89.81,12,Jacob Forsythe,Pollok Central,87.54,167.83,95.25,165.56,428.64,Single-ply,SBD,M
Boys,89.81,13,Jace Schrader,Shepherd,84.37,170.1,86.18,165.56,421.84,Single-ply,SBD,M
Boys,89.81,14,Angel Murillo,Shepherd,84.37,136.08,77.11,122.47,335.66,Single-ply,SBD,M
Boys,89.81,15,Ethan Neal,Pollok Central,88.9,111.13,58.97,138.35,308.44,Single-ply,SBD,M
Boys,89.81,16,Zachery Johnson,Shepherd,85,113.4,63.5,99.79,276.69,Single-ply,SBD,M
Boys,89.81,17,Dyllan Hicks,Shepherd,88.45,83.91,68.04,124.74,276.69,Single-ply,SBD,M
Boys,89.81,DQ,Dominic Napier,Pollok Central,89.81,147.42,102.06,,,Single-ply,SBD,M
Boys,89.81,DQ,Gary Carter,Crosby,85.28,,,,,Single-ply,SBD,M
Boys,89.81,DQ,Jonathan Dullen,New Caney Porter,89.81,,,,,Single-ply,SBD,M
Boys,89.81,DQ,Brodie Smith,Livingston,88.45,,,,,Single-ply,SBD,M
Boys,89.81,DQ,Jonathan Jones,Willis,89.81,,,,,Single-ply,SBD,M
Boys,89.81,DQ,Alex Vance,Corrigan-Camden,89.81,,,,,Single-ply,SBD,M
Boys,89.81,DQ,Alex Cuevas,Corrigan-Camden,89.81,,,,,Single-ply,SBD,M
Boys,99.79,1,Jaime Morales,Cleveland,90.26,244.94,127.01,251.74,623.69,Single-ply,SBD,M
Boys,99.79,2,Brandon Diaz,Crosby,94.8,226.8,147.42,229.06,603.28,Single-ply,SBD,M
Boys,99.79,3,Michael Taylor,Splendora,96.62,213.19,149.69,231.33,594.21,Single-ply,SBD,M
Boys,99.79,4,Christian Reza,Beaumont Ozen,95.25,226.8,136.08,215.46,578.33,Single-ply,SBD,M
Boys,99.79,5,Jorge Zumarraga,Willis,97.52,226.8,129.27,176.9,532.97,Single-ply,SBD,M
Boys,99.79,6,Camron Easley,New Caney Porter,94.8,163.29,145.15,217.72,526.17,Single-ply,SBD,M
Boys,99.79,7,Isaiah Garcia,Shepherd,93.44,192.78,106.59,192.78,492.15,Single-ply,SBD,M
Boys,99.79,8,Devorriay Anderson,Trinity,94.35,197.31,92.99,201.85,492.15,Single-ply,SBD,M
Boys,99.79,9,Giovanny Garcia,Trinity,99.79,192.78,113.4,183.7,489.88,Single-ply,SBD,M
Boys,99.79,10,Lane Hurley,Corrigan-Camden,97.98,165.56,70.31,151.95,387.82,Single-ply,SBD,M
Boys,99.79,DQ,Garrett King,Trinity,92.08,201.85,,,,Single-ply,SBD,M
Boys,99.79,DQ,Joe Thomas,Beaumont Ozen,99.79,,,,,Single-ply,SBD,M
Boys,99.79,DQ,John Kuhl,Willis,99.79,,,,,Single-ply,SBD,M
Boys,99.79,DQ,Tristan Cuevas,Corrigan-Camden,99.79,,,,,Single-ply,SBD,M
Boys,99.79,DQ,Logan Holloway,Center,99.79,,,,,Single-ply,SBD,M
Boys,109.77,1,Seth Mericle,Splendora,108.86,213.19,176.9,195.04,585.13,Single-ply,SBD,M
Boys,109.77,2,Brandon Phillips,Trinity,108.86,226.8,147.42,183.7,557.92,Single-ply,SBD,M
Boys,109.77,3,Chance Hodgikinson,New Caney Porter,101.15,229.06,129.27,195.04,553.38,Single-ply,SBD,M
Boys,109.77,4,Dillon Brooks,Huntsville,109.77,208.65,111.13,215.46,535.24,Single-ply,SBD,M
Boys,109.77,5,Jake Adams,Huntsville,109.32,206.38,122.47,204.12,532.97,Single-ply,SBD,M
Boys,109.77,6,Neeairus Withers,Beaumont Ozen,108.41,183.7,136.08,208.65,528.44,Single-ply,SBD,M
Boys,109.77,7,Luke Sterling,Crosby,102.06,195.04,117.93,204.12,517.1,Single-ply,SBD,M
Boys,109.77,8,Tyler Talavera,New Caney Porter,104.24,190.51,108.86,170.1,469.47,Single-ply,SBD,M
Boys,109.77,9,Mario Maldonado,Splendora,108.86,147.42,136.08,183.7,467.2,Single-ply,SBD,M
Boys,109.77,10,Patrick Charbonneau,Crosby,100.7,151.95,117.93,183.7,453.59,Single-ply,SBD,M
Boys,109.77,11,Trevor Hodge,Shepherd,104.33,138.35,74.84,138.35,351.53,Single-ply,SBD,M
Boys,109.77,12,Everardo Avalos,Splendora,101.15,142.88,74.84,117.93,335.66,Single-ply,SBD,M
Boys,109.77,DQ,Andrew Rhodes,Livingston,104.78,,,,,Single-ply,SBD,M
Boys,109.77,DQ,Jake Jones,Willis,109.77,,,,,Single-ply,SBD,M
Boys,109.77,DQ,Jace Mayfield,Willis,109.77,,,,,Single-ply,SBD,M
Boys,109.77,DQ,Jamar Hamilton,Crosby,109.77,,,,,Single-ply,SBD,M
Boys,109.77,DQ,Cameron Providence,New Caney Porter,109.77,,,,,Single-ply,SBD,M
Boys,124.74,1,Joseph Issac,Huntsville,124.74,254.01,176.9,249.48,680.39,Single-ply,SBD,M
Boys,124.74,2,Billy Dobbins,Livingston,118.39,235.87,133.81,206.38,576.06,Single-ply,SBD,M
Boys,124.74,3,Jason Vargas,Willis,119.29,238.14,127.01,204.12,569.26,Single-ply,SBD,M
Boys,124.74,4,CJ Knighton,Livingston,121.56,213.19,92.99,206.38,512.56,Single-ply,SBD,M
Boys,124.74,5,Clayton Martinez,Shepherd,111.13,199.58,90.72,201.85,492.15,Single-ply,SBD,M
Boys,124.74,6,Justin Capps,Shepherd,115.21,170.1,86.18,163.29,419.57,Single-ply,SBD,M
Boys,124.74,DQ,Kenneth Armstrong,Crosby,124.74,,,,,Single-ply,SBD,M
Boys,124.74,DQ,Caleb Johnson,New Caney Porter,124.74,,,,,Single-ply,SBD,M
Boys,124.74+,1,Terry Carter,Livingston,156.49,331.12,151.95,315.25,798.32,Single-ply,SBD,M
Boys,124.74+,2,Jimmy White,Willis,135.17,294.84,165.56,235.87,696.26,Single-ply,SBD,M
Boys,124.74+,3,Derrick Rigsby,Huntsville,146.06,265.35,147.42,213.19,625.96,Single-ply,SBD,M
Boys,124.74+,4,Jake Cox,Pollok Central,126.1,240.4,131.54,240.4,612.35,Single-ply,SBD,M
Boys,124.74+,5,David Mejia,Huntsville,127.46,244.94,154.22,206.38,605.55,Single-ply,SBD,M
Boys,124.74+,6,Jerome Harmon,Beaumont Ozen,127.91,226.8,136.08,215.46,578.33,Single-ply,SBD,M
Boys,124.74+,7,Danny Guajardo,Crosby,142.88,226.8,127.01,215.46,569.26,Single-ply,SBD,M
