Division,WeightClassKg,Place,Name,Team,BodyweightKg,Best3SquatKg,Best3BenchKg,Best3DeadliftKg,TotalKg,Equipment,Event,Sex
Boys,51.71,1,Manuel Rojas,Hallsville,51.26,117.93,83.91,129.27,331.12,Single-ply,SBD,M
Boys,55.79,1,Rone Ramirez,Carthage,55.79,163.29,108.86,167.83,439.98,Single-ply,SBD,M
Boys,67.13,1,Santos Estrada,Hallsville,66.9,154.22,106.59,158.76,419.57,Single-ply,SBD,M
Boys,67.13,2,Cody Stevenson,Hallsville,66.68,154.22,90.72,154.22,399.16,Single-ply,SBD,M
Boys,67.13,3,Christian Bean,Hallsville,65.32,124.74,97.52,170.1,392.36,Single-ply,SBD,M
Boys,67.13,4,Phillip Burns,Carthage,66.68,133.81,74.84,165.56,374.21,Single-ply,SBD,M
Boys,67.13,5,Lloyd Douglas,Texarkana Texas,65.32,129.27,97.52,124.74,351.53,Single-ply,SBD,M
Boys,74.84,1,David Patterson #4,Carthage,73.94,181.44,104.33,192.78,478.54,Single-ply,SBD,M
Boys,74.84,2,Jordan Liles,Texarkana Texas,74.39,149.69,111.13,161.03,421.84,Single-ply,SBD,M
Boys,74.84,3,Eric Ware,Carthage,68.49,136.08,97.52,156.49,390.09,Single-ply,SBD,M
Boys,74.84,4,Adam McKey,Hallsville,71.67,140.61,79.38,129.27,349.27,Single-ply,SBD,M
Boys,74.84,5,Tom Paolucci,Texarkana Texas,69.85,97.52,79.38,129.27,306.17,Single-ply,SBD,M
Boys,82.1,1,Jerry Roland,Hallsville,81.65,204.12,113.4,204.12,521.63,Single-ply,SBD,M
Boys,82.1,2,Hunter Holland,Carthage,80.29,176.9,92.99,199.58,469.47,Single-ply,SBD,M
Boys,82.1,3,Rontreal Rollins,Hallsville,77.11,181.44,97.52,185.97,464.93,Single-ply,SBD,M
Boys,82.1,4,Austin Teodorczyk,Hallsville,79.38,170.1,104.33,176.9,451.32,Single-ply,SBD,M
Boys,82.1,5,Clayton Moore,Carthage,76.66,149.69,97.52,185.97,433.18,Single-ply,SBD,M
Boys,82.1,6,Trey Carter,Hallsville,81.19,163.29,104.33,161.03,428.64,Single-ply,SBD,M
Boys,82.1,7,Anthony Burton,Texarkana Texas,79.83,149.69,113.4,149.69,412.77,Single-ply,SBD,M
Boys,82.1,8,Nick Young,Hallsville,78.47,142.88,95.25,158.76,396.89,Single-ply,SBD,M
Boys,82.1,9,Aaron Nelson,Carthage,79.83,145.15,92.99,147.42,385.55,Single-ply,SBD,M
Boys,89.81,1,Blake McCown,Texarkana Texas,89.81,204.12,127.01,217.72,548.85,Single-ply,SBD,M
Boys,89.81,2,Stephen Godwin,Hallsville,86.18,195.04,124.74,190.51,510.29,Single-ply,SBD,M
Boys,89.81,3,Keegan Haas,Texarkana Texas,85.28,174.63,122.47,204.12,501.22,Single-ply,SBD,M
Boys,89.81,4,Michael McCune,Carthage,87.09,176.9,104.33,208.65,489.88,Single-ply,SBD,M
Boys,89.81,5,John Sartor,Hallsville,89.81,174.63,106.59,204.12,485.34,Single-ply,SBD,M
Boys,89.81,6,Roderick Boyd,Hallsville,83.91,142.88,113.4,163.29,419.57,Single-ply,SBD,M
Boys,89.81,7,Josh Brown,Hallsville,84.82,149.69,95.25,174.63,419.57,Single-ply,SBD,M
Boys,89.81,8,Kade Post,Texarkana Texas,86.64,149.69,111.13,151.95,412.77,Single-ply,SBD,M
Boys,89.81,9,Alex Downing,Hallsville,86.64,136.08,108.86,151.95,396.89,Single-ply,SBD,M
Boys,89.81,10,James Davis,Hallsville,89.36,117.93,86.18,149.69,353.8,Single-ply,SBD,M
Boys,99.79,1,Clayton Godfrey,Texarkana Texas,94.35,204.12,136.08,204.12,544.31,Single-ply,SBD,M
Boys,99.79,2,Josh Bryant,Texarkana Texas,95.25,172.37,129.27,204.12,505.76,Single-ply,SBD,M
Boys,99.79,3,Tamaris Shepard,Carthage,91.17,142.88,113.4,154.22,410.5,Single-ply,SBD,M
Boys,99.79,4,Marco Jarmillo,Hallsville,93.44,145.15,106.59,156.49,408.23,Single-ply,SBD,M
Boys,99.79,5,Dylan Mercer,Carthage,92.53,140.61,92.99,158.76,392.36,Single-ply,SBD,M
Boys,99.79,6,Andrew Chirua,Texarkana Texas,90.72,142.88,90.72,131.54,365.14,Single-ply,SBD,M
Boys,109.77,1,Martines Manning,Texarkana Texas,108.86,192.78,136.08,181.44,510.29,Single-ply,SBD,M
Boys,109.77,2,Micah Stewart,Carthage,106.14,167.83,97.52,151.95,417.3,Single-ply,SBD,M
Boys,109.77,3,Ryan Ayers,Hallsville,103.87,149.69,92.99,163.29,405.97,Single-ply,SBD,M
Boys,109.77,4,Morgan Jeans,Carthage,100.7,142.88,90.72,154.22,387.82,Single-ply,SBD,M
Boys,109.77,5,Chris Turner,Hallsville,106.14,147.42,92.99,140.61,381.02,Single-ply,SBD,M
Boys,109.77,6,Mitchell Kinman,Carthage,104.33,136.08,79.38,161.03,376.48,Single-ply,SBD,M
Boys,124.74,1,Kyle Pack,Hallsville,119.29,231.33,138.35,183.7,553.38,Single-ply,SBD,M
Boys,124.74,2,Eric Stewart,Texarkana Texas,118.39,185.97,138.35,208.65,532.97,Single-ply,SBD,M
Boys,124.74,3,Chad Kelly,Carthage,112.49,204.12,117.93,185.97,508.02,Single-ply,SBD,M
Boys,124.74,4,Chris Jones,Texarkana Texas,114.31,176.9,127.01,170.1,474,Single-ply,SBD,M
Boys,124.74,5,Erick Davis,Hallsville,115.21,181.44,108.86,170.1,460.4,Single-ply,SBD,M
Boys,124.74,6,Alex Ellis,Texarkana Texas,112.04,172.37,97.52,170.1,439.98,Single-ply,SBD,M
Boys,124.74,7,Demetris Jefferson,Texarkana Texas,110.22,151.95,106.59,147.42,405.97,Single-ply,SBD,M
Boys,124.74+,1,Nick Lewis,Texarkana Texas,137.89,208.65,136.08,199.58,544.31,Single-ply,SBD,M
Boys,124.74+,2,Gary Freeman,Texarkana Texas,148.78,215.46,142.88,147.42,505.76,Single-ply,SBD,M
Boys,124.74+,3,Jacob Sloan,Carthage,129.27,208.65,115.67,176.9,501.22,Single-ply,SBD,M
Boys,124.74+,4,Mike Reed,Texarkana Texas,129.73,161.03,122.47,181.44,464.93,Single-ply,SBD,M
Boys,124.74+,5,Jonathon Hunt,Texarkana Texas,128.37,172.37,108.86,181.44,462.66,Single-ply,SBD,M
Boys,124.74+,6,Logan Sallee,Hallsville,138.35,167.83,104.33,158.76,430.91,Single-ply,SBD,M
Boys,124.74+,7,Elzie Hicks,Carthage,129.73,138.35,92.99,133.81,365.14,Single-ply,SBD,M
