Division,WeightClassKg,Place,Name,Team,BodyweightKg,Best3SquatKg,Best3BenchKg,Best3DeadliftKg,TotalKg,Equipment,Event,Sex
Boys,51.71,1,Joey Longoria,Pearsall,51.17,149.69,79.38,167.83,396.89,Single-ply,SBD,M
Boys,51.71,2,Alex Garcia,Cotulla,49.8,117.93,74.84,127.01,319.78,Single-ply,SBD,M
Boys,51.71,3,Ricardo Martinez,Pearsall,50.71,127.01,68.04,124.74,319.78,Single-ply,SBD,M
Boys,55.79,1,Tommy Huerta,Carrizo Springs,55.79,154.22,88.45,156.49,399.16,Single-ply,SBD,M
Boys,55.79,2,Ernesto Consuegra,Cotulla,53.52,127.01,72.57,145.15,344.73,Single-ply,SBD,M
Boys,59.87,1,Jerome Martinez,Cotulla,59.51,149.69,92.99,156.49,399.16,Single-ply,SBD,M
Boys,59.87,2,Cristian Martinez,Hondo,59.87,147.42,83.91,158.76,390.09,Single-ply,SBD,M
Boys,59.87,3,Christian Martinez,Cotulla,58.01,122.47,77.11,127.01,326.59,Single-ply,SBD,M
Boys,67.13,1,Jorge González,Cotulla,66.9,170.1,122.47,174.63,467.2,Single-ply,SBD,M
Boys,67.13,2,Brandon Martinez,Cotulla,65.86,142.88,61.23,142.88,347,Single-ply,SBD,M
Boys,67.13,3,Sonny Aldaco,Cotulla,64.86,133.81,79.38,129.27,342.46,Single-ply,SBD,M
Boys,67.13,4,Javier Sanchez,Cotulla,67.13,95.25,61.23,111.13,267.62,Single-ply,SBD,M
Boys,74.84,1,Eden Fuentes,Pearsall,74.75,192.78,104.33,208.65,505.76,Single-ply,SBD,M
Boys,74.84,2,Joey Trujillo,Carrizo Springs,74.03,176.9,99.79,199.58,476.27,Single-ply,SBD,M
Boys,74.84,3,Gabriel Martinez,Pearsall,70.31,183.7,86.18,199.58,469.47,Single-ply,SBD,M
Boys,74.84,4,Jose Uretta,Carrizo Springs,69.49,156.49,79.38,199.58,435.45,Single-ply,SBD,M
Boys,74.84,5,Reagan Leone,Cotulla,73.53,156.49,99.79,165.56,421.84,Single-ply,SBD,M
Boys,74.84,6,Darren Thomas,Cotulla,73.84,149.69,83.91,163.29,396.89,Single-ply,SBD,M
Boys,74.84,7,Ulrich Kalthoff,Pearsall,74.57,142.88,95.25,151.95,390.09,Single-ply,SBD,M
Boys,74.84,8,Alex Martinez,Charlotte,73.39,138.35,97.52,136.08,371.95,Single-ply,SBD,M
Boys,74.84,9,Osric Tellez,Cotulla,73.84,145.15,83.91,142.88,371.95,Single-ply,SBD,M
Boys,74.84,10,Chris Gonzalez,Charlotte,70.76,106.59,79.38,170.1,356.07,Single-ply,SBD,M
Boys,82.1,1,Giovanni Mendez,Cotulla,81.47,226.8,145.15,199.58,571.53,Single-ply,SBD,M
Boys,82.1,2,Ray Leal,Pearsall,79.65,176.9,95.25,210.92,483.08,Single-ply,SBD,M
Boys,82.1,3,Damian Longoria,Pearsall,77.66,151.95,99.79,204.12,455.86,Single-ply,SBD,M
Boys,82.1,4,Brandon Sanchez,Charlotte,78.56,154.22,92.99,161.03,408.23,Single-ply,SBD,M
Boys,89.81,1,Josiah Marquez,Pearsall,86.82,251.74,122.47,235.87,610.08,Single-ply,SBD,M
Boys,89.81,2,Giovanni Narvaiz,Cotulla,86.73,244.94,129.27,204.12,578.33,Single-ply,SBD,M
Boys,89.81,3,Eli Gonzalez,Cotulla,89.58,215.46,124.74,170.1,510.29,Single-ply,SBD,M
Boys,89.81,4,Eric Ortega,Cotulla,86.27,188.24,104.33,183.7,476.27,Single-ply,SBD,M
Boys,89.81,5,Carlos Valles,Cotulla,88,147.42,83.91,149.69,381.02,Single-ply,SBD,M
Boys,89.81,6,Felipe Cuellar,Hondo,83.73,111.13,83.91,127.01,322.05,Single-ply,SBD,M
Boys,99.79,1,Joseph Martinez,Cotulla,98.66,263.08,147.42,235.87,646.37,Single-ply,SBD,M
Boys,99.79,2,Andrew Velasquez,Cotulla,99.79,197.31,142.88,185.97,526.17,Single-ply,SBD,M
Boys,99.79,3,AJ Rodriguez,Carrizo Springs,99.61,210.92,104.33,206.38,521.63,Single-ply,SBD,M
Boys,99.79,4,Julio Martinez,Cotulla,99.56,197.31,115.67,170.1,483.08,Single-ply,SBD,M
Boys,99.79,5,Joshua Galvan,Pearsall,95.8,188.24,113.4,176.9,478.54,Single-ply,SBD,M
Boys,99.79,6,Matt Garcia,Charlotte,97.79,142.88,97.52,181.44,421.84,Single-ply,SBD,M
Boys,99.79,DQ,Miguel Quientero,Charlotte,99.79,,,,,Single-ply,SBD,M
Boys,99.79,DQ,Brandon Rivas,Pearsall,97.16,151.95,,,,Single-ply,SBD,M
Boys,109.77,1,Phillip Valles,Carrizo Springs,104.78,185.97,106.59,201.85,494.42,Single-ply,SBD,M
Boys,109.77,2,Blayde Martinez,Cotulla,106.59,195.04,108.86,172.37,476.27,Single-ply,SBD,M
Boys,109.77,3,Jabez Madrano,Pearsall,108.41,172.37,99.79,167.83,439.98,Single-ply,SBD,M
Boys,124.74,1,Baldomero Ortega,Cotulla,122.92,263.08,131.54,263.08,657.71,Single-ply,SBD,M
Boys,124.74,2,Kollin Meeks,Pearsall,111.13,242.67,117.93,199.58,560.19,Single-ply,SBD,M
Boys,124.74,3,Francisco Hinojosa,Cotulla,111.31,142.88,95.25,167.83,405.97,Single-ply,SBD,M
Boys,124.74,4,Drevan Anzaldua,Cotulla,118.84,113.4,58.97,104.33,276.69,Single-ply,SBD,M
Boys,124.74+,1,Enrique Paredes,Cotulla,219.09,233.6,183.7,229.06,646.37,Single-ply,SBD,M
Boys,124.74+,2,Miguel Vallejo,Charlotte,171,142.88,122.47,181.44,446.79,Single-ply,SBD,M
Boys,124.74+,3,Matthew Velasquez,Carrizo Springs,135.99,170.1,102.06,154.22,426.38,Single-ply,SBD,M
