Division,WeightClassKg,Place,Name,Team,BodyweightKg,Best3SquatKg,Best3BenchKg,Best3DeadliftKg,TotalKg,Equipment,Event,Sex
Boys,51.71,1,Juan Trejo,Friona,51.71,181.44,79.38,167.83,428.64,Single-ply,SBD,M
Boys,51.71,2,Nathan Flores,Friona,51.26,127.01,63.5,149.69,340.19,Single-ply,SBD,M
Boys,51.71,3,Isaiah Reyes,Plainview,50.35,124.74,70.31,140.61,335.66,Single-ply,SBD,M
Boys,51.71,4,Germain Casares,Sunray,50.8,115.67,61.23,142.88,319.78,Single-ply,SBD,M
Boys,,NS,Caden Rocha,Panhandle,,,,,,Single-ply,SBD,M
Boys,55.79,1,Avery Gallegos,Plainview,53.52,136.08,79.38,149.69,365.14,Single-ply,SBD,M
Boys,55.79,2,Bryan Ordaz,Dumas,55.34,122.47,83.91,136.08,342.46,Single-ply,SBD,M
Boys,55.79,3,Cesar Ramirez,Perryton,54.98,122.47,70.31,131.54,324.32,Single-ply,SBD,M
Boys,55.79,4,Angel Carranza,Friona,53.52,115.67,72.57,131.54,319.78,Single-ply,SBD,M
Boys,55.79,5,Nathan Urioste,Canyon Randall,55.34,120.2,74.84,124.74,319.78,Single-ply,SBD,M
Boys,55.79,6,Jett Bradford,Panhandle,55.79,113.4,58.97,113.4,285.76,Single-ply,SBD,M
Boys,59.87,1,Cysco Barrera,Plainview,59.87,163.29,81.65,181.44,426.38,Single-ply,SBD,M
Boys,59.87,2,Ryan Garcia,Ralls,59.87,163.29,77.11,165.56,405.97,Single-ply,SBD,M
Boys,59.87,3,Damien Mendoza,Dumas,59.42,147.42,86.18,165.56,399.16,Single-ply,SBD,M
Boys,59.87,4,Alex Castellanos,Sunray,57.61,142.88,83.91,149.69,376.48,Single-ply,SBD,M
Boys,59.87,5,Corbin Byrd,Dalhart,59.1,147.42,92.99,136.08,376.48,Single-ply,SBD,M
Boys,59.87,6,Ben Pulliam,Panhandle,59.42,151.95,74.84,149.69,376.48,Single-ply,SBD,M
Boys,59.87,7,Skyler Steen,Plainview,58.97,147.42,68.04,158.76,374.21,Single-ply,SBD,M
Boys,59.87,8,Uriel Ibanez,Dumas,59.87,122.47,77.11,149.69,349.27,Single-ply,SBD,M
Boys,59.87,9,Max Foster,Canyon Randall,59.42,115.67,79.38,145.15,340.19,Single-ply,SBD,M
Boys,59.87,10,Ty Gouldy,Vega,58.51,124.74,56.7,122.47,303.91,Single-ply,SBD,M
Boys,67.13,1,Robert Zavala,Ralls,67.13,206.38,124.74,204.12,535.24,Single-ply,SBD,M
Boys,67.13,2,Evan Judd,Dumas,65.32,192.78,104.33,183.7,480.81,Single-ply,SBD,M
Boys,67.13,3,Jeremiah Diaz,Friona,65.77,192.78,97.52,181.44,471.74,Single-ply,SBD,M
Boys,67.13,4,Faustino Lopez,Plainview,67.13,176.9,106.59,185.97,469.47,Single-ply,SBD,M
Boys,67.13,5,Kade Tinsley,Bushland,66.22,158.76,88.45,188.24,435.45,Single-ply,SBD,M
Boys,67.13,6,Walker Voyles,Vega,66.22,156.49,88.45,181.44,426.38,Single-ply,SBD,M
Boys,67.13,7,Khup Thang,Dumas,66.22,154.22,102.06,163.29,419.57,Single-ply,SBD,M
Boys,67.13,8,Brady Tiemann,Vega,66.22,161.03,86.18,167.83,415.04,Single-ply,SBD,M
Boys,67.13,9,Stewart Skiles,Vega,66.22,165.56,79.38,167.83,412.77,Single-ply,SBD,M
Boys,67.13,10,Riley Tiemann,Vega,66.68,161.03,74.84,165.56,401.43,Single-ply,SBD,M
Boys,67.13,11,Erick Gaspar,Sunray,60.78,129.27,72.57,170.1,371.95,Single-ply,SBD,M
Boys,67.13,12,Ariel Delacerta,Ralls,65.32,147.42,70.31,154.22,371.95,Single-ply,SBD,M
Boys,67.13,13,Christian Valesquez,Ralls,63.05,127.01,74.84,158.76,360.61,Single-ply,SBD,M
Boys,67.13,14,Josh Pavez,Panhandle,63.96,131.54,74.84,131.54,337.93,Single-ply,SBD,M
Boys,67.13,15,Juan Salinas,Friona,62.14,113.4,58.97,120.2,292.57,Single-ply,SBD,M
Boys,67.13,16,Aaron Salinas,Friona,63.5,117.93,56.7,115.67,290.3,Single-ply,SBD,M
Boys,74.84,1,Dagan Barella,Plainview,72.12,210.92,127.01,206.38,544.31,Single-ply,SBD,M
Boys,74.84,2,Gus Garcia,Plainview,74.39,204.12,124.74,204.12,532.97,Single-ply,SBD,M
Boys,74.84,3,Timothy Dettle,Dalhart,74.12,181.44,106.59,195.04,483.08,Single-ply,SBD,M
Boys,74.84,4,Joseph Raissez,Perryton,73.12,185.97,92.99,197.31,476.27,Single-ply,SBD,M
Boys,74.84,5,Jahir Romero,Perryton,72.48,156.49,108.86,195.04,460.4,Single-ply,SBD,M
Boys,74.84,6,Josh Prather,Panhandle,72.57,185.97,92.99,172.37,451.32,Single-ply,SBD,M
Boys,74.84,7,Carter Neil,Panhandle,68.95,174.63,92.99,174.63,442.25,Single-ply,SBD,M
Boys,74.84,8,Damien Gonzalez,Perryton,74.3,161.03,104.33,174.63,439.98,Single-ply,SBD,M
Boys,74.84,9,Jacob Mares,Dumas,69.4,172.37,97.52,167.83,437.72,Single-ply,SBD,M
Boys,74.84,10,Caleb Suggs,Dumas,72.57,163.29,95.25,170.1,428.64,Single-ply,SBD,M
Boys,74.84,11,Steven Salazar,Ralls,67.59,154.22,86.18,176.9,417.3,Single-ply,SBD,M
Boys,74.84,12,Cristian González,Vega,70.31,170.1,86.18,158.76,415.04,Single-ply,SBD,M
Boys,74.84,13,Paul Ortiz,Sunray,73.03,136.08,68.04,172.37,376.48,Single-ply,SBD,M
Boys,74.84,14,Tommy Espino,Sunray,68.49,129.27,86.18,156.49,371.95,Single-ply,SBD,M
Boys,74.84,15,Christopher Coffee,Panhandle,73.94,147.42,70.31,149.69,367.41,Single-ply,SBD,M
Boys,74.84,16,Kayden Lamineck,Ralls,73.48,124.74,86.18,151.95,362.87,Single-ply,SBD,M
Boys,74.84,17,Kevin Lucatero,Friona,69.4,117.93,72.57,149.69,340.19,Single-ply,SBD,M
Boys,74.84,18,Gus Shirley,Sunray,74.84,111.13,65.77,124.74,301.64,Single-ply,SBD,M
Boys,,NS,Jerry Flores,Ralls,,,,,,Single-ply,SBD,M
Boys,82.1,1,Davin Gates,Dumas,81.65,226.8,133.81,213.19,573.79,Single-ply,SBD,M
Boys,82.1,2,Brody Williams,Sanford-Fritch,77.56,240.4,124.74,183.7,548.85,Single-ply,SBD,M
Boys,82.1,3,Kaleb Salazar,Ralls,82.1,204.12,108.86,210.92,523.9,Single-ply,SBD,M
Boys,82.1,4,Usbaldo Zarate,Dalhart,78.15,195.04,117.93,199.58,512.56,Single-ply,SBD,M
Boys,82.1,5,Petey Martiinez,Perryton,81.19,185.97,111.13,204.12,501.22,Single-ply,SBD,M
Boys,82.1,6,Ben Dunalp,Canyon Randall,82.1,167.83,127.01,201.85,496.68,Single-ply,SBD,M
Boys,82.1,7,Sergio Salinas,Ralls,81.19,197.31,102.06,192.78,492.15,Single-ply,SBD,M
Boys,82.1,8,Roger Palacios,Friona,77.56,192.78,102.06,170.1,464.93,Single-ply,SBD,M
Boys,82.1,9,Roice Marquez,Dalhart,80.74,142.88,72.57,158.76,374.21,Single-ply,SBD,M
Boys,82.1,10,Vance Vyoral,Perryton,81.65,131.54,79.38,158.76,369.68,Single-ply,SBD,M
Boys,82.1,11,Grayson Davis,Panhandle,77.56,142.88,58.97,122.47,324.32,Single-ply,SBD,M
Boys,82.1,12,Hayden Forbes,Panhandle,79.83,113.4,68.04,122.47,303.91,Single-ply,SBD,M
Boys,,NS,Logan Terrel,Bushland,,,,,,Single-ply,SBD,M
Boys,,NS,Matthew Dimas,Friona,,,,,,Single-ply,SBD,M
Boys,,NS,Angel Hernandez,Friona,,,,,,Single-ply,SBD,M
Boys,82.1,DQ,Griffin Fields,Panhandle,77.11,181.44,,,,Single-ply,SBD,M
Boys,89.81,1,Robert Herndon,Perryton,89.27,283.5,156.49,244.94,684.92,Single-ply,SBD,M
Boys,89.81,2,Caleb Frausto,Canyon Randall,84.82,213.19,172.37,217.72,603.28,Single-ply,SBD,M
Boys,89.81,3,Sergio Marquez,Plainview,87.09,213.19,122.47,206.38,542.04,Single-ply,SBD,M
Boys,89.81,4,Alonso Tarango,Perryton,88.54,217.72,136.08,181.44,535.24,Single-ply,SBD,M
Boys,89.81,5,Edgar Olvera,Dalhart,87.72,208.65,117.93,199.58,526.17,Single-ply,SBD,M
Boys,89.81,6,Anthony Aguilera,Dalhart,86.18,188.24,117.93,210.92,517.1,Single-ply,SBD,M
Boys,89.81,7,Preston Love,Bushland,88.9,195.04,113.4,192.78,501.22,Single-ply,SBD,M
Boys,89.81,8,Gavin Groll,Dalhart,87.54,181.44,102.06,158.76,442.25,Single-ply,SBD,M
Boys,89.81,9,Cash Page,Canyon,83.91,131.54,102.06,192.78,426.38,Single-ply,SBD,M
Boys,89.81,10,Casen Jones,Panhandle,83.91,158.76,99.79,147.42,405.97,Single-ply,SBD,M
Boys,89.81,11,Cooper Sherrill,Dalhart,86.32,140.61,99.79,158.76,399.16,Single-ply,SBD,M
Boys,89.81,12,Anthony Abarca,Friona,83.01,120.2,58.97,136.08,315.25,Single-ply,SBD,M
Boys,,NS,Andrew Santiago,Canyon Randall,,,,,,Single-ply,SBD,M
Boys,99.79,1,Karlo Sanchez,Dumas,98.88,235.87,142.88,213.19,591.94,Single-ply,SBD,M
Boys,99.79,2,D'Shae Casias,Plainview,99.34,244.94,131.54,215.46,591.94,Single-ply,SBD,M
Boys,99.79,3,Ariel Jaramillo,Friona,97.52,222.26,142.88,215.46,580.6,Single-ply,SBD,M
Boys,99.79,4,Jesus Jaramillo,Friona,98.43,219.99,142.88,208.65,571.53,Single-ply,SBD,M
Boys,99.79,5,Andrew Rodriquez,Bushland,99.34,197.31,120.2,197.31,514.83,Single-ply,SBD,M
Boys,99.79,5,Shane Whitworth,Canyon,99.34,208.65,129.27,197.31,535.24,Single-ply,SBD,M
Boys,99.79,6,Frey Diaz,Sunray,95.25,197.31,124.74,195.04,517.1,Single-ply,SBD,M
Boys,99.79,7,Wyatt Packebush,Sunray,92.53,183.7,92.99,197.31,474,Single-ply,SBD,M
Boys,99.79,8,Cade Hood,Vega,97.07,161.03,83.91,158.76,403.7,Single-ply,SBD,M
Boys,99.79,9,Armando Trujillo,Vega,93.89,138.35,88.45,158.76,385.55,Single-ply,SBD,M
Boys,,NS,Elias Martinez,Ralls,,,,,,Single-ply,SBD,M
Boys,,NS,Gaven Nazario,Clarendon,,,,,,Single-ply,SBD,M
Boys,109.77,1,Adrian Ramirez,Plainview,106.14,244.94,154.22,226.8,625.96,Single-ply,SBD,M
Boys,109.77,2,Chris Delatorre,Dumas,102.97,233.6,142.88,208.65,585.13,Single-ply,SBD,M
Boys,109.77,3,Miguel Celis,Perryton,109.77,226.8,136.08,195.04,557.92,Single-ply,SBD,M
Boys,109.77,4,Yostin Villagomez,Dalhart,103.87,190.51,145.15,204.12,539.77,Single-ply,SBD,M
Boys,109.77,6,Luke Osuna,Dalhart,109.41,192.78,117.93,188.24,498.95,Single-ply,SBD,M
Boys,109.77,7,Jose Rosales,Perryton,108.95,176.9,111.13,192.78,480.81,Single-ply,SBD,M
Boys,109.77,8,Jacob Bartlett,Ralls,105.23,172.37,95.25,181.44,449.06,Single-ply,SBD,M
Boys,109.77,9,Nash Stewart,Perryton,109.77,165.56,99.79,161.03,426.38,Single-ply,SBD,M
Boys,109.77,DQ,Alex Montes,Friona,104.33,170.1,90.72,,,Single-ply,SBD,M
Boys,124.74,1,Yordi Hernandez,Perryton,123.92,299.37,161.03,238.14,698.53,Single-ply,SBD,M
Boys,124.74,2,Bryan Martinez,Plainview,112.04,263.08,165.56,217.72,646.37,Single-ply,SBD,M
Boys,124.74,3,Gus Jameson,Dalhart,119.98,226.8,124.74,217.72,569.26,Single-ply,SBD,M
Boys,124.74,4,Cody Mays,Vega,117.03,215.46,120.2,210.92,546.58,Single-ply,SBD,M
Boys,124.74,5,JJ Jesus Martinez,Dumas,112.94,176.9,104.33,163.29,444.52,Single-ply,SBD,M
Boys,124.74,6,Jake Padilla,Friona,113.4,163.29,90.72,170.1,424.11,Single-ply,SBD,M
Boys,124.74,7,Bryan Polina,Sunray,123.83,170.1,88.45,161.03,419.57,Single-ply,SBD,M
Boys,124.74,DQ,Eddie-Rey Ortega,Sunray,121.11,185.97,,,,Single-ply,SBD,M
Boys,,NS,Vincent Vaquera,Clarendon,,,,,,Single-ply,SBD,M
Boys,124.74+,1,Jaden Massey,Dalhart,154.36,294.84,199.58,231.33,725.75,Single-ply,SBD,M
Boys,124.74+,2,Omar Hernandez,Dumas,125.65,240.4,181.44,215.46,637.3,Single-ply,SBD,M
Boys,124.74+,3,Jackson Kuehler,Panhandle,126.55,138.35,95.25,147.42,381.02,Single-ply,SBD,M
