Place,Sex,Name,Event,Division,WeightClassKg,Equipment,State,BodyweightKg,Squat1Kg,Squat2Kg,Squat3Kg,Best3SquatKg,Bench1Kg,Bench2Kg,Bench3Kg,Best3BenchKg,Deadlift1Kg,Deadlift2Kg,Deadlift3Kg,Best3DeadliftKg,TotalKg,BirthYear
DQ,M,David Zavecz,D,MR-O,66,Raw,CA,65,,,,,,,,,-185,-192.5,-192.5,,,1986
1,F,Christina Braxmeyer,D,FR-M1b,72,Raw,CA,68.7,,,,,,,,,55,65,72.5,72.5,72.5,1965
1,M,Lester Philip Nolasco,SBD,MR-Jr,53,Raw,CA,52,95,100,105,105,62.5,67.5,72.5,72.5,127.5,137.5,142.5,142.5,320,1994
1,M,Phong Tran,SBD,MR-Jr,66,Raw,CA,64.7,165,170,175,175,110,-112.5,-112.5,110,210,217.5,-220,217.5,502.5,1994
2,M,Owen Baclig,SBD,MR-Jr,66,Raw,CA,64.5,160,165,172.5,172.5,115,117.5,120,120,175,187.5,192.5,192.5,485,1995
1,M,Vincent Keomoungkhoune,SBD,MR-Jr,74,Raw,HI,72.2,152.5,160,167.5,167.5,102.5,105,110,110,182.5,192.5,200,200,477.5,1991
1,M,Adrian Zackery,SBD,MR-Jr,83,Raw,CA,76.9,185,205,-210,205,115,125,-130,125,-250,265,-272.5,265,595,1989
1,M,Brent Appleton,SBD,MR-M1a,83,Raw,CA,81.9,160,172.5,182.5,182.5,112.5,120,-125,120,185,200,210,210,512.5,1973
DQ,M,Craig Byrnes,SBD,MR-M1b,66,Raw,CA,62.5,-60,-60,-60,,95,-97.5,-97.5,95,,,,,,1962
1,M,Michael Purugganan,SBD,MR-O,59,Raw,CA,58.6,112.5,120,130,130,70,80,-87.5,80,115,125,140,140,350,1987
2,M,Lester Philip Nolasco,SBD,MR-O,59,Raw,CA,52,95,100,105,105,62.5,67.5,72.5,72.5,127.5,137.5,142.5,142.5,320,1994
1,M,Audi Claros,SBD,MR-O,66,Raw,CA,64.4,157.5,160,-165,160,-110,-112.5,112.5,112.5,207.5,215,220,220,492.5,1979
1,M,Mark Tarantino,SBD,MR-O,74,Raw,CA,72.2,160,167.5,172.5,172.5,102.5,107.5,-110,107.5,177.5,182.5,190,190,470,1985
2,M,Tim Lee,SBD,MR-O,74,Raw,CA,73.9,145,155,160,160,75,80,-85,80,167.5,182.5,190,190,430,1987
DQ,M,Daniel García,SBD,MR-O,74,Raw,CA,73,152.5,162.5,-167.5,162.5,-125,-125,-125,,,,,,,1984
1,M,Peter Le,SBD,MR-O,83,Raw,CA,82.8,170,190,200,200,157.5,172.5,-182.5,172.5,220,250,260,260,632.5,1997
2,M,Ellison Amponin,SBD,MR-O,83,Raw,CA,79.7,187.5,200,212.5,212.5,110,125,137.5,137.5,232.5,252.5,-272.5,252.5,602.5,1988
3,M,Jamil Sabbagh,SBD,MR-O,83,Raw,CA,76.3,190,202.5,-210,202.5,130,-140,142.5,142.5,205,222.5,227.5,227.5,572.5,1992
4,M,Daniel Vaccaro,SBD,MR-O,83,Raw,CA,81.2,195,205,215,215,125,-135,-140,125,230,-250,-250,230,570,1990
5,M,Brent Appleton,SBD,MR-O,83,Raw,CA,81.9,160,172.5,182.5,182.5,112.5,120,-125,120,185,200,210,210,512.5,1973
6,M,Noah Morrison,SBD,MR-O,83,Raw,CA,76.7,142.5,147.5,-152.5,147.5,107.5,-112.5,-112.5,107.5,185,-200,200,200,455,1985
1,M,Jared Policastro,SBD,MR-O,93,Raw,CA,90.5,185,200,207.5,207.5,142.5,155,162.5,162.5,200,215,227.5,227.5,597.5,1983
2,M,Jordan Moser,SBD,MR-O,93,Raw,CA,90.8,182.5,192.5,200,200,100,110,122.5,122.5,182.5,195,215,215,537.5,1984
3,M,Enrique Medrano,SBD,MR-O,93,Raw,CA,90.5,170,-182.5,185,185,105,115,122.5,122.5,182.5,200,217.5,217.5,525,1982
4,M,Travis Pinto,SBD,MR-O,93,Raw,CA,91.5,142.5,160,167.5,167.5,105,115,-122.5,115,172.5,180,185,185,467.5,1980
5,M,Keith Brokaw,SBD,MR-O,93,Raw,CA,87.2,147.5,157.5,-165,157.5,102.5,110,115,115,185,192.5,-200,192.5,465,1986
6,M,David Valente,SBD,MR-O,93,Raw,CA,91.9,125,-137.5,-142.5,125,100,107.5,-115,107.5,170,182.5,-192.5,182.5,415,1977
1,M,Phuc Nguyen,SBD,MR-O,105,Raw,CA,101.8,170,-180,182.5,182.5,90,100,-105,100,170,185,192.5,192.5,475,1980
1,M,George Georggin,SBD,MR-O,120,Raw,CA,106.8,125,142.5,160,160,85,102.5,112.5,112.5,185,200,210,210,482.5,1978
1,M,Nicholas Brooks,SBD,MR-T3,83,Raw,AR,79.2,185,-190,195,195,-130,-135,135,135,195,205,215,215,545,1993
1,M,Josh Haber,SBD,MR-T3,120,Raw,CA,119.3,237.5,245,252.5,252.5,150,157.5,167.5,167.5,237.5,247.5,-257.5,247.5,667.5,1996
1,M,Callen O'Mahony,SBD,MR-Y2,40,Raw,CA,40,12.5,20,25,25,7.5,15,-32.5,15,27.5,37.5,47.5,47.5,87.5,2001
1,M,Payton Parkes,SBD,MR-Y3,40,Raw,CA,35.9,40,52.5,-60,52.5,30,37.5,-40,37.5,65,80,-85,80,170,2004
1,M,Alton Parkes,SBD,MR-Y3,48,Raw,CA,46.2,62.5,70,-72.5,70,40,47.5,50,50,72.5,82.5,-85,82.5,202.5,2003
1,F,Alejandra Moedano,SBD,FR-Jr,84,Raw,CA,80.6,92.5,100,102.5,102.5,55,60,62.5,62.5,127.5,135,142.5,142.5,307.5,1994
1,F,Deanne Barsi,SBD,FR-M1b,84,Raw,CA,75.3,102.5,107.5,110,110,55,60,65,65,130,137.5,-140,137.5,312.5,1970
1,F,Devin Luu,SBD,FR-O,52,Raw,CA,50.8,77.5,82.5,87.5,87.5,42.5,47.5,-50,47.5,82.5,-87.5,87.5,87.5,222.5,1986
1,F,Charisse Gallibu,SBD,FR-O,57,Raw,CA,56.3,95,102.5,105,105,47.5,-52.5,52.5,52.5,127.5,137.5,-147.5,137.5,295,1987
2,F,Cheree Lovell,SBD,FR-O,57,Raw,CA,54.9,97.5,105,115,115,52.5,57.5,-60,57.5,100,107.5,115,115,287.5,1972
1,F,Melis Papila,SBD,FR-O,63,Raw,CA,62.1,110,115,117.5,117.5,57.5,62.5,-65,62.5,135,-142.5,-145,135,315,1988
2,F,Trish DaCosta,SBD,FR-O,63,Raw,CA,61.4,70,75,82.5,82.5,37.5,42.5,-47.5,42.5,85,92.5,97.5,97.5,222.5,1981
1,F,Monica Medrano,SBD,FR-O,72,Raw,CA,70.5,97.5,105,110,110,57.5,62.5,65,65,132.5,142.5,150,150,325,1981
2,F,Jacqueline Policastro,SBD,FR-O,72,Raw,CA,71.7,87.5,102.5,110,110,45,55,-60,55,102.5,112.5,117.5,117.5,282.5,1984
3,F,Nicole Sanders,SBD,FR-O,72,Raw,CA,64.7,80,90,100,100,52.5,60,65,65,80,92.5,105,105,270,1983
1,F,Laura Leech,SBD,FR-O,84,Raw,CA,80.2,-30,30,32.5,32.5,25,27.5,-30,27.5,70,75,85,85,145,1977
1,F,Bryana Washington,SBD,FR-T1,72,Raw,CA,64.7,87.5,95,100,100,50,57.5,60,60,112.5,125,130,130,290,2001
1,F,Alexandra Washington,SBD,FR-T1,84,Raw,CA,81.2,75,80,87.5,87.5,40,45,-52.5,45,97.5,107.5,117.5,117.5,250,2002
1,F,Mikaela Gilmore,SBD,FR-Y1,30,Raw,CA,29.2,15,20,25,25,12.5,15,17.5,17.5,20,25,27.5,27.5,70,2003
2,F,BrieAnne Dollick,SBD,FR-Y1,30,Raw,CA,27.1,10,15,20,20,10,12.5,-15,12.5,20,25,27.5,27.5,60,2007
1,F,Isabella Familia,SBD,FR-Y1,35,Raw,CA,30.6,12.5,17.5,-22.5,17.5,7.5,10,15,15,15,22.5,27.5,27.5,60,2005
1,F,Toni Apodaca,SBD,FR-Y1,47,Raw,CA,44.1,10,15,20,20,12.5,15,17.5,17.5,20,25,27.5,27.5,65,2003
1,F,Gabriella Hernandez,SBD,FR-Y3,35,Raw,CA,34.6,10,15,-17.5,15,7.5,12.5,-17.5,12.5,20,30,35,35,62.5,2000
1,F,Eustazia Lindemood,SBD,FR-Y3,63,Raw,CA,60.1,32.5,35,37.5,37.5,25,30,35,35,47.5,60,62.5,62.5,135,2003
1,M,Chris Scott,BD,MR-O,105,Raw,CA,96.2,,,,,135,147.5,150,150,215,227.5,232.5,232.5,382.5,1980
