Division,WeightClassKg,Place,Name,Team,BodyweightKg,Best3SquatKg,Best3BenchKg,Best3DeadliftKg,TotalKg,Equipment,Event,Sex
Boys,51.71,1,Andrew Luna,Perryton,51.62,127.01,65.77,127.01,319.78,Single-ply,SBD,M
Boys,51.71,2,Avery Gallegos,Plainview,49.9,122.47,63.5,124.74,310.71,Single-ply,SBD,M
Boys,51.71,3,Preston Mann,Amarillo Highland Park,50.89,104.33,61.23,113.4,278.96,Single-ply,SBD,M
Boys,51.71,4,Jordyn Hays,Panhandle,47.45,70.31,38.56,65.77,174.63,Single-ply,SBD,M
Boys,55.79,1,Kevin Nguyen #8,Amarillo Highland Park,55.25,154.22,77.11,154.22,385.55,Single-ply,SBD,M
Boys,55.79,2,Billy Lee,Amarillo Highland Park,55.52,131.54,79.38,136.08,347,Single-ply,SBD,M
Boys,55.79,3,Bryan Nguyen,Amarillo Highland Park,55.52,131.54,68.04,142.88,342.46,Single-ply,SBD,M
Boys,55.79,4,Sergio Romero,Childress,55.52,113.4,61.23,138.35,312.98,Single-ply,SBD,M
Boys,59.87,1,Kevin Phan,Plainview,59.33,158.76,81.65,158.76,399.16,Single-ply,SBD,M
Boys,59.87,2,Dawson Hackett,Panhandle,59.06,142.88,77.11,154.22,374.21,Single-ply,SBD,M
Boys,59.87,3,Joseph Jenkins,Perryton,59.87,136.08,90.72,147.42,374.21,Single-ply,SBD,M
Boys,59.87,4,Ceasar Luther,Perryton,59.24,129.27,86.18,136.08,351.53,Single-ply,SBD,M
Boys,59.87,5,Ryan McClesky,Clarendon,59.87,120.2,72.57,145.15,337.93,Single-ply,SBD,M
Boys,59.87,6,Dalton Benson,Clarendon,58.15,115.67,68.04,136.08,319.78,Single-ply,SBD,M
Boys,59.87,7,Thane Adams,Panhandle,59.87,108.86,63.5,95.25,267.62,Single-ply,SBD,M
Boys,59.87,8,Ben Pulliam,Panhandle,56.15,92.99,49.9,106.59,249.48,Single-ply,SBD,M
Boys,59.87,DQ,Evan Judd,Dumas,59.33,,,,,Single-ply,SBD,M
Boys,59.87,DQ,Cysco Barrera,Plainview,57.15,154.22,77.11,,,Single-ply,SBD,M
Boys,67.13,1,Christian Maldonado,Canyon Randall,64.5,197.31,129.27,185.97,512.56,Single-ply,SBD,M
Boys,67.13,2,Alex Lugo,Perryton,66.77,185.97,111.13,185.97,483.08,Single-ply,SBD,M
Boys,67.13,3,Cody Castor,Childress,66.86,167.83,104.33,161.03,433.18,Single-ply,SBD,M
Boys,67.13,4,Gus Garcia,Plainview,62.69,165.56,99.79,158.76,424.11,Single-ply,SBD,M
Boys,67.13,5,Zach Walser,Canyon Randall,66.59,161.03,97.52,147.42,405.97,Single-ply,SBD,M
Boys,67.13,6,Luis Uruchutu,Canyon Randall,64.86,136.08,90.72,163.29,390.09,Single-ply,SBD,M
Boys,67.13,7,Adrian Rodriguez,Tulia,65.41,138.35,74.84,147.42,360.61,Single-ply,SBD,M
Boys,67.13,8,Javier Martinez,Dumas,65.59,124.74,65.77,136.08,326.59,Single-ply,SBD,M
Boys,67.13,9,A'Kayzon Garrett,Childress,61.42,138.35,61.23,124.74,324.32,Single-ply,SBD,M
Boys,67.13,10,Carter Neil,Panhandle,62.87,115.67,65.77,122.47,303.91,Single-ply,SBD,M
Boys,67.13,11,Jayson Jones,Panhandle,64.14,106.59,45.36,113.4,265.35,Single-ply,SBD,M
Boys,67.13,12,Kade Tinsley,Bushland,61.96,92.99,56.7,104.33,254.01,Single-ply,SBD,M
Boys,67.13,DQ,Luis Ramos #1,Dumas,64.77,147.42,,,,Single-ply,SBD,M
Boys,74.84,1,Garron Weber,Borger,73.94,201.85,129.27,240.4,571.53,Single-ply,SBD,M
Boys,74.84,2,Luis Estrada,Plainview,72.03,222.26,129.27,210.92,562.45,Single-ply,SBD,M
Boys,74.84,3,Noah Martinez,Dalhart,72.94,217.72,120.2,208.65,546.58,Single-ply,SBD,M
Boys,74.84,4,Chris Lara,Bushland,73.12,174.63,102.06,195.04,471.74,Single-ply,SBD,M
Boys,74.84,5,Mario Banos,Perryton,74.39,158.76,92.99,163.29,415.04,Single-ply,SBD,M
Boys,74.84,6,Carson Gross,Amarillo River Road,70.94,158.76,83.91,170.1,412.77,Single-ply,SBD,M
Boys,74.84,7,Jaden Shaver,Panhandle,69.94,161.03,90.72,142.88,394.63,Single-ply,SBD,M
Boys,74.84,8,Levi Deveney,Bushland,69.04,120.2,102.06,154.22,376.48,Single-ply,SBD,M
Boys,74.84,9,Juan Castillo,Tulia,73.12,142.88,83.91,142.88,369.68,Single-ply,SBD,M
Boys,74.84,10,Logan Terrell,Bushland,72.03,113.4,90.72,158.76,362.87,Single-ply,SBD,M
Boys,74.84,11,Raul Rojas,Childress,67.22,138.35,74.84,145.15,358.34,Single-ply,SBD,M
Boys,74.84,12,Matthew Resendez,Tulia,72.39,142.88,68.04,142.88,353.8,Single-ply,SBD,M
Boys,74.84,13,Miguel Salinas,Childress,67.68,122.47,88.45,133.81,344.73,Single-ply,SBD,M
Boys,74.84,14,Houston Heck,Panhandle,70.03,120.2,74.84,136.08,331.12,Single-ply,SBD,M
Boys,74.84,15,Caton Grahn,Clarendon,68.86,115.67,68.04,145.15,328.85,Single-ply,SBD,M
Boys,74.84,16,David Russell,Bushland,68.76,117.93,63.5,127.01,308.44,Single-ply,SBD,M
Boys,74.84,17,Matt Anders,Amarillo Highland Park,70.35,92.99,68.04,129.27,290.3,Single-ply,SBD,M
Boys,82.1,1,Austin Powell,Plainview,81.56,219.99,140.61,240.4,601.01,Single-ply,SBD,M
Boys,82.1,2,Tylor Genn,Memphis,80.47,199.58,158.76,192.78,551.11,Single-ply,SBD,M
Boys,82.1,3,Ethan Ballard,Clarendon,81.28,172.37,111.13,188.24,471.74,Single-ply,SBD,M
Boys,82.1,4,Jaime Lizama,Childress,80.56,156.49,104.33,165.56,426.38,Single-ply,SBD,M
Boys,82.1,5,Edgar Granados,Perryton,78.56,151.95,83.91,181.44,417.3,Single-ply,SBD,M
Boys,82.1,6,Miles Kuhen,Canyon,75.3,158.76,79.38,161.03,399.16,Single-ply,SBD,M
Boys,82.1,7,Zane Hackett,Panhandle,75.11,131.54,86.18,142.88,360.61,Single-ply,SBD,M
Boys,82.1,8,Carson Ward,Borger,79.56,122.47,47.63,113.4,283.5,Single-ply,SBD,M
Boys,82.1,DQ,John Legg,Dumas,78.02,,,,,Single-ply,SBD,M
Boys,82.1,DQ,Brian McGovern,Bushland,78.2,,,,,Single-ply,SBD,M
Boys,89.81,1,Blaine McGregor,Amarillo Highland Park,87.63,233.6,131.54,226.8,591.94,Single-ply,SBD,M
Boys,89.81,2,DJ Petties,Dalhart,83.91,188.24,83.91,229.06,501.22,Single-ply,SBD,M
Boys,89.81,3,Antonio Covarrubias,Perryton,89.63,188.24,102.06,195.04,485.34,Single-ply,SBD,M
Boys,89.81,4,Angel Luther,Perryton,88,181.44,117.93,183.7,483.08,Single-ply,SBD,M
Boys,89.81,5,Caleb Frausto,Canyon Randall,87.91,170.1,124.74,181.44,476.27,Single-ply,SBD,M
Boys,89.81,6,Tanner Mills,Childress,85.73,149.69,120.2,183.7,453.59,Single-ply,SBD,M
Boys,89.81,7,Antonio Rangel,Dumas,89.09,167.83,102.06,183.7,453.59,Single-ply,SBD,M
Boys,89.81,8,Augustine Moreno,Amarillo Highland Park,89.4,170.1,102.06,165.56,437.72,Single-ply,SBD,M
Boys,89.81,9,Brody Barfield,Bushland,84.55,142.88,72.57,142.88,358.34,Single-ply,SBD,M
Boys,89.81,10,Jackson Espe,Bushland,84.1,124.74,72.57,149.69,347,Single-ply,SBD,M
Boys,89.81,11,Colin Barthlow,Panhandle,87.82,111.13,52.16,124.74,288.03,Single-ply,SBD,M
Boys,89.81,12,Wade Alexander,Panhandle,84.28,79.38,65.77,131.54,276.69,Single-ply,SBD,M
Boys,89.81,DQ,Dat Luu,Amarillo Highland Park,87.45,201.85,,,,Single-ply,SBD,M
Boys,89.81,DQ,Christian Sanchez,Dumas,86.18,,,,,Single-ply,SBD,M
Boys,89.81,DQ,Marcos Saucedo,Dumas,84.46,156.49,,,,Single-ply,SBD,M
Boys,99.79,1,Aaron Rivas,Plainview,92.8,199.58,120.2,208.65,528.44,Single-ply,SBD,M
Boys,99.79,2,Marcus Correa,Canyon Randall,98.52,190.51,127.01,190.51,508.02,Single-ply,SBD,M
Boys,99.79,3,Josue Alonso,Plainview,94.89,192.78,108.86,179.17,480.81,Single-ply,SBD,M
Boys,99.79,4,Casey Gill,Tulia,94.89,181.44,113.4,170.1,464.93,Single-ply,SBD,M
Boys,99.79,5,Max Acosta,Dumas,90.81,142.88,120.2,170.1,433.18,Single-ply,SBD,M
Boys,99.79,6,Thomas Ellifritz,Childress,95.44,170.1,90.72,167.83,428.64,Single-ply,SBD,M
Boys,99.79,7,Garrett Mcalroy,Panhandle,95.8,161.03,95.25,165.56,421.84,Single-ply,SBD,M
Boys,99.79,8,Jay Ramirez,Perryton,98.16,161.03,90.72,161.03,412.77,Single-ply,SBD,M
Boys,99.79,9,Xavier Muro,Borger,98.79,142.88,77.11,161.03,381.02,Single-ply,SBD,M
Boys,99.79,10,Jaziel Torres,Borger,94.89,142.88,83.91,138.35,365.14,Single-ply,SBD,M
Boys,99.79,11,Braden Forbes,Panhandle,91.9,136.08,83.91,138.35,358.34,Single-ply,SBD,M
Boys,109.77,1,Octavius Vera,Plainview,107.77,276.69,140.61,235.87,653.17,Single-ply,SBD,M
Boys,109.77,2,Jose Morin,Memphis,100.83,249.48,158.76,226.8,635.03,Single-ply,SBD,M
Boys,109.77,3,Randy Mendoza,Plainview,101.97,240.4,131.54,217.72,589.67,Single-ply,SBD,M
Boys,109.77,4,Zach Zaccardo,Bushland,105.23,204.12,124.74,204.12,532.97,Single-ply,SBD,M
Boys,109.77,5,Victor Del Fierro,Canyon Randall,102.87,190.51,142.88,183.7,517.1,Single-ply,SBD,M
Boys,109.77,6,Brendon Eminger,Canyon,100.97,215.46,113.4,185.97,514.83,Single-ply,SBD,M
Boys,109.77,7,Oscar Juarez,Childress,103.96,215.46,106.59,188.24,510.29,Single-ply,SBD,M
Boys,109.77,8,Cesar Maestas,Memphis,108.68,181.44,124.74,197.31,503.49,Single-ply,SBD,M
Boys,109.77,9,Jesus Cervantes,Perryton,106.96,206.38,111.13,183.7,501.22,Single-ply,SBD,M
Boys,109.77,10,Shelby Sanderson,Canyon Randall,105.51,165.56,131.54,183.7,480.81,Single-ply,SBD,M
Boys,109.77,11,David Muñoz,Canyon Randall,107.95,172.37,124.74,172.37,469.47,Single-ply,SBD,M
Boys,109.77,12,Patrick Cheney,Amarillo Highland Park,102.06,170.1,106.59,188.24,464.93,Single-ply,SBD,M
Boys,109.77,13,Phillip Pate,Amarillo River Road,103.96,183.7,83.91,185.97,453.59,Single-ply,SBD,M
Boys,109.77,14,Adam Acevedo,Dumas,107.5,183.7,97.52,170.1,451.32,Single-ply,SBD,M
Boys,109.77,15,Cole Bacon,Panhandle,104.33,154.22,79.38,165.56,399.16,Single-ply,SBD,M
Boys,109.77,16,Braxton Novak,Amarillo Highland Park,102.15,131.54,108.86,151.95,392.36,Single-ply,SBD,M
Boys,109.77,17,Jackson Blake,Bushland,105.87,122.47,83.91,117.93,324.32,Single-ply,SBD,M
Boys,124.74,1,Adriel Flores,Plainview,122.92,294.84,133.81,254.01,682.66,Single-ply,SBD,M
Boys,124.74,2,Leo Balderas,Plainview,117.3,272.16,145.15,244.94,662.24,Single-ply,SBD,M
Boys,124.74,3,Gustavo Navarrete,Perryton,109.86,242.67,151.95,242.67,637.3,Single-ply,SBD,M
Boys,124.74,4,Seth Greer,Clarendon,121.83,210.92,156.49,238.14,605.55,Single-ply,SBD,M
Boys,124.74,5,Austin McCarty,Childress,120.75,226.8,158.76,176.9,562.45,Single-ply,SBD,M
Boys,124.74,6,Alonso Cardenas,Dumas,117.03,195.04,106.59,226.8,528.44,Single-ply,SBD,M
Boys,124.74,7,Bodey Lange,Tulia,118.48,208.65,120.2,165.56,494.42,Single-ply,SBD,M
Boys,124.74,8,Kendall Ptacnik,Canyon Randall,112.94,183.7,124.74,181.44,489.88,Single-ply,SBD,M
Boys,124.74,9,Brady Cooke,Panhandle,112.58,199.58,113.4,174.63,487.61,Single-ply,SBD,M
Boys,124.74,10,Lorenzo Valdez,Borger,113.85,201.85,108.86,172.37,483.08,Single-ply,SBD,M
Boys,124.74,11,Zack Flick,Amarillo River Road,115.39,185.97,92.99,188.24,467.2,Single-ply,SBD,M
Boys,124.74,12,Brandon Chambers,Canyon,110.95,154.22,111.13,185.97,451.32,Single-ply,SBD,M
Boys,124.74,13,Jesse Garcia,Canyon,115.76,170.1,88.45,185.97,444.52,Single-ply,SBD,M
Boys,124.74,14,Blaine Smith,Bushland,110.31,151.95,120.2,156.49,428.64,Single-ply,SBD,M
Boys,124.74+,1,Trevor Townsend,Plainview,151.77,274.42,167.83,233.6,675.85,Single-ply,SBD,M
Boys,124.74+,2,Marcos Bribiesca,Canyon Randall,131.63,272.16,142.88,235.87,650.91,Single-ply,SBD,M
Boys,124.74+,3,Tytus Williams,Borger,130,219.99,124.74,192.78,537.51,Single-ply,SBD,M
Boys,124.74+,4,Carlos Romero,Childress,133.63,219.99,124.74,192.78,537.51,Single-ply,SBD,M
Boys,124.74+,5,Jordan Applegate,Amarillo Highland Park,142.34,183.7,111.13,183.7,478.54,Single-ply,SBD,M
Boys,124.74+,6,Tanner Wilson,Canyon,157.67,129.27,90.72,156.49,376.48,Single-ply,SBD,M
Boys,124.74+,7,Alex Munoz,Memphis,140.43,142.88,81.65,142.88,367.41,Single-ply,SBD,M
