Division,WeightClassKg,Place,Name,Team,BodyweightKg,Best3SquatKg,Best3BenchKg,Best3DeadliftKg,TotalKg,Equipment,Event,Sex
Boys,51.71,1,Ignacio Romero,Plainview,50.94,136.08,70.31,142.88,349.27,Single-ply,SBD,M
Boys,51.71,2,Jeremiah Ramirez,Levelland,48.08,124.74,70.31,149.69,344.73,Single-ply,SBD,M
Boys,51.71,3,Israel Hernandez,Lubbock Cooper,45.9,113.4,74.84,124.74,312.98,Single-ply,SBD,M
Boys,51.71,4,Gage Rigdon,Meadow,51.35,104.33,61.23,138.35,303.91,Single-ply,SBD,M
Boys,51.71,5,Carlitos Lira,Dalhart,48.99,108.86,61.23,113.4,283.5,Single-ply,SBD,M
Boys,51.71,6,Miguel Macias,Plainview,44.72,90.72,52.16,99.79,242.67,Single-ply,SBD,M
Boys,51.71,7,Mario Hernandez,Friona,50.44,92.99,52.16,97.52,242.67,Single-ply,SBD,M
Boys,55.79,1,Raymon Aranda,Seagraves,55.16,163.29,97.52,179.17,439.98,Single-ply,SBD,M
Boys,59.87,2,Elijah Zambrano,Plainview,55.93,142.88,81.65,147.42,371.95,Single-ply,SBD,M
Boys,59.87,3,Ezekiel Cuellar,Perryton,56.02,108.86,65.77,124.74,299.37,Single-ply,SBD,M
Boys,55.79,4,Linden Brown,Anton,54.43,108.86,52.16,131.54,292.57,Single-ply,SBD,M
Boys,55.79,5,Derek Adame,Plainview,54.7,108.86,70.31,113.4,292.57,Single-ply,SBD,M
Boys,55.79,6,Pete Salazar,Hale Center,54.25,97.52,70.31,117.93,285.76,Single-ply,SBD,M
Boys,55.79,7,Manuel Reyna,Anton,54.88,95.25,52.16,120.2,267.62,Single-ply,SBD,M
Boys,55.79,8,Hayden McCalib,Wolfforth Frenship,54.07,83.91,43.09,115.67,242.67,Single-ply,SBD,M
Boys,55.79,DQ,Arturo Rodriguez,Meadow,55.25,,,,,Single-ply,SBD,M
Boys,67.13,1,Luis Trejo,Friona,60.06,183.7,102.06,154.22,439.98,Single-ply,SBD,M
Boys,59.87,2,Anthony Washington,Plainview,59.69,167.83,83.91,185.97,437.72,Single-ply,SBD,M
Boys,59.87,3,Landon Nail,Lubbock Cooper,56.52,124.74,77.11,145.15,347,Single-ply,SBD,M
Boys,59.87,4,Diego Rodriguez,Dimmitt,57.61,122.47,81.65,140.61,344.73,Single-ply,SBD,M
Boys,59.87,5,Jonathon Hinojosa,Hale Center,56.79,124.74,72.57,136.08,333.39,Single-ply,SBD,M
Boys,67.13,6,Logan Giles,Canyon,59.96,124.74,72.57,122.47,319.78,Single-ply,SBD,M
Boys,59.87,7,Gabe Rodriguez,Lubbock Cooper,58.6,113.4,68.04,136.08,317.51,Single-ply,SBD,M
Boys,59.87,8,Alex Licerio,Friona,58.69,115.67,63.5,111.13,290.3,Single-ply,SBD,M
Boys,59.87,9,Cameron Arellano,Wolfforth Frenship,59.51,88.45,65.77,136.08,290.3,Single-ply,SBD,M
Boys,59.87,10,Ceasar Luther,Perryton,57.7,102.06,61.23,117.93,281.23,Single-ply,SBD,M
Boys,67.13,11,Mathew Morado,Meadow,60.1,97.52,58.97,120.2,276.69,Single-ply,SBD,M
Boys,59.87,12,Davin Luna,Plainview,57.52,102.06,61.23,108.86,272.16,Single-ply,SBD,M
Boys,59.87,13,Sean Romines,Denver City,59.69,70.31,61.23,113.4,244.94,Single-ply,SBD,M
Boys,59.87,14,Fidel Trinidad,Post,58.06,95.25,49.9,95.25,240.4,Single-ply,SBD,M
Boys,59.87,15,Jeff Blashill,Canyon Randall,56.97,74.84,40.82,83.91,199.58,Single-ply,SBD,M
Boys,59.87,16,Zach Moore,Panhandle,56.97,79.38,43.09,,122.47,Single-ply,SB,M
Boys,67.13,1,James Vasquez,Lubbock Coronado,66.95,170.1,99.79,165.56,435.45,Single-ply,SBD,M
Boys,67.13,2,Zane Ponder,Plainview,64.59,170.1,99.79,158.76,428.64,Single-ply,SBD,M
Boys,67.13,3,Layton Lamberson,Panhandle,66.32,151.95,102.06,163.29,417.3,Single-ply,SBD,M
Boys,67.13,4,Juan Macias-Martinez,Friona,66.77,138.35,95.25,154.22,387.82,Single-ply,SBD,M
Boys,67.13,5,Jovan Griffin,Lubbock Coronado,61.96,124.74,74.84,158.76,358.34,Single-ply,SBD,M
Boys,67.13,6,Estevan Gonzales,Dimmitt,66.13,120.2,70.31,167.83,358.34,Single-ply,SBD,M
Boys,67.13,7,Alex Lugo,Perryton,61.05,120.2,77.11,158.76,356.07,Single-ply,SBD,M
Boys,67.13,8,Christian Bejarano,Lockney,62.78,124.74,81.65,147.42,353.8,Single-ply,SBD,M
Boys,67.13,9,Jorge Martinez,Dimmitt,62.87,127.01,72.57,151.95,351.53,Single-ply,SBD,M
Boys,67.13,10,Kaiden Summerville,Perryton,63.41,129.27,86.18,136.08,351.53,Single-ply,SBD,M
Boys,67.13,11,Jayden Harvey,Hale Center,67.13,138.35,83.91,127.01,349.27,Single-ply,SBD,M
Boys,67.13,12,Alex Pena,Dimmitt,65.86,124.74,79.38,138.35,342.46,Single-ply,SBD,M
Boys,67.13,13,Ethan Pendergrass,Anton,61.14,111.13,61.23,145.15,317.51,Single-ply,SBD,M
Boys,67.13,14,Eduardo Gutierrez,Dumas,66.86,127.01,77.11,113.4,317.51,Single-ply,SBD,M
Boys,67.13,15,Taylor Hobbs,Denver City,64.59,102.06,74.84,138.35,315.25,Single-ply,SBD,M
Boys,67.13,16,Justice Pardo,Hale Center,60.42,108.86,65.77,129.27,303.91,Single-ply,SBD,M
Boys,67.13,17,Ivan Valverde,Denver City,66.13,102.06,79.38,122.47,303.91,Single-ply,SBD,M
Boys,74.84,18,Isaac Harper,Seagraves,67.31,115.67,61.23,127.01,303.91,Single-ply,SBD,M
Boys,67.13,19,Chris Davis,Meadow,63.23,102.06,65.77,127.01,294.84,Single-ply,SBD,M
Boys,74.84,20,Hunter Graves,Post,67.22,120.2,65.77,97.52,283.5,Single-ply,SBD,M
Boys,74.84,21,Mario Banos,Perryton,67.31,102.06,63.5,106.59,272.16,Single-ply,SBD,M
Boys,67.13,22,Trenton Freeman,Denver City,66.22,74.84,65.77,117.93,258.55,Single-ply,SBD,M
Boys,67.13,DQ,Jayden Shaver,Panhandle,61.87,108.86,,,,Single-ply,SBD,M
Boys,74.84,1,Elliot Hanna,Levelland,68.76,199.58,129.27,226.8,555.65,Single-ply,SBD,M
Boys,82.1,2,Steven Vallejo,Plainview,74.98,181.44,102.06,222.26,505.76,Single-ply,SBD,M
Boys,74.84,3,Paul Perez,Levelland,74.39,188.24,113.4,183.7,485.34,Single-ply,SBD,M
Boys,74.84,4,Abraham Trevino,Lubbock Cooper,71.12,161.03,133.81,170.1,464.93,Single-ply,SBD,M
Boys,74.84,5,Isaiah Perez,Dalhart,73.39,149.69,106.59,170.1,426.38,Single-ply,SBD,M
Boys,74.84,6,Noah Martinez,Dalhart,74.75,158.76,92.99,174.63,426.38,Single-ply,SBD,M
Boys,82.1,7,James Hampton,Wolfforth Frenship,74.93,142.88,83.91,190.51,417.3,Single-ply,SBD,M
Boys,74.84,8,Beau King,Hale Center,73.03,149.69,90.72,170.1,410.5,Single-ply,SBD,M
Boys,74.84,9,Caleb Hurst,Lubbock Cooper,70.49,149.69,104.33,154.22,408.23,Single-ply,SBD,M
Boys,74.84,10,Justin Rodriguez,Lubbock Cooper,73.75,136.08,97.52,167.83,401.43,Single-ply,SBD,M
Boys,74.84,11,David Del Val Fraire,Perryton,72.76,145.15,83.91,161.03,390.09,Single-ply,SBD,M
Boys,82.1,12,Andy Valencia,Hale Center,75.02,149.69,74.84,165.56,390.09,Single-ply,SBD,M
Boys,74.84,13,Julio Sanchez,Perryton,72.94,138.35,97.52,149.69,385.55,Single-ply,SBD,M
Boys,74.84,14,Alvaro Gardea,Friona,74.75,154.22,72.57,154.22,381.02,Single-ply,SBD,M
Boys,82.1,15,Rowdy Vaughn,Canyon,75.02,129.27,90.72,154.22,374.21,Single-ply,SBD,M
Boys,74.84,16,Esteban Zuniga,Lubbock Coronado,73.21,117.93,90.72,158.76,367.41,Single-ply,SBD,M
Boys,74.84,17,Quince Workman,Wolfforth Frenship,70.4,99.79,77.11,161.03,337.93,Single-ply,SBD,M
Boys,74.84,18,Jerry Simental,Seagraves,72.03,124.74,77.11,124.74,326.59,Single-ply,SBD,M
Boys,74.84,19,Kolby Born,Perryton,73.66,113.4,70.31,102.06,285.76,Single-ply,SBD,M
Boys,74.84,DQ,Ely Hernandez,Dumas,71.58,122.47,74.84,158.76,,Single-ply,SBD,M
Boys,74.84,DQ,Paul Hernandez,Dumas,67.86,108.86,65.77,136.08,,Single-ply,SBD,M
Boys,74.84,DQ,Paul Vandiver,Dumas,70.22,108.86,83.91,142.88,,Single-ply,SBD,M
Boys,74.84,DQ,Nick Mendoza,Dumas,72.67,,,,,Single-ply,SBD,M
Boys,74.84,DQ,Cedrick Pena,Dumas,68.22,136.08,,,,Single-ply,SBD,M
Boys,74.84,DQ,Ethan Mullins,Meadow,70.76,,,,,Single-ply,SBD,M
Boys,82.1,DQ,Tristyn Hopkins,Panhandle,75.02,151.95,,,,Single-ply,SBD,M
Boys,82.1,1,Tate Richards,Springlake Earth,78.65,199.58,147.42,217.72,564.72,Single-ply,SBD,M
Boys,82.1,2,Rene Rodriguez,Friona,75.75,192.78,115.67,208.65,517.1,Single-ply,SBD,M
Boys,82.1,3,Michael Guerrero,Lockney,80.56,181.44,108.86,183.7,474,Single-ply,SBD,M
Boys,82.1,4,Fernando Vazquez,Denver City,77.66,170.1,102.06,181.44,453.59,Single-ply,SBD,M
Boys,82.1,5,Ethan Hays,Panhandle,78.02,170.1,102.06,170.1,442.25,Single-ply,SBD,M
Boys,82.1,6,Reyes Lujan,Dalhart,80.29,170.1,102.06,163.29,435.45,Single-ply,SBD,M
Boys,82.1,7,Jake Martinez,Hale Center,80.92,151.95,102.06,181.44,435.45,Single-ply,SBD,M
Boys,82.1,8,Jacob Clevinger,Canyon,79.56,151.95,97.52,165.56,415.04,Single-ply,SBD,M
Boys,82.1,9,Christian Sanchez,Dumas,80.47,142.88,86.18,158.76,387.82,Single-ply,SBD,M
Boys,82.1,10,Jake Garland,Canyon,81.19,129.27,97.52,156.49,383.29,Single-ply,SBD,M
Boys,82.1,11,Colton Brown,Wolfforth Frenship,78.74,136.08,79.38,156.49,371.95,Single-ply,SBD,M
Boys,82.1,12,Kevin Fehr,Wolfforth Frenship,78.11,120.2,83.91,156.49,360.61,Single-ply,SBD,M
Boys,89.81,13,Austin Adams,Dumas,82.28,124.74,72.57,158.76,356.07,Single-ply,SBD,M
Boys,82.1,14,Caleb McDaniel,Wolfforth Frenship,79.38,124.74,79.38,145.15,349.27,Single-ply,SBD,M
Boys,82.1,15,Sean Hernandez,Anton,80.56,131.54,72.57,142.88,347,Single-ply,SBD,M
Boys,82.1,16,Adam Delgado,Wolfforth Frenship,79.83,102.06,83.91,154.22,340.19,Single-ply,SBD,M
Boys,82.1,17,Luis Castro,Hale Center,81.28,115.67,68.04,142.88,326.59,Single-ply,SBD,M
Boys,82.1,18,Obed Lopez,Perryton,80.65,88.45,77.11,136.08,301.64,Single-ply,SBD,M
Boys,82.1,19,Garrett McIlroy,Panhandle,78.02,108.86,61.23,120.2,290.3,Single-ply,SBD,M
Boys,82.1,DQ,Mason Turner,Dumas,80.83,102.06,74.84,145.15,,Single-ply,SBD,M
Boys,89.81,DQ,Kyler Volden,Dumas,82.28,90.72,54.43,113.4,,Single-ply,SBD,M
Boys,82.1,DQ,Cameron McQueen,Meadow,79.65,,,,,Single-ply,SBD,M
Boys,89.81,1,Domingo Saucedo,Plainview,84.82,249.48,170.1,240.4,659.98,Single-ply,SBD,M
Boys,89.81,2,Dalton Gray,Anton,88,233.6,127.01,215.46,576.06,Single-ply,SBD,M
Boys,89.81,3,Eduardo Hernandez,Denver City,84.82,213.19,142.88,185.97,542.04,Single-ply,SBD,M
Boys,89.81,4,Roy Flores,Levelland,84.91,183.7,133.81,208.65,526.17,Single-ply,SBD,M
Boys,89.81,5,Juan Samarron,Friona,89.18,199.58,120.2,204.12,523.9,Single-ply,SBD,M
Boys,89.81,6,Brody Schleeter,Lubbock Cooper,83.19,183.7,124.74,206.38,514.83,Single-ply,SBD,M
Boys,89.81,7,Derek Ditto,Dumas,85.46,183.7,133.81,181.44,498.95,Single-ply,SBD,M
Boys,89.81,8,Cutter Paris,Canyon Randall,85.46,181.44,102.06,167.83,451.32,Single-ply,SBD,M
Boys,99.79,9,Fermin Medina,Dimmitt,90.04,163.29,113.4,145.15,421.84,Single-ply,SBD,M
Boys,89.81,10,Santos Flores,Lubbock Coronado,84.82,170.1,92.99,145.15,408.23,Single-ply,SBD,M
Boys,89.81,11,Colton Hubbard,Canyon Randall,83.91,158.76,92.99,154.22,405.97,Single-ply,SBD,M
Boys,89.81,12,Tucker Eller,Canyon,82.92,142.88,102.06,158.76,403.7,Single-ply,SBD,M
Boys,89.81,13,Joel Cigarroa,Friona,84.55,158.76,97.52,142.88,399.16,Single-ply,SBD,M
Boys,89.81,14,Caden Lefever,Canyon Randall,87.45,124.74,106.59,149.69,381.02,Single-ply,SBD,M
Boys,89.81,15,Jarrett Jordan,Canyon,88.9,124.74,97.52,158.76,381.02,Single-ply,SBD,M
Boys,89.81,16,Victor Del Fierro,Canyon Randall,85.73,129.27,92.99,154.22,376.48,Single-ply,SBD,M
Boys,89.81,17,Issac Summerlin,Friona,89.09,154.22,70.31,147.42,371.95,Single-ply,SBD,M
Boys,89.81,18,Brandon Steele,Lubbock Coronado,85.18,133.81,81.65,154.22,369.68,Single-ply,SBD,M
Boys,89.81,19,Eyrik Ellison,Anton,84.19,158.76,79.38,127.01,365.14,Single-ply,SBD,M
Boys,89.81,20,Guilermo Quintana,Friona,89.27,124.74,83.91,127.01,335.66,Single-ply,SBD,M
Boys,89.81,21,Brady Fabila,Meadow,87.45,113.4,58.97,117.93,290.3,Single-ply,SBD,M
Boys,89.81,DQ,Alexis Martinez,Dumas,86.18,120.2,81.65,156.49,,Single-ply,SBD,M
Boys,89.81,DQ,Adalberto Rangel,Dumas,83.73,142.88,,,,Single-ply,SBD,M
Boys,89.81,DQ,Steven Martinez,Hale Center,84.91,108.86,61.23,,,Single-ply,SBD,M
Boys,99.79,1,Paul Ochoa,Levelland,96.07,240.4,170.1,181.44,591.94,Single-ply,SBD,M
Boys,99.79,2,Tristan Hernandez,Dimmitt,98.79,204.12,122.47,213.19,539.77,Single-ply,SBD,M
Boys,99.79,3,Jacob Harris,Dalhart,98.43,215.46,115.67,206.38,537.51,Single-ply,SBD,M
Boys,99.79,4,Quinton Franks,Lubbock Cooper,91.08,208.65,106.59,213.19,528.44,Single-ply,SBD,M
Boys,99.79,5,Ethan Embry,Plainview,96.62,208.65,113.4,204.12,526.17,Single-ply,SBD,M
Boys,99.79,6,Erik Young,Canyon Randall,95.53,192.78,142.88,170.1,505.76,Single-ply,SBD,M
Boys,99.79,7,Meshach Mendoza,Levelland,90.81,183.7,127.01,192.78,503.49,Single-ply,SBD,M
Boys,99.79,8,Christian Rodriguez,Wolfforth Frenship,97.89,183.7,111.13,206.38,501.22,Single-ply,SBD,M
Boys,99.79,9,David Reyes,Dumas,98.7,183.7,131.54,183.7,498.95,Single-ply,SBD,M
Boys,99.79,10,Mikey Hernandez,Canyon Randall,94.26,183.7,129.27,172.37,485.34,Single-ply,SBD,M
Boys,99.79,11,Gage Alexander,Panhandle,96.71,165.56,108.86,192.78,467.2,Single-ply,SBD,M
Boys,99.79,12,Bolton Huerta,Wolfforth Frenship,96.07,170.1,104.33,183.7,458.13,Single-ply,SBD,M
Boys,99.79,13,Austin Archuleta,Panhandle,92.17,206.38,106.59,142.88,455.86,Single-ply,SBD,M
Boys,99.79,14,Robin Bolla,Wolfforth Frenship,91.99,165.56,102.06,174.63,442.25,Single-ply,SBD,M
Boys,99.79,15,Gage Holmes,Wolfforth Frenship,98.61,170.1,83.91,188.24,442.25,Single-ply,SBD,M
Boys,99.79,16,Valente Perez,Post,94.17,181.44,81.65,156.49,419.57,Single-ply,SBD,M
Boys,99.79,17,Joseph Holloway,Hale Center,96.52,170.1,79.38,167.83,417.3,Single-ply,SBD,M
Boys,99.79,18,Richard Garza,Dumas,94.08,145.15,102.06,165.56,412.77,Single-ply,SBD,M
Boys,99.79,19,Jordan Hernandez,Wolfforth Frenship,95.53,151.95,97.52,161.03,410.5,Single-ply,SBD,M
Boys,99.79,20,Andrew King,Lubbock Coronado,91.35,136.08,97.52,170.1,403.7,Single-ply,SBD,M
Boys,99.79,21,Luis Rodriguez,Friona,91.72,174.63,86.18,142.88,403.7,Single-ply,SBD,M
Boys,99.79,22,David Galvan,Plainview,95.93,158.76,97.52,142.88,399.16,Single-ply,SBD,M
Boys,99.79,23,Robert Chatham,Lubbock Cooper,93.17,151.95,106.59,136.08,394.63,Single-ply,SBD,M
Boys,99.79,24,Jason Torres,Levelland,98.97,142.88,92.99,158.76,394.63,Single-ply,SBD,M
Boys,99.79,25,Gage Morgan,Wolfforth Frenship,91.53,154.22,79.38,158.76,392.36,Single-ply,SBD,M
Boys,99.79,26,Quentin Weigle,Canyon,93.98,136.08,83.91,172.37,392.36,Single-ply,SBD,M
Boys,99.79,27,Justin Gandy,Panhandle,90.45,149.69,81.65,158.76,390.09,Single-ply,SBD,M
Boys,99.79,28,Jessie Lopez,Hale Center,95.71,154.22,99.79,136.08,390.09,Single-ply,SBD,M
Boys,99.79,29,Alexis Gonzales,Denver City,99.06,102.06,102.06,181.44,385.55,Single-ply,SBD,M
Boys,99.79,30,Cristian Morales,Dumas,97.98,136.08,90.72,136.08,362.87,Single-ply,SBD,M
Boys,99.79,31,Nathen Reyna,Lubbock Cooper,96.34,120.2,92.99,140.61,353.8,Single-ply,SBD,M
Boys,109.77,1,Moises Garcia,Plainview,109.32,260.82,158.76,260.82,680.39,Single-ply,SBD,M
Boys,109.77,2,Roy Abonanu,Plainview,101.15,226.8,129.27,235.87,591.94,Single-ply,SBD,M
Boys,109.77,3,Matt Cardenas,Wolfforth Frenship,108.77,219.99,145.15,226.8,591.94,Single-ply,SBD,M
Boys,109.77,4,D'Angelo Thomas,Plainview,100.7,204.12,138.35,208.65,551.11,Single-ply,SBD,M
Boys,109.77,5,Zach Hoffman,Canyon Randall,109.77,183.7,172.37,188.24,544.31,Single-ply,SBD,M
Boys,109.77,6,Alex King,Levelland,105.14,190.51,120.2,217.72,528.44,Single-ply,SBD,M
Boys,109.77,7,Dakota McWhorter,Panhandle,109.41,172.37,138.35,199.58,510.29,Single-ply,SBD,M
Boys,109.77,8,Jovan Acosta,Dumas,104.14,181.44,95.25,210.92,487.61,Single-ply,SBD,M
Boys,109.77,9,Gustavo Navarrete,Perryton,105.23,179.17,108.86,183.7,471.74,Single-ply,SBD,M
Boys,109.77,10,Ashton Canida,Panhandle,109.23,183.7,113.4,163.29,460.4,Single-ply,SBD,M
Boys,109.77,11,Jacob Piel,Wolfforth Frenship,103.42,151.95,97.52,195.04,444.52,Single-ply,SBD,M
Boys,109.77,12,Andrew Vasquez,Perryton,101.88,170.1,106.59,165.56,442.25,Single-ply,SBD,M
Boys,109.77,13,Erick Balderas,Dumas,107.05,142.88,86.18,165.56,394.63,Single-ply,SBD,M
Boys,109.77,14,Christian Barkley,Lubbock Cooper,101.7,142.88,92.99,151.95,387.82,Single-ply,SBD,M
Boys,109.77,15,Isaac Huseman,Canyon,108.86,129.27,88.45,158.76,376.48,Single-ply,SBD,M
Boys,109.77,16,Miguel Davila,Friona,105.6,111.13,61.23,117.93,290.3,Single-ply,SBD,M
Boys,109.77,17,Alex Lozano,Denver City,104.14,83.91,79.38,124.74,288.03,Single-ply,SBD,M
Boys,109.77,DQ,Auden Venzor,Dumas,102.78,122.47,70.31,127.01,,Single-ply,SBD,M
Boys,109.77,DQ,Ever Regalado,Dumas,106.5,163.29,,,,Single-ply,SBD,M
Boys,109.77,DQ,Brady Cooke,Panhandle,107.14,92.99,,,,Single-ply,SBD,M
Boys,109.77,DQ,Jacob Schneider,Lubbock Cooper,105.23,,,,,Single-ply,SBD,M
Boys,124.74,1,Erik Mendez,Plainview,122.15,299.37,163.29,260.82,723.48,Single-ply,SBD,M
Boys,124.74,2,Israel Rosalez,Seagraves,116.39,229.06,145.15,185.97,560.19,Single-ply,SBD,M
Boys,124.74,3,Freddy Martinez,Dumas,114.58,204.12,127.01,210.92,542.04,Single-ply,SBD,M
Boys,124.74,4,Dalton Torres,Dalhart,122.56,204.12,113.4,217.72,535.24,Single-ply,SBD,M
Boys,124.74,5,Marquise Nelson,Wolfforth Frenship,113.85,204.12,127.01,195.04,526.17,Single-ply,SBD,M
Boys,124.74,6,Casey Stewart,Dalhart,122.83,183.7,136.08,204.12,523.9,Single-ply,SBD,M
Boys,124.74,7,Bruno Talamantes,Dumas,112.67,192.78,127.01,197.31,517.1,Single-ply,SBD,M
Boys,124.74,8,Lucas Flores,Wolfforth Frenship,110.22,183.7,92.99,195.04,471.74,Single-ply,SBD,M
Boys,124.74,9,Kellon Smith,Lubbock Coronado,117.03,170.1,117.93,181.44,469.47,Single-ply,SBD,M
Boys,124.74,10,Mason Lefever,Canyon Randall,113.67,158.76,124.74,156.49,439.98,Single-ply,SBD,M
Boys,124.74,11,Russell Tuley,Canyon,112.49,161.03,113.4,151.95,426.38,Single-ply,SBD,M
Boys,124.74,12,Manuel Carmona,Dumas,122.29,129.27,72.57,158.76,360.61,Single-ply,SBD,M
Boys,124.74,DQ,Alonso Cardenas,Dumas,114.12,,,,,Single-ply,SBD,M
Boys,124.74,DQ,Jade Maldonado,Lubbock Cooper,119.84,,,,,Single-ply,SBD,M
Boys,124.74+,1,Vincent Mendoza,Wolfforth Frenship,127.55,276.69,122.47,235.87,635.03,Single-ply,SBD,M
Boys,124.74+,2,Chris Simmons,Levelland,129.73,235.87,142.88,204.12,582.87,Single-ply,SBD,M
Boys,124.74+,3,Brandon Rowand,Levelland,157.85,192.78,145.15,217.72,555.65,Single-ply,SBD,M
Boys,124.74+,4,Dominick Puente,Levelland,152.41,240.4,97.52,195.04,532.97,Single-ply,SBD,M
Boys,124.74+,5,Anthony Anzuldua,Dalhart,127.37,183.7,138.35,199.58,521.63,Single-ply,SBD,M
Boys,124.74+,6,John Runberg,Canyon,126.46,183.7,113.4,204.12,501.22,Single-ply,SBD,M
Boys,124.74+,7,Alexander Dimba,Wolfforth Frenship,203.66,183.7,120.2,158.76,462.66,Single-ply,SBD,M
Boys,124.74+,8,Brylee Walker,Canyon,136.53,136.08,99.79,142.88,378.75,Single-ply,SBD,M
Boys,124.74+,DQ,Santos Jackson,Dimmitt,146.51,,,,,Single-ply,SBD,M
