Name,BodyweightKg,WeightClassKg,Sex,Age,Bench1Kg,Bench2Kg,Bench3Kg,Best3BenchKg,TotalKg,Place,Division,State,Equipment,Event
Diann Nelson,50.4,52,F,54,82.5,87.5,-90,87.5,87.5,1,O,SD,Single-ply,B
Maura Shuttleworth,51.2,52,F,33,-85,85,-90,85,85,2,O,MN,Single-ply,B
Tammy Cutrona,50.9,52,F,43,65,-70,-70,65,65,3,O,NJ,Single-ply,B
Martha Thompson,51.4,52,F,48,55,60,65,65,65,1,M1B,CA,Single-ply,B
Teale Adelmann,54.8,56,F,37,115,120,125,125,125,1,O,NM,Single-ply,B
Jill Darling,54.9,56,F,31,112.5,120,-127.5,120,120,2,O,AK,Single-ply,B
Rowena Lopez,55.2,56,F,32,82.5,92.5,100,100,100,3,O,TX,Single-ply,B
Lizz D'Entremont,55.1,56,F,47,80,85,-87.5,85,85,4,O,NH,Single-ply,B
Leigh Haines,55.8,56,F,49,72.5,-75,-75,72.5,72.5,5,O,VA,Single-ply,B
Jennifer Thompson,58.8,60,F,36,140,-147.5,147.5,147.5,147.5,1,O,NC,Single-ply,B
Helen Sauer,59.9,60,F,56,102.5,-107.5,-107.5,102.5,102.5,2,O,NY,Single-ply,B
Jennifer Gaudreau,58.6,60,F,37,82.5,92.5,-102.5,92.5,92.5,3,O,CO,Single-ply,B
Bernie Tatulinski,57.3,60,F,51,45,50,-55,50,50,1,RO,OH,Raw,B
Ulyana Pikhunyk,64,67.5,F,23,125,130,140,140,140,1,G,IL,Single-ply,B
Ali Miller,66.1,67.5,F,31,95,102.5,-110,102.5,102.5,1,O,CO,Single-ply,B
Gina Benton,60.3,67.5,F,34,92.5,-100,-107.5,92.5,92.5,2,O,NC,Single-ply,B
Darlene Malecki,66.5,67.5,F,43,70,-75,75,75,75,3,O,NC,Single-ply,B
Jamie Bozzo,66.8,67.5,F,18,50,57.5,-65,57.5,57.5,1,T3,PA,Single-ply,B
Ruthie Meininger,63.4,67.5,F,46,30,37.5,47.5,47.5,47.5,1,RM1B,VA,Raw,B
Christy Newman,74.9,75,F,32,137.5,-150,-150,137.5,137.5,1,O,TX,Single-ply,B
Cydney Smith,74.9,75,F,38,112.5,120,-125,120,120,2,O,PA,Single-ply,B
Debra Duffy-Smet,69.1,75,F,52,90,100,-102.5,100,100,1,M2A,MN,Single-ply,B
Pam Hoffman,74.5,75,F,47,85,-92.5,-92.5,85,85,1,RO,OH,Raw,B
Devan Doan,81.7,82.5,F,21,142.5,150,161,161,161,1,O,WI,Single-ply,B
Michelle Sora,87.6,90,F,53,115,122.5,125,125,125,1,O,AZ,Single-ply,B
Holly Oxford,89.2,90,F,51,-110,-120,-120,,,DQ,,,Single-ply,B
Deborah Ferrell,115,90+,F,45,172.5,-180,-180,172.5,172.5,1,O,AK,Single-ply,B
Barb Page,101.7,90+,F,39,117.5,122.5,-125,122.5,122.5,1,RO,OH,Raw,B
Paulette Calhoun,102.9,90+,F,50,97.5,105,-110,105,105,1,M2A,TX,Single-ply,B
Fran Huston,148.4,90+,F,60,-132.5,-135,-135,,,DQ,,MN,Single-ply,B
Tyler Whipple,51.9,52,M,16,-100,107.5,-115,107.5,107.5,1,T2,PA,Single-ply,B
Jay White,51.45,52,M,17,62.5,67.5,-75,67.5,67.5,1,RT2,PA,Raw,B
Brian Siddons,54.4,56,M,30,95,102.5,-105,102.5,102.5,1,O,IN,Single-ply,B
Hung Pham,52.95,56,M,35,95,-110,-110,95,95,2,O,CA,Single-ply,B
Daniel Zett,53.95,56,M,18,90,-92.5,-92.5,90,90,1,RT3,OH,Raw,B
Bleda Elibal,54.5,56,M,50,82.5,87.5,-90,87.5,87.5,1,M2A,FL,Single-ply,B
Michael Kuhns,59.95,60,M,23,195,200,212.5,212.5,212.5,1,O,PA,Single-ply,B
Adam Zehr,59.5,60,M,29,150,155,-160,155,155,1,RO,NY,Raw,B
Charles Czake,59.3,60,M,20,85,-92.5,92.5,92.5,92.5,1,RJR,PA,Raw,B
Jay Helms,59.5,60,M,45,-132.5,-132.5,-140,,,DQ,,OH,Single-ply,B
Joe Smith,67.45,67.5,M,32,205,-212.5,-215,205,205,1,O,OH,Single-ply,B
Terrance Pinkett,67.3,67.5,M,39,187.5,197.5,-212.5,197.5,197.5,2,O,PA,Single-ply,B
Jeffrey Hadad,66.45,67.5,M,43,160,170,177.5,177.5,177.5,3,O,NH,Single-ply,B
Rex McLaren,67.1,67.5,M,47,170,-177.5,-177.5,170,170,1,M1B,IL,Single-ply,B
Greg Simmons #2,67.35,67.5,M,44,147.5,155,-157.5,155,155,4,O,IN,Single-ply,B
Steve Petrencak,66.9,67.5,M,41,150,-162.5,-172.5,150,150,5,O,OH,Single-ply,B
Larry Miller,65.85,67.5,M,51,125,130,135,135,135,1,RM2A,OH,Raw,B
Jules Pellegrino,67.15,67.5,M,66,132.5,-137.5,-137.5,132.5,132.5,1,M3B,NJ,Single-ply,B
David See,66.1,67.5,M,48,125,-130,-130,125,125,1,RO,OH,Raw,B
Ivan Zwick,66.6,67.5,M,69,125,-135.5,-135.5,125,125,2,M3B,IL,Single-ply,B
Marvin Huber,66.7,67.5,M,55,117.5,122.5,-127.5,122.5,122.5,1,RM2B,KY,Raw,B
Chetram Mangra,60.9,67.5,M,52,97.5,102.5,110,110,110,1,M2A,NY,Single-ply,B
James Long,64.4,67.5,M,21,102.5,107.5,-112.5,107.5,107.5,1,RJR,OH,Raw,B
Nankishore,66.2,67.5,M,22,100,107.5,-117.5,107.5,107.5,6,O,NY,Single-ply,B
Michael Hara,74.8,75,M,49,235,242.5,-257.5,242.5,242.5,1,O,CA,Single-ply,B
Miguel Ruelan,75,75,M,39,-195,-195,195,195,195,2,O,MI,Single-ply,B
Jon Mouzon,74.45,75,M,36,-192.5,192.5,-197.5,192.5,192.5,3,O,SC,Single-ply,B
Mike Ciupinski,74.95,75,M,30,187.5,192.5,-195,192.5,192.5,4,O,NJ,Single-ply,B
Daniel Sides,74.35,75,M,53,142.5,150,-155,150,150,1,RM2A,MO,Raw,B
Ralph Stover,71.45,75,M,20,-147.5,147.5,-160,147.5,147.5,1,JR,OH,Single-ply,B
David Constantineau,73.35,75,M,53,137.5,145,-150,145,145,6,O,WI,Single-ply,B
Dexter Campbell,68.8,75,M,17,127.5,132.5,137.5,137.5,137.5,1,RT2,NJ,Raw,B
Joe McDermott,72.95,75,M,69,135,-140,-140,135,135,1,M3B,FL,Single-ply,B
Joe Fazio,74.35,75,M,18,125,132.5,-140,132.5,132.5,1,T3,OH,Single-ply,B
Josh Winks,72.85,75,M,21,130,-147.5,-150,130,130,7,O,OH,Single-ply,B
Brandon Mikulecky,74.2,75,M,18,130,-137.5,-140,130,130,2,T3,WI,Single-ply,B
Chris Ferree,74.35,75,M,23,130,,,130,130,1,RO,NY,Raw,B
Arthur Sharpe,72.6,75,M,47,115,-125,-127.5,115,115,1,RM1B,MI,Raw,B
Norman Mackay,74.3,75,M,68,-115,-115,115,115,115,2,M3B,NH,Single-ply,B
Gary Reale,73.95,75,M,56,107.5,-112.5,-115,107.5,107.5,1,M2B,OH,Single-ply,B
Matt Kuchar,75,75,M,26,-142.5,-142.5,-142.5,,,DQ,,MI,Single-ply,B
Demetrius Maoury,74.9,75,M,43,-185,-185,-192.5,,,DQ,,VA,Single-ply,B
Larry Miller,72.3,75,M,55,-125,,,,,DQ,,OH,Single-ply,B
Daniel Thurman,82.2,82.5,M,41,-245,245,247.5,247.5,247.5,1,O,NE,Single-ply,B
Adam Mamola,81.9,82.5,M,31,-245,-245,245,245,245,2,O,VA,Single-ply,B
Joe DeMatteo,82.05,82.5,M,40,-212.5,212.5,-220,212.5,212.5,3,O,NJ,Single-ply,B
Mykola Oliynyk,78.9,82.5,M,27,190,205,-210,205,205,1,G,IL,Single-ply,B
Donovan Thompson,79.1,82.5,M,43,187.5,-192.5,-192.5,187.5,187.5,4,O,NC,Single-ply,B
Lucas Hisghman,75.4,82.5,M,22,175,-182.5,-182.5,175,175,5,O,VA,Single-ply,B
Dan Semans,81.35,82.5,M,23,-175,-175,175,175,175,2,JR,MI,Single-ply,B
Charles Smith,81.85,82.5,M,53,165,170,175,175,175,1,M2A,IL,Single-ply,B
Tom Cencich,81.05,82.5,M,48,172.5,-177.5,-177.5,172.5,172.5,6,O,CO,Single-ply,B
Frank Jones,82.03,82.5,M,23,170,-180,-180,170,170,3,JR,WI,Single-ply,B
Jim Klostergaard,82.5,82.5,M,60,170,-180,-180,170,170,1,M3A,TX,Single-ply,B
Patrick Carroll,79.45,82.5,M,52,160,165,-175,165,165,2,M2A,NY,Single-ply,B
Steve Howard,82.35,82.5,M,31,142.5,155,162.5,162.5,162.5,1,RO,OH,Raw,B
John Caldwell,81.9,82.5,M,43,150,155,160,160,160,2,RO,IN,Raw,B
John Sabo,79.75,82.5,M,54,125,-132.5,-135,125,125,1,RM2A,OH,Raw,B
Alexander Johnson,77.85,82.5,M,19,112.5,120,-127.5,120,120,1,RT3,WI,Raw,B
Bill Lindsey,80.15,82.5,M,63,95,110,-115,110,110,1,RM3A,VA,Raw,B
Anton Reel,79.9,82.5,M,89,27.5,37.5,42.5,42.5,42.5,1,M5A,GA,Single-ply,B
Augustus Harrison,78.1,82.5,M,17,-140,-140,-140,,,DQ,,KS,Single-ply,B
Matt Smith,81.6,82.5,M,36,-167.5,-167.5,-167.5,,,DQ,,MI,Single-ply,B
Evan Miller,79.85,82.5,M,19,-202.5,-202.5,-205,,,DQ,,OH,Single-ply,B
Luke Hanifen,89.75,90,M,27,257.5,-267.5,267.5,267.5,267.5,1,O,NV,Single-ply,B
Dennis Cieri,89.6,90,M,40,227.5,265,-270,265,265,2,O,NJ,Single-ply,B
Bill Hanselman,89.65,90,M,34,255,-267.5,-267.5,255,255,3,O,WI,Single-ply,B
Lance Kirchner,88.8,90,M,34,250,-265,-267.5,250,250,4,O,WI,Single-ply,B
Tim Stroshine,89.85,90,M,30,-242.5,242.5,-270,242.5,242.5,5,O,OH,Single-ply,B
David Geistlinger,88.6,90,M,30,207.5,-227.5,227.5,227.5,227.5,6,O,NE,Single-ply,B
Roman Crea,89.4,90,M,34,227.5,-242.5,-247.5,227.5,227.5,7,O,OH,Single-ply,B
Dennis Cieri,89.6,90,M,40,227.5,-242.5,-247.5,227.5,227.5,1,RO,NJ,Raw,B
Dana Rosenzweig,89.65,90,M,52,190,202.5,210,210,210,8,O,IL,Single-ply,B
Ron Dues,88.65,90,M,41,190,200,207.5,207.5,207.5,2,M1A,OH,Single-ply,B
John Wrabel,88.9,90,M,45,-185,185,192.5,192.5,192.5,1,M1B,OH,Single-ply,B
Nick Mercorelli,87,90,M,39,170,177.5,-182.5,177.5,177.5,2,RO,VA,Raw,B
Mike McHargh,87.55,90,M,32,175,-185,-185,175,175,3,RO,OH,Raw,B
Mike Burns,88.7,90,M,43,165,175,-177.5,175,175,4,RO,MN,Raw,B
Bill Phillips,88.85,90,M,71,165,170,-175,170,170,1,M4A,NJ,Single-ply,B
Joseph Nealis,88.3,90,M,59,107.5,110,115,115,115,1,M2B,PA,Single-ply,B
Tom O'Keefe,84.7,90,M,73,97.5,102.5,-110,102.5,102.5,2,M4A,CO,Single-ply,B
Pete Grohoski,89.75,90,M,39,-232.5,-232.5,-232.5,,,DQ,,PA,Single-ply,B
Richard Mullaney,85.6,90,M,69,-105,-115,-115,,,DQ,,SC,Single-ply,B
Jimmy Kolb,98.65,100,M,19,265,282.5,288.5,288.5,288.5,1,T3,OH,Single-ply,B
Tim Anderson,99.5,100,M,36,275,282.5,-303,282.5,282.5,1,O,NE,Single-ply,B
Mike Ferrantelli,98.8,100,M,43,-250,250,-265,250,250,2,O,FL,Single-ply,B
Charles Turco,99.65,100,M,53,220,235,237.5,237.5,237.5,1,M2A,TX,Single-ply,B
Kenneth Mattson,98.55,100,M,52,227.5,232.5,-236,232.5,232.5,2,M2A,MA,Single-ply,B
Derek Brixius,98.7,100,M,24,207.5,217.5,-227.5,217.5,217.5,3,O,WI,Single-ply,B
JT Hall,98.25,100,M,38,212.5,-255,-255,212.5,212.5,1,RO,KY,Raw,B
Joe Hirsch,99.65,100,M,45,192.5,-197.5,-197.5,192.5,192.5,1,M1B,PA,Single-ply,B
Clint Poore,97.45,100,M,35,187.5,-235,-237.5,187.5,187.5,2,RO,KY,Raw,B
Steve Caldwell,98.45,100,M,61,170,-175,175,175,175,1,M3A,TN,Single-ply,B
David Clark,98,100,M,61,-167.5,167.5,172.5,172.5,172.5,2,M3A,IA,Single-ply,B
Louis Sposato,98,100,M,70,-172.5,-172.5,172.5,172.5,172.5,1,M4A,NY,Single-ply,B
Gary Kanaga,99.5,100,M,44,142.5,165,172.5,172.5,172.5,1,RM1A,OH,Raw,B
John Probasco,99.2,100,M,47,142.5,150,,150,150,1,RM1B,NE,Raw,B
Stan Chatis,97.4,100,M,72,135,-140,-140,135,135,2,M4A,NY,Single-ply,B
Charlie Smith,93.1,100,M,60,105,117.5,-120,117.5,117.5,1,RM3A,SC,Raw,B
John Pfeiffer,94,100,M,44,110,137.5,152.5,152.5,152.5,3,RO,,Raw,B
Leonard Baran,98.85,100,M,77,80,85,-90,85,85,1,RM4B,OH,Raw,B
Troy Lehrer,99.7,100,M,39,-240,-245,-252.5,,,DQ,,NJ,Single-ply,B
Steve Spinelli,98.1,100,M,38,-247.5,-247.5,-247.5,,,DQ,,OH,Single-ply,B
Kevin Mayer,109.35,110,M,42,287.5,-290,-295,287.5,287.5,1,O,OH,Single-ply,B
David Doan,109.2,110,M,45,272.5,-280,-287.5,272.5,272.5,2,O,WI,Single-ply,B
Brady Stewart,109.5,110,M,27,267.5,-280,-290,267.5,267.5,3,O,IL,Single-ply,B
Larry Malcomson,105.95,110,M,44,247.5,-257.5,-257.5,247.5,247.5,4,O,WI,Single-ply,B
Chris Calvano,109.45,110,M,40,240,-247.5,-250,240,240,5,O,FL,Single-ply,B
Bob Painter,107.9,110,M,42,220,227.5,230,230,230,3,M1A,PA,Single-ply,B
Ennis White,109.35,110,M,45,230,-235,-250,230,230,6,O,TX,Single-ply,B
Pat Cannon,107,110,M,53,207.5,212.5,217.5,217.5,217.5,1,M2A,OH,Single-ply,B
Greg Chrun,108.15,110,M,57,205,210,217.5,217.5,217.5,1,M2B,MO,Single-ply,B
David Johnson,106.95,110,M,42,190,200,205,205,205,1,RO,WI,Raw,B
John Franks,107.45,110,M,33,197.5,202.5,-207.5,202.5,202.5,2,RO,PA,Raw,B
Clifford Tallman,107,110,M,65,200,-213,-213,200,200,1,M3B,NY,Single-ply,B
Doug Groves,103.8,110,M,25,182.5,-185,-185,182.5,182.5,7,O,OH,Single-ply,B
Jerry Jones,108.45,110,M,66,140,-145,-145,140,140,2,M3B,WI,Single-ply,B
Charlie Doggett,104.75,110,M,75,105,110,112.5,112.5,112.5,1,RM4B,CO,Raw,B
Robert Eckhart,104.65,110,M,36,-232.5,-232.5,-237.5,,,DQ,,PA,Single-ply,B
John Bogart,123.7,125,M,38,300,320,328.5,328.5,328.5,1,O,NY,Single-ply,B
Horace Lane,123.5,125,M,44,315,-322.5,-328,315,315,2,O,MI,Single-ply,B
Scott Lade,124.95,125,M,40,-292.5,292.5,-322.5,292.5,292.5,3,O,WI,Single-ply,B
Jeffrey Snyder,116.75,125,M,38,-280,287.5,-292.5,287.5,287.5,4,O,TX,Single-ply,B
Dwayne Meeks,120.05,125,M,44,-265,272.5,-295,272.5,272.5,5,O,AL,Single-ply,B
Eddie Kindle,122.8,125,M,40,217.5,-222.5,-222.5,217.5,217.5,6,O,MI,Single-ply,B
Jesse Strawser,124.65,125,M,20,212.5,-227.5,-227.5,212.5,212.5,7,O,,Single-ply,B
John Johnson,125,125,M,41,212.5,-220,-220,212.5,212.5,1,RO,MI,Raw,B
Skip Regan,123.4,125,M,57,200,210,-220,210,210,1,M2B,FL,Single-ply,B
Tom Szorady,118.5,125,M,25,182.5,197.5,-210,197.5,197.5,8,O,OH,Single-ply,B
Tim Thomas,123.5,125,M,52,187.5,-195,197.5,197.5,197.5,1,M2A,IL,Single-ply,B
Kevin Hutchinson,119.35,125,M,54,175,190,-192.5,190,190,1,RM2A,IN,Raw,B
Rob Falkowski,115.3,125,M,34,185,-190,-190,185,185,9,O,OH,Single-ply,B
Ronald Beuch,122.05,125,M,59,165,-212.5,-225,165,165,2,M2B,VA,Single-ply,B
Bob Engleman,115.8,125,M,66,150,155,160,160,160,1,RM3B,OH,Raw,B
Joseph Fyda,117.75,125,M,61,142.5,150,155,155,155,1,RM3A,OH,Raw,B
Bill Eaton,117.35,125,M,53,130,-137.5,-137.5,130,130,2,RM2A,TX,Raw,B
Nathan Bartell,111.4,125,M,16,-167.5,-167.5,-167.5,,,DQ,,OH,Single-ply,B
Adam Hicks,119.3,125,M,26,-227.5,-227.5,-227.5,,,DQ,,OH,Single-ply,B
Byron Nichols,123.45,125,M,43,-285,-285,-292.5,,,DQ,,TX,Single-ply,B
Brad Klinger,123.1,125,M,52,-300,-317.5,-322.5,,,DQ,,NY,Single-ply,B
Daniel Gaudreau,163.05,125+,M,48,300,-322.5,-330.5,300,300,1,O,CO,Single-ply,B
Shane Newark,136.65,125+,M,30,260,272.5,280,280,280,2,O,OH,Single-ply,B
Michael Zawilinski,174.65,125+,M,29,-275,-275,280,280,280,3,O,MA,Single-ply,B
James Ray #1,159.35,125+,M,51,262.5,-275,-300,262.5,262.5,4,O,WI,Single-ply,B
Thomas Murray,150.85,125+,M,20,202.5,207.5,215,215,215,1,RO,PA,Raw,B
Joseph Behari,128.9,125+,M,41,-207.5,-207.5,207.5,207.5,207.5,2,RO,,Raw,B
Gary Bess,129.4,125+,M,44,-182.5,195,-207.5,195,195,3,RO,OH,Raw,B
Brandon Braner,132.95,125+,M,23,192.5,-202.5,-202.5,192.5,192.5,4,RO,MN,Raw,B
Randy Earle,135.05,125+,M,47,175,-192.5,192.5,192.5,192.5,2,M1B,TX,Single-ply,B
Kevin Coughlin,200,125+,M,48,167.5,-175,-175,167.5,167.5,5,RO,PA,Raw,B
Robert Crawford,133.75,125+,M,58,165,-205,-205,165,165,5,O,WI,Single-ply,B
Terry Wallick,135,125+,M,66,85,,,85,85,1,RM3B,OH,Raw,B
Alan Reynolds,125.85,125+,M,42,-182.5,-182.5,-182.5,,,DQ,,MI,Single-ply,B
Kevin Johnson,136.55,125+,M,54,-257.5,-267.5,-267.5,,,DQ,,NY,Single-ply,B
Jeff Peshek,142.7,125+,M,46,-295,-295,-312.5,,,DQ,,OH,Single-ply,B
Wade Likens,158,125+,M,36,-320,-320,-320,,,DQ,,OH,Single-ply,B
