Division,WeightClassKg,Place,Name,Team,BodyweightKg,Best3SquatKg,Best3BenchKg,Best3DeadliftKg,TotalKg,Equipment,Event,Sex
Boys,51.71,1,Camden Cochran,Keller Timber Creek,45.81,79.38,38.56,88.45,206.38,Single-ply,SBD,M
Boys,55.79,1,Jordan Wilkerson,Keller Central,53.21,158.76,92.99,183.7,435.45,Single-ply,SBD,M
Boys,55.79,2,Stephen Gaut,Keller Central,53.8,131.54,77.11,145.15,353.8,Single-ply,SBD,M
Boys,55.79,DQ,Chris Quinones,Keller Fossil Ridge,53.52,52.16,38.56,74.84,,Single-ply,SBD,M
Boys,67.13,1,Peyton Reed,Keller Timber Creek,65.68,183.7,79.38,165.56,428.64,Single-ply,SBD,M
Boys,67.13,2,Kai Green,Keller Central,67.13,163.29,77.11,163.29,403.7,Single-ply,SBD,M
Boys,67.13,3,Gage Trujillo,Keller,64.77,131.54,92.99,129.27,353.8,Single-ply,SBD,M
Boys,67.13,4,Andre Phanavanh,Keller Fossil Ridge,66.86,83.91,61.23,142.88,288.03,Single-ply,SBD,M
Boys,67.13,5,Colby Coppinger,Keller Fossil Ridge,62.82,74.84,58.97,90.72,224.53,Single-ply,SBD,M
Boys,74.84,1,Jett Ertle,Keller,74.03,247.21,138.35,217.72,603.28,Single-ply,SBD,M
Boys,74.84,2,Jacob Yochim,Keller Timber Creek,73.62,204.12,117.93,204.12,526.17,Single-ply,SBD,M
Boys,74.84,3,David Casillas,Keller Timber Creek,73.03,156.49,102.06,149.69,408.23,Single-ply,SBD,M
Boys,74.84,4,Nhat Vu,Keller Fossil Ridge,68.45,124.74,97.52,174.63,396.89,Single-ply,SBD,M
Boys,74.84,5,Josh Gonzalez,Keller Fossil Ridge,67.45,117.93,70.31,149.69,337.93,Single-ply,SBD,M
Boys,74.84,6,John Vawar,Keller Fossil Ridge,73.75,113.4,68.04,136.08,317.51,Single-ply,SBD,M
Boys,74.84,DQ,William Vuong,Keller Central,74.84,124.74,92.99,124.74,,Single-ply,SBD,M
Boys,82.1,1,Carlos Encarnacion,Keller Central,76.43,208.65,113.4,208.65,530.7,Single-ply,SBD,M
Boys,82.1,2,Noah Gnacinski,Keller Timber Creek,76.88,199.58,117.93,181.44,498.95,Single-ply,SBD,M
Boys,82.1,3,Gabe Jones,Keller Timber Creek,78.74,158.76,92.99,158.76,410.5,Single-ply,SBD,M
Boys,82.1,4,Markus Reiten,Keller Timber Creek,79.47,142.88,97.52,154.22,394.63,Single-ply,SBD,M
Boys,82.1,5,Calvin Ball,Keller,78.06,149.69,83.91,158.76,392.36,Single-ply,SBD,M
Boys,82.1,6,Brock Allbritton,Keller Timber Creek,76.02,167.83,86.18,120.2,374.21,Single-ply,SBD,M
Boys,82.1,7,Damon Metzger,Keller Central,79.7,136.08,68.04,163.29,367.41,Single-ply,SBD,M
Boys,82.1,DQ,Cj Garnett,Keller Central,82.1,165.56,83.91,165.56,,Single-ply,SBD,M
Boys,82.1,DQ,Garret Ramirez,Keller Fossil Ridge,79.83,151.95,83.91,206.38,,Single-ply,SBD,M
Boys,82.1,DQ,David Ciarletta,Keller Timber Creek,82.1,170.1,90.72,158.76,,Single-ply,SBD,M
Boys,89.81,1,Ty Nicholson,Keller Timber Creek,86.64,258.55,147.42,235.87,641.83,Single-ply,SBD,M
Boys,89.81,2,Cameron Symrl,Keller,88.81,197.31,149.69,183.7,530.7,Single-ply,SBD,M
Boys,89.81,3,Austin Compton,Keller Timber Creek,84.5,165.56,111.13,183.7,460.4,Single-ply,SBD,M
Boys,89.81,4,Eric Simpson,Keller Central,82.83,151.95,95.25,161.03,408.23,Single-ply,SBD,M
Boys,89.81,5,Gage Haskin,Keller Timber Creek,87.45,149.69,95.25,149.69,394.63,Single-ply,SBD,M
Boys,89.81,6,Grady Getz,Keller Timber Creek,88.22,151.95,88.45,149.69,390.09,Single-ply,SBD,M
Boys,89.81,DQ,Blake Irving,Keller Timber Creek,89.81,204.12,95.25,204.12,,Single-ply,SBD,M
Boys,89.81,DQ,Zach Luna,Keller,84.37,183.7,129.27,192.78,,Single-ply,SBD,M
Boys,89.81,DQ,Eric Cooper,Keller Central,85.23,142.88,86.18,142.88,,Single-ply,SBD,M
Boys,99.79,1,Rodney Banks,Keller,98.84,226.8,170.1,226.8,623.69,Single-ply,SBD,M
Boys,99.79,2,Landon Sleeper,Keller Central,94.35,235.87,133.81,204.12,573.79,Single-ply,SBD,M
Boys,99.79,3,John Hester,Keller Timber Creek,97.52,219.99,145.15,190.51,555.65,Single-ply,SBD,M
Boys,99.79,4,James Williams,Keller Timber Creek,93.08,197.31,117.93,188.24,503.49,Single-ply,SBD,M
Boys,99.79,5,Cade McGuffin,Keller Central,99.47,190.51,115.67,183.7,489.88,Single-ply,SBD,M
Boys,99.79,6,Richard Silva,Keller Central,93.94,195.04,92.99,181.44,469.47,Single-ply,SBD,M
Boys,99.79,7,Max Arnold,Keller Timber Creek,90.4,179.17,92.99,174.63,446.79,Single-ply,SBD,M
Boys,99.79,8,Sean Smith,Keller Fossil Ridge,92.08,154.22,95.25,195.04,444.52,Single-ply,SBD,M
Boys,99.79,9,Alexander Awan,Keller Timber Creek,93.76,142.88,83.91,151.95,378.75,Single-ply,SBD,M
Boys,99.79,10,Grant McLaughlin,Keller,93.58,124.74,88.45,156.49,369.68,Single-ply,SBD,M
Boys,99.79,DQ,Roen Alonso,Keller Central,99.79,142.88,83.91,142.88,,Single-ply,SBD,M
Boys,99.79,DQ,Evan Johnson,Keller Timber Creek,97.93,183.7,86.18,158.76,,Single-ply,SBD,M
Boys,109.77,1,Sean Payne,Keller,105.01,272.16,158.76,235.87,666.78,Single-ply,SBD,M
Boys,109.77,2,Gelvin Pluas,Keller Timber Creek,107.41,226.8,129.27,174.63,530.7,Single-ply,SBD,M
Boys,109.77,3,Brett Phillips,Keller Timber Creek,106.23,204.12,97.52,179.17,480.81,Single-ply,SBD,M
Boys,109.77,4,Joshua Clenin,Keller Timber Creek,100.79,192.78,120.2,165.56,478.54,Single-ply,SBD,M
Boys,109.77,5,Danny Zuniga,Keller Timber Creek,106.05,183.7,113.4,174.63,471.74,Single-ply,SBD,M
Boys,109.77,6,Harrison Barsanti,Keller Timber Creek,105.87,142.88,102.06,149.69,394.63,Single-ply,SBD,M
Boys,109.77,7,Oscar Gurrola,Keller Fossil Ridge,99.97,102.06,61.23,170.1,333.39,Single-ply,SBD,M
Boys,109.77,DQ,Isaac Acree,Keller Timber Creek,109.77,145.15,90.72,142.88,,Single-ply,SBD,M
Boys,109.77,DQ,Kevin McMurtrey,Keller Fossil Ridge,101.92,156.49,92.99,158.76,,Single-ply,SBD,M
Boys,124.74,1,Alex Cabrera,Keller Timber Creek,112.63,219.99,113.4,183.7,517.1,Single-ply,SBD,M
Boys,124.74,2,Pablo Hinojosa,Keller Timber Creek,115.48,197.31,104.33,161.03,462.66,Single-ply,SBD,M
Boys,124.74,3,JT Sleeper,Keller Central,110.31,174.63,95.25,147.42,417.3,Single-ply,SBD,M
Boys,124.74,4,Noah Perez,Keller Timber Creek,122.02,174.63,92.99,136.08,403.7,Single-ply,SBD,M
Boys,124.74,5,Kylen Patrias,Keller Fossil Ridge,121.43,158.76,83.91,158.76,401.43,Single-ply,SBD,M
Boys,124.74,DQ,Caden Barry,Keller Fossil Ridge,120.2,151.95,83.91,142.88,,Single-ply,SBD,M
Boys,124.74,DQ,Jace Merrit,Keller Central,124.74,183.7,97.52,172.37,,Single-ply,SBD,M
Boys,124.74,DQ,Garrett Downs,Keller Timber Creek,110.09,142.88,79.38,113.4,,Single-ply,SBD,M
Boys,124.74+,1,Alex Ederson,Keller Fossil Ridge,140.93,235.87,127.01,272.16,635.03,Single-ply,SBD,M
Boys,124.74+,2,Adrian Alcantara,Keller Central,126.96,215.46,108.86,204.12,528.44,Single-ply,SBD,M
Boys,124.74+,NS,Michael Bullington,Keller Central,,204.12,117.93,172.37,,Single-ply,SBD,M
Boys,124.74+,NS,Andrew Draeger,Keller Central,,124.74,83.91,124.74,,Single-ply,SBD,M
