Division,WeightClassKg,Place,Name,Team,BodyweightKg,Best3SquatKg,Best3BenchKg,Best3DeadliftKg,TotalKg,Equipment,Event,Sex
Boys,51.71,1,Jose Hernandez,Karnes City,51.71,129.27,81.65,140.61,351.53,Single-ply,SBD,M
Boys,51.71,2,Matt Garza,Jourdanton,45.54,129.27,77.11,129.27,335.66,Single-ply,SBD,M
Boys,51.71,3,Rudy Rios,Devine,51.44,108.86,63.5,138.35,310.71,Single-ply,SBD,M
Boys,51.71,4,Jose Gomez,Crystal City,50.8,111.13,56.7,136.08,303.91,Single-ply,SBD,M
Boys,51.71,5,Hector Lozano,Laredo United South,51.71,97.52,72.57,131.54,301.64,Single-ply,SBD,M
Boys,51.71,6,Maverick Graham,Lytle,49.44,108.86,61.23,108.86,278.96,Single-ply,SBD,M
Boys,51.71,7,Seth Aguinaga,Lytle,48.99,102.06,47.63,117.93,267.62,Single-ply,SBD,M
Boys,51.71,8,Justin Griggs,Castroville Medina Valley,45.54,79.38,49.9,90.72,219.99,Single-ply,SBD,M
Boys,51.71,DQ,Robert Gonzalez,Laredo Cigarroa,50.08,,,,,Single-ply,SBD,M
Boys,51.71,NS,Michael Ortiz,Somerset,,,,,,Single-ply,SBD,M
Boys,51.71,DQ,Tyrese Martinez,Stockdale,51.71,104.33,70.31,,,Single-ply,SBD,M
Boys,55.79,1,Isaac Castillo,Laredo Cigarroa,54.88,174.63,90.72,172.37,437.72,Single-ply,SBD,M
Boys,55.79,2,Cesar Esquivel,Laredo Cigarroa,55.34,174.63,70.31,185.97,430.91,Single-ply,SBD,M
Boys,55.79,3,Jm Elizondo,Pearsall,54.88,165.56,83.91,165.56,415.04,Single-ply,SBD,M
Boys,55.79,4,Anthony Perez,San Antonio Cole,55.34,140.61,86.18,156.49,383.29,Single-ply,SBD,M
Boys,55.79,5,Isaiah Lucio,Pearsall,52.16,122.47,95.25,147.42,365.14,Single-ply,SBD,M
Boys,55.79,6,Johnny Jimenez,Stockdale,55.34,136.08,72.57,142.88,351.53,Single-ply,SBD,M
Boys,55.79,7,Sebastian Estrada,Somerset,55.79,122.47,72.57,149.69,344.73,Single-ply,SBD,M
Boys,55.79,8,Tristan Butler,Bandera,52.07,111.13,58.97,120.2,290.3,Single-ply,SBD,M
Boys,55.79,9,Justin Jones,Universal City Randolph,52.62,111.13,68.04,102.06,281.23,Single-ply,SBD,M
Boys,55.79,10,Franco Rullan,Laredo Nixon,55.79,102.06,61.23,108.86,272.16,Single-ply,SBD,M
Boys,55.79,NS,Frank Ybarra #2,Laredo Nixon,,,,,,Single-ply,SBD,M
Boys,55.79,DQ,Jose Rocha,Somerset,53.52,,,,,Single-ply,SBD,M
Boys,55.79,DQ,Jermaine Mendiola,Somerset,53.07,181.44,,,,Single-ply,SBD,M
Boys,55.79,DQ,Michael Donato,San Antonio Memorial,55.34,,,,,Single-ply,SBD,M
Boys,59.87,1,Rudy Martinez,Carrizo Springs,59.42,210.92,99.79,210.92,521.63,Single-ply,SBD,M
Boys,59.87,2,Juan Carmona,Laredo United,59.87,149.69,106.59,192.78,449.06,Single-ply,SBD,M
Boys,59.87,3,Uriel Solorzano,Jourdanton,59.87,192.78,88.45,165.56,446.79,Single-ply,SBD,M
Boys,59.87,4,Raul Cruz,Carrizo Springs,59.42,163.29,95.25,185.97,444.52,Single-ply,SBD,M
Boys,59.87,5,Kris Imhof,San Antonio Cole,58.97,156.49,88.45,174.63,419.57,Single-ply,SBD,M
Boys,59.87,6,Gil Garcia,Crystal City,59.87,140.61,77.11,163.29,381.02,Single-ply,SBD,M
Boys,59.87,7,Colton Rodriguez,Jourdanton,58.06,154.22,72.57,149.69,376.48,Single-ply,SBD,M
Boys,59.87,8,Paul Santana,Devine,59.42,136.08,77.11,136.08,349.27,Single-ply,SBD,M
Boys,59.87,9,Robert Rendon,Crystal City,59.87,124.74,68.04,151.95,344.73,Single-ply,SBD,M
Boys,59.87,10,Benjamin Uribe,Jourdanton,58.97,124.74,72.57,129.27,326.59,Single-ply,SBD,M
Boys,59.87,DQ,Neco Camarillo,Jourdanton,58.51,147.42,56.7,142.88,,Single-ply,SBD,M
Boys,59.87,DQ,Morgan Olivarri,Jourdanton,58.51,154.22,74.84,138.35,,Single-ply,SBD,M
Boys,59.87,NS,Homer Flores,Laredo Nixon,,,,,,Single-ply,SBD,M
Boys,59.87,NS,Rene Cabrerra,Laredo Cigarroa,,,,,,Single-ply,SBD,M
Boys,59.87,DQ,Eric Oliva,Laredo United South,56.15,,,,,Single-ply,SBD,M
Boys,59.87,DQ,Aaron Realme,Pearsall,59.87,163.29,,,,Single-ply,SBD,M
Boys,59.87,NS,Jose Heraldo Chapa,Castroville Medina Valley,,,,,,Single-ply,SBD,M
Boys,59.87,DQ,Esai DeLuna,Carrizo Springs,59.87,,,,,Single-ply,SBD,M
Boys,59.87,NS,Jesse Zimmel,Bandera,,,,,,Single-ply,SBD,M
Boys,59.87,DQ,Adrian Esquibel,Devine,58.51,,,,,Single-ply,SBD,M
Boys,59.87,DQ,Nathan Pena,Dilley,59.87,,,,,Single-ply,SBD,M
Boys,59.87,DQ,Robert Perez,Uvalde,59.87,142.88,,,,Single-ply,SBD,M
Boys,67.13,1,Jonathan Pena,Laredo United South,66.22,222.26,131.54,215.46,569.26,Single-ply,SBD,M
Boys,67.13,2,Felix Gutierrez,Crystal City,64.41,195.04,138.35,204.12,537.51,Single-ply,SBD,M
Boys,67.13,3,Kutter Schmidt,Devine,67.13,222.26,124.74,190.51,537.51,Single-ply,SBD,M
Boys,67.13,4,Matthew Valdez,Stockdale,66.22,195.04,113.4,181.44,489.88,Single-ply,SBD,M
Boys,67.13,5,Christian Cedeno,Lytle,66.68,188.24,104.33,181.44,474,Single-ply,SBD,M
Boys,67.13,6,Eden Martinez,Carrizo Springs,67.13,181.44,102.06,185.97,469.47,Single-ply,SBD,M
Boys,67.13,8,Martin Delgado,Pearsall,66.22,158.76,104.33,181.44,444.52,Single-ply,SBD,M
Boys,67.13,9,Benny Cisneros,Devine,67.13,149.69,102.06,185.97,437.72,Single-ply,SBD,M
Boys,67.13,10,Brandon Davis,Jourdanton,62.6,170.1,77.11,149.69,396.89,Single-ply,SBD,M
Boys,67.13,11,Brandon De Los Santos,Jourdanton,63.96,161.03,86.18,149.69,396.89,Single-ply,SBD,M
Boys,67.13,12,Alfonzo Cruz,Carrizo Springs,63.96,136.08,86.18,151.95,374.21,Single-ply,SBD,M
Boys,67.13,13,Ramiro Gaitan,Charlotte,60.33,90.72,88.45,120.2,299.37,Single-ply,SBD,M
Boys,67.13,14,Michael Camacho,San Antonio Memorial,66.68,88.45,45.36,138.35,272.16,Single-ply,SBD,M
Boys,67.13,DQ,Albert Alvarez,Jourdanton,61.23,165.56,106.59,163.29,,Single-ply,SBD,M
Boys,67.13,DQ,Robert Kinsel,Jourdanton,63.96,154.22,72.57,151.95,,Single-ply,SBD,M
Boys,67.13,DQ,Zach Trujillo,Universal City Randolph,63.96,192.78,102.06,,,Single-ply,SBD,M
Boys,67.13,DQ,Devin McMahan,Stockdale,65.32,165.56,104.33,,,Single-ply,SBD,M
Boys,67.13,DQ,Ricardo Gonzalez,Laredo Nixon,66.22,136.08,90.72,,,Single-ply,SBD,M
Boys,67.13,DQ,Jared Meyer,Jourdanton,65.77,102.06,,,,Single-ply,SBD,M
Boys,67.13,NS,Calvin Starnes,Bandera,,,,,,Single-ply,SBD,M
Boys,67.13,NS,Zach Markgraf,Bandera,,,,,,Single-ply,SBD,M
Boys,74.84,1,Craig Wells,San Antonio Brooks Academy,74.84,224.53,131.54,233.6,589.67,Single-ply,SBD,M
Boys,74.84,2,Nathan Medrano,Lytle,72.12,229.06,131.54,192.78,553.38,Single-ply,SBD,M
Boys,74.84,3,Yahir Garcia,Laredo United South,74.84,195.04,120.2,226.8,542.04,Single-ply,SBD,M
Boys,74.84,4,Trip Locke,Jourdanton,71.21,192.78,142.88,197.31,532.97,Single-ply,SBD,M
Boys,74.84,5,Nathan Garcia,Jourdanton,73.94,206.38,111.13,192.78,510.29,Single-ply,SBD,M
Boys,74.84,6,Jerren Scott,San Antonio Cole,73.03,165.56,115.67,188.24,469.47,Single-ply,SBD,M
Boys,74.84,7,Deiondre Omoruyi,Carrizo Springs,67.4,172.37,92.99,185.97,451.32,Single-ply,SBD,M
Boys,74.84,7,Mark Molina,Laredo Cigarroa,72.12,179.17,88.45,199.58,467.2,Single-ply,SBD,M
Boys,74.84,8,Brock Gonzales,Universal City Randolph,74.84,140.61,81.65,172.37,394.63,Single-ply,SBD,M
Boys,74.84,9,Isaiah Martinez,Lytle,72.57,145.15,90.72,154.22,390.09,Single-ply,SBD,M
Boys,74.84,10,William Locke,Jourdanton,73.94,138.35,90.72,161.03,390.09,Single-ply,SBD,M
Boys,74.84,11,Sol Rodriguez,Pearsall,69.4,142.88,86.18,147.42,376.48,Single-ply,SBD,M
Boys,74.84,12,Ritchie San Miguel,Dilley,72.12,83.91,43.09,102.06,229.06,Single-ply,SBD,M
Boys,74.84,DQ,Matt Fanno,Jourdanton,68.49,183.7,90.72,183.7,,Single-ply,SBD,M
Boys,74.84,DQ,Jonathan Daughtery,Bandera,74.84,,,,,Single-ply,SBD,M
Boys,74.84,DQ,Leroy Torres,Castroville Medina Valley,73.94,,,,,Single-ply,SBD,M
Boys,74.84,DQ,Antonio Martinez,Lytle,73.71,,,,,Single-ply,SBD,M
Boys,74.84,NS,Andy DeLeon,Laredo Nixon,,,,,,Single-ply,SBD,M
Boys,74.84,NS,Sergio Garcia,Laredo Nixon,,,,,,Single-ply,SBD,M
Boys,74.84,NS,Christian Hosley,Universal City Randolph,,,,,,Single-ply,SBD,M
Boys,74.84,DQ,Hunter Dupleiss,San Antonio Cole,70.76,136.08,86.18,,,Single-ply,SBD,M
Boys,74.84,NS,Matt Esparza,San Antonio Memorial,,,,,,Single-ply,SBD,M
Boys,82.1,1,Robert Castillo,La Pryor,81.65,210.92,127.01,240.4,578.33,Single-ply,SBD,M
Boys,82.1,2,Bryce Turner,Laredo Alexander,77.11,213.19,154.22,204.12,571.53,Single-ply,SBD,M
Boys,82.1,3,Marco DeLuna,Laredo United South,80.74,229.06,136.08,206.38,571.53,Single-ply,SBD,M
Boys,82.1,4,Chris Ortiz,Laredo Nixon,80.74,201.85,108.86,249.48,560.19,Single-ply,SBD,M
Boys,82.1,5,AJ Camacho,Hondo,80.74,226.8,120.2,195.04,542.04,Single-ply,SBD,M
Boys,82.1,6,Jonathan Darby,Lytle,80.44,204.12,99.79,226.8,530.7,Single-ply,SBD,M
Boys,82.1,7,Michael Vasquez,Carrizo Springs,81.65,170.1,115.67,204.12,489.88,Single-ply,SBD,M
Boys,82.1,8,Eliot Ramirez,San Antonio Memorial,78.93,174.63,102.06,174.63,451.32,Single-ply,SBD,M
Boys,82.1,9,Oscar de Luna,San Antonio Memorial,78.47,138.35,72.57,117.93,328.85,Single-ply,SBD,M
Boys,82.1,DQ,Zach Vyvlecka,Jourdanton,75.75,142.88,83.91,167.83,,Single-ply,SBD,M
Boys,82.1,DQ,Baker Livingston,Jourdanton,81.65,170.1,92.99,176.9,,Single-ply,SBD,M
Boys,82.1,NS,Steve Medrano,Dilley,,,,,,Single-ply,SBD,M
Boys,82.1,NS,Landon Ventura,Bandera,,,,,,Single-ply,SBD,M
Boys,82.1,DQ,Christopher Vinton,Pearsall,80.74,235.87,138.35,,,Single-ply,SBD,M
Boys,82.1,DQ,Orlando Medrano,Lytle,81.28,233.6,136.08,,,Single-ply,SBD,M
Boys,82.1,DQ,Nick Calderone,San Antonio Cole,82.1,161.03,,,,Single-ply,SBD,M
Boys,82.1,NS,Jacob Estala,San Antonio Memorial,,,,,,Single-ply,SBD,M
Boys,82.1,DQ,Alex Pena,Somerset,79.38,192.78,,,,Single-ply,SBD,M
Boys,89.81,1,Joe Estrada,Jourdanton,87.54,278.96,172.37,229.06,680.39,Single-ply,SBD,M
Boys,89.81,2,Noe Gonzalez,Laredo United South,88,244.94,142.88,242.67,630.49,Single-ply,SBD,M
Boys,89.81,3,Victor Ramos,Laredo United South,82.55,240.4,149.69,235.87,625.96,Single-ply,SBD,M
Boys,89.81,4,Isaac Morales,Charlotte,85.73,233.6,145.15,231.33,610.08,Single-ply,SBD,M
Boys,89.81,5,John Valdez,Somerset,82.55,235.87,154.22,204.12,594.21,Single-ply,SBD,M
Boys,89.81,6,Silvero Trejo,Pearsall,88.45,233.6,138.35,213.19,585.13,Single-ply,SBD,M
Boys,89.81,7,Dylan Aguinaga,Lytle,84.91,229.06,122.47,229.06,580.6,Single-ply,SBD,M
Boys,89.81,8,Jose Anaya,Laredo United South,85.28,229.06,120.2,231.33,580.6,Single-ply,SBD,M
Boys,89.81,9,Thomas Trevino,Pleasanton,84.37,226.8,131.54,208.65,566.99,Single-ply,SBD,M
Boys,89.81,10,Demetri Molina,Somerset,86.18,215.46,129.27,217.72,562.45,Single-ply,SBD,M
Boys,89.81,11,Jacob Lopez,San Antonio Brooks Academy,88.45,224.53,131.54,201.85,557.92,Single-ply,SBD,M
Boys,89.81,12,Tyler Crisp,Poteet,89.36,226.8,106.59,222.26,555.65,Single-ply,SBD,M
Boys,89.81,13,Ryan Farrell,Universal City Randolph,89.81,226.8,142.88,183.7,553.38,Single-ply,SBD,M
Boys,89.81,14,Daniel Mann,Devine,87.09,181.44,122.47,192.78,496.68,Single-ply,SBD,M
Boys,89.81,15,Josh Guerra,Castroville Medina Valley,84.37,172.37,124.74,185.97,483.08,Single-ply,SBD,M
Boys,89.81,16,Rigo Hernandez,Uvalde,85.28,188.24,102.06,176.9,467.2,Single-ply,SBD,M
Boys,89.81,17,Joshua Cuevas,Pearsall,84.82,161.03,95.25,199.58,455.86,Single-ply,SBD,M
Boys,89.81,18,Josh Jauer,Bandera,85.73,161.03,97.52,156.49,415.04,Single-ply,SBD,M
Boys,89.81,19,Nathan Salazar,Somerset,82.46,124.74,83.91,176.9,385.55,Single-ply,SBD,M
Boys,89.81,20,Adrian Mendoza,Dilley,88,136.08,90.72,124.74,351.53,Single-ply,SBD,M
Boys,89.81,DQ,Calvin Martinez,Carrizo Springs,88.45,,,,,Single-ply,SBD,M
Boys,89.81,NS,Ozziel Cardenas,Laredo Nixon,,,,,,Single-ply,SBD,M
Boys,99.79,1,Marco Banda,Laredo Nixon,93.44,263.08,176.9,219.99,659.98,Single-ply,SBD,M
Boys,99.79,2,Jose Flores,Laredo Cigarroa,97.98,249.48,161.03,240.4,650.91,Single-ply,SBD,M
Boys,99.79,3,Joey Mendez,San Antonio Memorial,99.34,272.16,136.08,229.06,637.3,Single-ply,SBD,M
Boys,99.79,4,Bryan London,Universal City Randolph,93.89,231.33,127.01,244.94,603.28,Single-ply,SBD,M
Boys,99.79,5,Nick Delgado,Pleasanton,94.8,226.8,145.15,215.46,587.4,Single-ply,SBD,M
Boys,109.77,6,Ryan Gibson,Jourdanton,100.02,219.99,151.95,210.92,582.87,Single-ply,SBD,M
Boys,99.79,7,Fabian Huerta,Crystal City,94.35,222.26,122.47,235.87,580.6,Single-ply,SBD,M
Boys,99.79,8,David Bernal,Pleasanton,96.16,249.48,129.27,199.58,578.33,Single-ply,SBD,M
Boys,99.79,9,Freddy Larry,Universal City Randolph,94.35,195.04,136.08,215.46,546.58,Single-ply,SBD,M
Boys,99.79,10,Aaron Lopez,Karnes City,95.25,208.65,136.08,192.78,537.51,Single-ply,SBD,M
Boys,99.79,11,Jose Orellana,La Pryor,91.17,206.38,136.08,190.51,532.97,Single-ply,SBD,M
Boys,99.79,12,Joseph Gaylon,Castroville Medina Valley,96.62,190.51,136.08,195.04,521.63,Single-ply,SBD,M
Boys,99.79,13,Eli Rejino,Devine,97.98,199.58,131.54,183.7,514.83,Single-ply,SBD,M
Boys,99.79,14,Dallin Hack,Castroville Medina Valley,96.62,195.04,129.27,181.44,505.76,Single-ply,SBD,M
Boys,99.79,15,Andrew Garcia,Pleasanton,91.17,188.24,111.13,204.12,503.49,Single-ply,SBD,M
Boys,99.79,16,Cody Kuhl,Universal City Randolph,97.07,172.37,113.4,210.92,496.68,Single-ply,SBD,M
Boys,99.79,17,Isaac Guzmon,Castroville Medina Valley,94.8,190.51,115.67,179.17,485.34,Single-ply,SBD,M
Boys,99.79,18,Francisco Torrecilla,Laredo Nixon,95.25,208.65,79.38,181.44,469.47,Single-ply,SBD,M
Boys,99.79,19,Zack Zavala,Crystal City,95.71,190.51,104.33,167.83,462.66,Single-ply,SBD,M
Boys,99.79,20,Jose Coronado,San Antonio Memorial,94.35,163.29,95.25,167.83,426.38,Single-ply,SBD,M
Boys,99.79,21,Freddy Castellanos,Somerset,96.71,129.27,124.74,154.22,408.23,Single-ply,SBD,M
Boys,99.79,22,Dylan Lutz,Hondo,93.17,124.74,68.04,127.01,319.78,Single-ply,SBD,M
Boys,99.79,DQ,Javier Garcia,Jourdanton,96.16,165.56,79.38,163.29,,Single-ply,SBD,M
Boys,99.79,NS,Frank Balaszi,Jourdanton,,,,,,Single-ply,SBD,M
Boys,99.79,NS,Andrew Ortiz,Jourdanton,,,,,,Single-ply,SBD,M
Boys,109.77,1,Enrique Lugo,Jourdanton,107.5,340.19,226.8,274.42,841.41,Single-ply,SBD,M
Boys,109.77,2,Mark Bocanegra,Jourdanton,100.24,310.71,192.78,235.87,739.36,Single-ply,SBD,M
Boys,109.77,3,Justin Lomas,Crystal City,107.5,272.16,142.88,240.4,655.44,Single-ply,SBD,M
Boys,109.77,4,Joshua Macat,Lytle,109.72,274.42,133.81,224.53,632.76,Single-ply,SBD,M
Boys,109.77,5,Kyle Wilson,Bandera,109.32,224.53,145.15,229.06,598.74,Single-ply,SBD,M
Boys,109.77,6,Agustin Lara,Laredo United South,103.42,215.46,142.88,219.99,578.33,Single-ply,SBD,M
Boys,109.77,7,Ross Reynolds,Jourdanton,105.23,274.42,86.18,206.38,566.99,Single-ply,SBD,M
Boys,109.77,8,Santana Aguilar,Dilley,107.5,226.8,136.08,199.58,562.45,Single-ply,SBD,M
Boys,109.77,9,Jacob Ybarra,Somerset,109.77,210.92,149.69,192.78,553.38,Single-ply,SBD,M
Boys,109.77,10,Jp Ortiz,Devine,104.78,217.72,117.93,206.38,542.04,Single-ply,SBD,M
Boys,109.77,11,Paul Esparza,San Antonio Brooks Academy,104.33,197.31,115.67,217.72,530.7,Single-ply,SBD,M
Boys,109.77,12,Dustin De La Vega,Somerset,101.6,215.46,129.27,170.1,514.83,Single-ply,SBD,M
Boys,109.77,13,Gerardo Morales,Lytle,108.97,204.12,106.59,188.24,498.95,Single-ply,SBD,M
Boys,109.77,14,Joe Tovar,Somerset,104.33,192.78,120.2,174.63,487.61,Single-ply,SBD,M
Boys,109.77,15,Martin Mendez,San Antonio Memorial,106.59,190.51,68.04,179.17,437.72,Single-ply,SBD,M
Boys,109.77,DQ,Robert Cervantez,Dilley,100.7,199.58,108.86,,,Single-ply,SBD,M
Boys,109.77,NS,Darren Garcia,Crystal City,,,,,,Single-ply,SBD,M
Boys,109.77,DQ,Santos Alvarado,Laredo United South,108.41,258.55,,,,Single-ply,SBD,M
Boys,109.77,NS,Pedro Chavirria,Laredo Cigarroa,,,,,,Single-ply,SBD,M
Boys,109.77,DQ,Abe Mayo,San Antonio Cole,106.14,170.1,124.74,,,Single-ply,SBD,M
Boys,109.77,DQ,Jason Cortez,Uvalde,103.87,,,,,Single-ply,SBD,M
Boys,124.74,1,Justin Brister,Jourdanton,120.2,272.16,158.76,235.87,666.78,Single-ply,SBD,M
Boys,124.74,2,Bryce Dowda,Bandera,124.28,251.74,151.95,247.21,650.91,Single-ply,SBD,M
Boys,124.74,3,Carlos Sanchez,Laredo United South,124.28,265.35,133.81,249.48,648.64,Single-ply,SBD,M
Boys,124.74,4,Josh Carroll,Stockdale,119.29,197.31,165.56,254.01,616.89,Single-ply,SBD,M
Boys,124.74,5,Juan Ramirez,Carrizo Springs,121.11,222.26,154.22,222.26,598.74,Single-ply,SBD,M
Boys,124.74,6,Michael Diaz,Stockdale,117.03,231.33,138.35,222.26,591.94,Single-ply,SBD,M
Boys,124.74,7,Jonathan Ramirez,Lytle,113.92,231.33,129.27,222.26,582.87,Single-ply,SBD,M
Boys,124.74,8,Victor Nenque,Laredo Nixon,110.13,229.06,145.15,190.51,564.72,Single-ply,SBD,M
Boys,124.74,9,Noel Mallet,Pleasanton,121.11,235.87,136.08,185.97,557.92,Single-ply,SBD,M
Boys,124.74,10,Bj Frieda,Somerset,116.57,226.8,140.61,183.7,551.11,Single-ply,SBD,M
Boys,124.74,11,Jojo Mata,La Pryor,116.12,226.8,124.74,185.97,537.51,Single-ply,SBD,M
Boys,124.74,12,Nathan Serna,Jourdanton,117.93,222.26,113.4,192.78,528.44,Single-ply,SBD,M
Boys,124.74,13,James Woods,Somerset,114.31,215.46,106.59,192.78,514.83,Single-ply,SBD,M
Boys,124.74,14,Carlos Perez #3,La Pryor,117.48,199.58,120.2,195.04,514.83,Single-ply,SBD,M
Boys,124.74,15,Joshua Salinas,San Antonio Holy Cross,112.49,188.24,113.4,192.78,494.42,Single-ply,SBD,M
Boys,124.74,16,Dylan Stone,Dilley,117.93,122.47,90.72,167.83,381.02,Single-ply,SBD,M
Boys,124.74,DQ,Austin Banks-Wilson,Castroville Medina Valley,113.85,222.26,142.88,,,Single-ply,SBD,M
Boys,124.74,DQ,Migel Garcia,Uvalde,114.31,142.88,92.99,,,Single-ply,SBD,M
Boys,124.74,NS,William Olson,Jourdanton,,,,,,Single-ply,SBD,M
Boys,124.74,NS,Gilbert Hernandez,Laredo Cigarroa,,,,,,Single-ply,SBD,M
Boys,124.74+,1,Rudy Flores,Laredo United South,141.07,351.53,210.92,299.37,861.83,Single-ply,SBD,M
Boys,124.74+,2,Drew Kirkpatrick,Uvalde,138.8,294.84,192.78,240.4,728.02,Single-ply,SBD,M
Boys,124.74+,3,Joseph Peña #1,San Antonio Holy Cross,143.79,331.12,176.9,219.99,728.02,Single-ply,SBD,M
Boys,124.74+,4,JohnPaul Lugo,Jourdanton,126.1,294.84,158.76,249.48,703.07,Single-ply,SBD,M
Boys,124.74+,5,Austyn Carrizales,Dilley,141.97,272.16,136.08,226.8,635.03,Single-ply,SBD,M
Boys,124.74+,6,Isaiah Garcia,Charlotte,125.65,244.94,147.42,226.8,619.15,Single-ply,SBD,M
Boys,124.74+,7,Martin Hidrago,Stockdale,132.9,249.48,140.61,201.85,591.94,Single-ply,SBD,M
Boys,124.74+,8,Mike Garza,Crystal City,126.55,249.48,129.27,210.92,589.67,Single-ply,SBD,M
Boys,124.74+,9,Andrew Bachman,Bandera,133.36,226.8,163.29,199.58,589.67,Single-ply,SBD,M
Boys,124.74+,10,Edward Gonzalez,Crystal City,128.82,226.8,127.01,215.46,569.26,Single-ply,SBD,M
Boys,124.74+,11,Mario Chavez,Carrizo Springs,185.97,206.38,149.69,195.04,551.11,Single-ply,SBD,M
Boys,124.74+,12,Jose Nuno,Devine,131.09,204.12,145.15,185.97,535.24,Single-ply,SBD,M
Boys,124.74+,13,Chris Cobb,Somerset,139.25,185.97,111.13,167.83,464.93,Single-ply,SBD,M
Boys,124.74+,14,Domanic Alaquinez,Somerset,127.73,161.03,99.79,181.44,442.25,Single-ply,SBD,M
Boys,124.74+,15,Saul Biscaino,Jourdanton,136.08,188.24,83.91,167.83,439.98,Single-ply,SBD,M
Boys,124.74+,16,Jesús Torres,Somerset,127.28,158.76,86.18,181.44,426.38,Single-ply,SBD,M
Boys,124.74+,DQ,Joe Reschmann,Somerset,131.54,,,,,Single-ply,SBD,M
Boys,124.74+,DQ,Roland Barcena,San Antonio Holy Cross,137.44,197.31,,,,Single-ply,SBD,M
