Place,Name,State,WeightClassKg,BodyweightKg,Age,Best3SquatKg,Best3BenchKg,Best3DeadliftKg,TotalKg,Sex,Division,Equipment,Event
1,Amanda Walker #1,MS,60,59.87,22,90,57.5,92.5,240,F,Juniors 20-23,Raw,SBD
1,Kayla Stricker,MS,56,55.97,20,92.5,67.5,117.5,277.5,F,Open,Raw,SBD
1,Amber Windham,MS,60,59.15,27,102.5,47.5,130,280,F,Open,Raw,SBD
1,Hannah Newell,MS,67.5,67.31,29,102.5,70,142.5,315,F,Open,Raw,SBD
DQ,Melanie Douglas,AL,82.5,82.1,29,115,-65,150,,F,Open,Raw,SBD
1,Kimberly Bernier,MS,90+,108.41,34,140,62.5,155,357.5,F,Open,Raw,SBD
1,Amy Romero,LA,82.5,81.56,35,115,57.5,125,297.5,F,Submasters 35-39,Raw,SBD
1,Laura Moore,MS,90+,98.52,40,122.5,72.5,147.5,342.5,F,Masters 40-44,Raw,SBD
1,Charles Higgins,MS,60,59.15,23,137.5,107.5,152.5,397.5,M,Juniors 20-23,Raw,SBD
1,Demetrious Luter,MS,75,73.75,20,147.5,105,197.5,450,M,Juniors 20-23,Raw,SBD
1,Glenn Woodruff,LA,82.5,77.47,18,227.5,117.5,230,575,M,Juniors 18-19,Raw,SBD
1,Kyle Travis,MS,90,89.9,23,207.5,165,252.5,625,M,Juniors 20-23,Raw,SBD
2,Aryeh Feldheim,MS,90,84.73,23,182.5,115,187.5,485,M,Juniors 20-23,Raw,SBD
1,Hunter Faunce,LA,110,109.77,19,202.5,142.5,217.5,562.5,M,Juniors 18-19,Raw,SBD
1,Shyam Deolalikar,LA,125,122.11,21,135,105,242.5,482.5,M,Juniors 20-23,Raw,SBD
1,Brandon Maddox #1,AL,75,73.48,22,230,185,250,665,M,Open,Raw,SBD
2,Barry Gladney Jr,MS,75,74.84,27,125,142.5,170,437.5,M,Open,Raw,SBD
1,Yarnell Marks,MS,90,89.36,37,240,160,250,650,M,Open,Raw,SBD
2,Jared Seymour,MS,90,83.1,39,205,140,252.5,597.5,M,Open,Raw,SBD
3,Quentin Bradley,LA,90,87.36,30,185,170,227.5,582.5,M,Open,Raw,SBD
1,Eric Lease,MS,100,96.98,29,207.5,140,225,572.5,M,Open,Raw,SBD
2,Ryan Smith,MS,100,91.35,29,180,102.5,197.5,480,M,Open,Raw,SBD
1,Sherrod Bowens,MS,110,105.87,26,240,170,260,670,M,Open,Raw,SBD
DQ,John Ball,LA,110,104.78,28,162.5,-82.5,,,M,Open,Raw,SBD
1,Phillip Mardis,LA,125,124.01,27,317.5,250,325,892.5,M,Open,Raw,SBD
1,Greg Haynes,MS,140,133.36,26,182.5,147.5,197.5,527.5,M,Open,Raw,SBD
1,Yarnell Marks,MS,90,89.36,37,240,160,250,650,M,Submasters 35-39,Raw,SBD
1,John Trapani,LA,75,74.84,61,135,95,165,395,M,Masters 60-64,Raw,SBD
1,Timothy Singletary,LA,90,89.99,57,165,97.5,190,452.5,M,Masters 55-59,Raw,SBD
1,Jayson Tisdale,MS,140+,142.34,42,192.5,122.5,227.5,542.5,M,Masters 40-44,Raw,SBD
1,Melissa Miller,MS,60,59.33,20,105,45,142.5,292.5,F,Juniors 20-23,Wraps,SBD
1,Taylor Bryan,MS,75,73.03,23,152.5,85,150,387.5,F,Juniors 20-23,Wraps,SBD
1,Kara Trigg,MS,56,55.88,24,117.5,52.5,102.5,272.5,F,Open,Wraps,SBD
1,Leah Benoit,MS,67.5,62.96,27,157.5,77.5,170,405,F,Open,Wraps,SBD
2,Lauren Waldrop,MS,67.5,67.4,24,145,60,170,375,F,Open,Wraps,SBD
3,Amanda Belk,MS,67.5,60.42,30,112.5,55,140,307.5,F,Open,Wraps,SBD
1,Taylor Bryan,MS,75,73.03,23,152.5,85,150,387.5,F,Open,Wraps,SBD
1,Kyreecus Welch,MS,67.5,64.59,20,160,125,187.5,472.5,M,Juniors 20-23,Wraps,SBD
1,Avery Vodanovich,LA,75,71.85,20,207.5,140,192.5,540,M,Juniors 20-23,Wraps,SBD
1,Brian Le,MS,110,107.05,22,217.5,165,240,622.5,M,Juniors 20-23,Wraps,SBD
1,Robert Wood,LA,75,74.93,41,197.5,147.5,245,590,M,Open,Wraps,SBD
1,John Brennan,IL,82.5,82.1,28,205,125,245,575,M,Open,Wraps,SBD
1,Jason Smith,LA,90,89.9,29,242.5,165,287.5,695,M,Open,Wraps,SBD
2,Andrew Lorino,LA,90,89.72,26,245,187.5,255,687.5,M,Open,Wraps,SBD
3,Raymond Moore,MS,90,84.1,29,220,145,227.5,592.5,M,Open,Wraps,SBD
1,Greg Wise,MS,100,98.97,24,325,205,320,850,M,Open,Wraps,SBD
2,Ryan Newell,MS,100,95.44,29,320,192.5,300,812.5,M,Open,Wraps,SBD
3,Daniel Cooper,MS,100,94.89,25,210,152.5,237.5,600,M,Open,Wraps,SBD
1,Tee Cummins,MS,110,105.87,22,357.5,207.5,345,910,M,Open,Wraps,SBD
2,Colton Seymour,MS,110,108.86,26,290,182.5,287.5,760,M,Open,Wraps,SBD
3,Derek Brignac,MS,110,108.86,25,227.5,150,240,617.5,M,Open,Wraps,SBD
4,Garrett Newell,LA,110,106.78,25,62.5,182.5,282.5,527.5,M,Open,Wraps,SBD
1,Kevin Alexander,MS,125,119.48,26,262.5,195,282.5,740,M,Open,Wraps,SBD
2,Tim Yarnell,MS,125,114.76,29,220,142.5,237.5,600,M,Open,Wraps,SBD
1,Eric Adams,MS,140+,145.6,26,280,205,287.5,772.5,M,Open,Wraps,SBD
1,Robert Wood,LA,75,74.93,41,197.5,147.5,245,590,M,Masters 40-44,Wraps,SBD
1,Roger Fox,MS,90,89.99,49,150,122.5,170,442.5,M,Masters 45-49,Wraps,SBD
1,Christopher Grizzard,MS,100,98.34,42,200,142.5,197.5,540,M,Masters 40-44,Wraps,SBD
1,Russell Loper,LA,110,108.23,51,200,150,227.5,577.5,M,Masters 50-54,Wraps,SBD
1,Ciara Harmon,MS,56,54.07,14,125,57.5,112.5,295,F,Juniors 13-15,Single-ply,SBD
1,Logan Weeks,AL,125,116.75,21,295,205,295,795,M,Juniors 20-23,Multi-ply,SBD
DQ,Tim Bower,LA,125,120.75,33,75,-210,272.5,,M,Open,Multi-ply,SBD
1,Jean Townsend,MS,90+,93.8,32,,62.5,,62.5,F,Open,Raw,B
1,Robert Taylor Jr,LA,125,124.01,19,,235,,235,M,Juniors 18-19,Raw,B
1,David Courtney,MS,125,117.3,22,,185,,185,M,Juniors 20-23,Raw,B
1,Kevin Harmon,MS,82.5,77.47,37,,185,,185,M,Open,Raw,B
1,Andrew Lorino,LA,90,89.58,26,,187.5,,187.5,M,Open,Raw,B
2,Cale Gammon,LA,90,89.9,26,,150,,150,M,Open,Raw,B
1,Bobby Bowlin,PA,110,108.41,33,,192.5,,192.5,M,Open,Raw,B
1,Robert Taylor Jr,LA,125,124.01,19,,235,,235,M,Open,Raw,B
2,Phil Maranto,LA,125,118.66,33,,212.5,,212.5,M,Open,Raw,B
1,Chris Getzewich,GA,90,87.72,22,,,232.5,232.5,M,Juniors 20-23,Raw,D
1,Michael Petyak,MS,110,104.42,41,,,222.5,222.5,M,Masters 40-44,Raw,D
1,Robert Warr Jr,LA,140,139.34,63,,,205,205,M,Masters 60-64,Raw,D
