Place,Name,State,WeightClassKg,BodyweightKg,Age,Best3SquatKg,Best3BenchKg,Best3DeadliftKg,TotalKg,Sex,Division,Equipment,Event
1,Kathryn Manz,MO,56,55.2,21,110,52.5,107.5,270,F,Juniors 20-23,Raw,SBD
1,Emily Burgess,MO,60,59.8,22,125,72.5,145,342.5,F,Juniors 20-23,Raw,SBD
1,Abby Berner,KS,67.5,66.8,17,125,67.5,142.5,335,F,Juniors 16-17,Raw,SBD
1,Carmen Guyer,KS,75,70.6,19,122.5,72.5,127.5,322.5,F,Juniors 18-19,Raw,SBD
1,Jordan Miesner,MO,82.5,79.2,23,150,75,162.5,387.5,F,Juniors 20-23,Raw,SBD
1,Cheyenne Howard,KS,90+,96.8,18,140,52.5,142.5,335,F,Juniors 18-19,Raw,SBD
1,Caree Mead,MO,52,50.6,26,87.5,45,112.5,245,F,Open,Raw,SBD
1,Kelsie Feagan,CA,56,55.2,27,95,52.5,145,292.5,F,Open,Raw,SBD
1,Nadia Wyatt,MO,60,58,28,170,95,167.5,432.5,F,Open,Raw,SBD
2,Becky Rich,MO,60,58.8,37,132.5,97.5,150,380,F,Open,Raw,SBD
3,Sarah Duarte,KS,60,56.6,28,80,57.5,137.5,275,F,Open,Raw,SBD
4,Heather Myers,KS,60,59.8,27,90,65,112.5,267.5,F,Open,Raw,SBD
1,Michelle Paquette,KS,67.5,64,34,117.5,77.5,147.5,342.5,F,Open,Raw,SBD
2,Kristen Jukes,MO,67.5,65.4,32,117.5,75,150,342.5,F,Open,Raw,SBD
3,Victoria Henderson,MO,67.5,61,25,82.5,65,120,267.5,F,Open,Raw,SBD
4,Robyn Klepko,MO,67.5,64.8,31,85,55,117.5,257.5,F,Open,Raw,SBD
5,Josie Defeo,MO,67.5,67.2,24,102.5,52.5,102.5,257.5,F,Open,Raw,SBD
6,Lacey Tucker,MO,67.5,62.4,24,70,50,115,235,F,Open,Raw,SBD
1,Jordan Fryer,MO,75,73.4,32,112.5,60,152.5,325,F,Open,Raw,SBD
2,Carmen Guyer,KS,75,70.6,19,122.5,72.5,127.5,322.5,F,Open,Raw,SBD
3,Angie Peck,MO,75,74.2,39,92.5,55,145,292.5,F,Open,Raw,SBD
4,Melody McDonnald,MO,75,74.2,28,92.5,57.5,142.5,292.5,F,Open,Raw,SBD
5,Liz Shelton,MO,75,70.8,27,110,50,122.5,282.5,F,Open,Raw,SBD
1,Jordan Miesner,MO,82.5,79.2,23,150,75,162.5,387.5,F,Open,Raw,SBD
2,Heather Murphy,MO,82.5,82.2,39,125,82.5,157.5,365,F,Open,Raw,SBD
3,Mallory Bailey,MO,82.5,76.6,25,107.5,57.5,142.5,307.5,F,Open,Raw,SBD
1,Mia Vala,MO,90,89.2,36,140,75,167.5,382.5,F,Open,Raw,SBD
2,Ashley Van Iseghem,MO,90,86,29,145,67.5,147.5,360,F,Open,Raw,SBD
3,Brittany Williams,MO,90,88,26,117.5,50,140,307.5,F,Open,Raw,SBD
1,Kiersten Scurlock,IA,90+,95.4,26,212.5,92.5,210,515,F,Open,Raw,SBD
2,Holly Sullivan,NE,90+,112.8,38,142.5,72.5,155,370,F,Open,Raw,SBD
3,Tasha Brantley,MO,90+,101,31,117.5,60,137.5,315,F,Open,Raw,SBD
4,Ashley Dugan,KS,90+,165,30,120,62.5,127.5,310,F,Open,Raw,SBD
1,Rachel Sestrich,MO,67.5,61,37,95,47.5,132.5,275,F,Submasters 35-39,Raw,SBD
1,Angie Peck,MO,75,74.2,39,92.5,55,145,292.5,F,Submasters 35-39,Raw,SBD
2,Jennifer Ward,KS,75,72,36,80,47.5,105,232.5,F,Submasters 35-39,Raw,SBD
1,Holly Sullivan,NE,90+,112.8,38,142.5,72.5,155,370,F,Submasters 35-39,Raw,SBD
1,Kay Walden,KS,67.5,67.4,58,122.5,60,140,322.5,F,Masters 55-59,Raw,SBD
1,Molly Daugherty,MO,75,71,42,70,47.5,110,227.5,F,Masters 40-44,Raw,SBD
1,Colleen Jumper,IL,82.5,80.2,59,80,50,117.5,247.5,F,Masters 55-59,Raw,SBD
1,Jennifer Ritter,MO,90+,108,40,127.5,65,150,342.5,F,Masters 40-44,Raw,SBD
1,Michelle Hadden,KS,90+,92.6,57,92.5,57.5,132.5,282.5,F,Masters 55-59,Raw,SBD
1,Lucas Ramsey,MO,67.5,63.8,16,117.5,70,120,307.5,M,Juniors 16-17,Raw,SBD
1,Dereck Lopez,KS,75,73.2,20,155,97.5,185,437.5,M,Juniors 20-23,Raw,SBD
1,Noah Arni,MO,90,88,21,220,150,235,605,M,Juniors 20-23,Raw,SBD
1,Cameron Smith #5,MO,110,102.6,22,232.5,140,252.5,625,M,Juniors 20-23,Raw,SBD
1,Davin Thullesen,MO,125,120,16,210,130,247.5,587.5,M,Juniors 16-17,Raw,SBD
1,Brady Wiggs,MO,67.5,66.6,24,152.5,85,185,422.5,M,Open,Raw,SBD
1,Mark Doronio,KS,75,75,31,182.5,130,230,542.5,M,Open,Raw,SBD
1,Chris Lukefahr,MO,82.5,81,31,235,170,267.5,672.5,M,Open,Raw,SBD
2,Jeremy Rogers,KS,82.5,80.8,26,230,155,280,665,M,Open,Raw,SBD
3,Rob Messerli,KS,82.5,80.8,29,220,125,230,575,M,Open,Raw,SBD
4,Jonathan Shapiro,MO,82.5,79.2,34,152.5,107.5,190,450,M,Open,Raw,SBD
5,Stephen Jones,MO,82.5,78.4,28,142.5,102.5,175,420,M,Open,Raw,SBD
DQ,Ronald Tolie,MO,82.5,76.8,29,185,132.5,,,M,Open,Raw,SBD
1,Matthew Schenone,KS,90,89,26,287.5,172.5,290,750,M,Open,Raw,SBD
2,Michael Adriano,MO,90,90,24,220,137.5,317.5,675,M,Open,Raw,SBD
3,Austin Stone,MO,90,89.4,26,207.5,132.5,230,570,M,Open,Raw,SBD
4,Nick Martin,MO,90,89.2,29,187.5,120,217.5,525,M,Open,Raw,SBD
1,Clinton Johnson,KS,100,97.8,27,260,150,275,685,M,Open,Raw,SBD
2,Dalton Cutting,MO,100,99.8,24,240,137.5,240,617.5,M,Open,Raw,SBD
3,Austin Myers,KS,100,98.8,28,175,127.5,252.5,555,M,Open,Raw,SBD
4,Rudy Camacho,MO,100,97.8,25,182.5,130,215,527.5,M,Open,Raw,SBD
5,Evan Thompson,KS,100,92.6,35,160,112.5,190,462.5,M,Open,Raw,SBD
DQ,Kev Luong,KS,100,95.6,25,,,,,M,Open,Raw,SBD
1,Delon Knight,KS,125,123.2,25,300,200,312.5,812.5,M,Open,Raw,SBD
2,Ryan DeLeon,KS,125,120,38,265,162.5,272.5,700,M,Open,Raw,SBD
3,Frank Marshall,MO,125,112.2,26,200,142.5,255,597.5,M,Open,Raw,SBD
4,BJ Cummins,MO,125,123,37,192.5,155,250,597.5,M,Open,Raw,SBD
5,Eric Manche,MO,125,120.8,30,175,110,235,520,M,Open,Raw,SBD
1,Eric Stephens,IA,100,97.6,35,242.5,142.5,265,650,M,Submasters 35-39,Raw,SBD
1,Ryan DeLeon,KS,125,120,38,265,162.5,272.5,700,M,Submasters 35-39,Raw,SBD
2,BJ Cummins,MO,125,123,37,192.5,155,250,597.5,M,Submasters 35-39,Raw,SBD
1,Wade Tozier,KS,90,88,40,152.5,80,152.5,385,M,Masters 40-44,Raw,SBD
1,Stan Mitchell,KS,100,98,52,160,130,205,495,M,Masters 50-54,Raw,SBD
1,Miguel Conchola,MO,110,107.4,42,195,120,230,545,M,Masters 40-44,Raw,SBD
1,Jared Ramsey,MO,110,101.4,46,165,107.5,157.5,430,M,Masters 45-49,Raw,SBD
1,Haley Hill,IL,56,55.6,21,162.5,92.5,177.5,432.5,F,Juniors 20-23,Wraps,SBD
1,Kameron Christopher,KS,67.5,65.2,20,75,40,117.5,232.5,F,Juniors 20-23,Wraps,SBD
1,Haley Hill,IL,56,55.6,21,162.5,92.5,177.5,432.5,F,Open,Wraps,SBD
1,Monica Morris,MO,67.5,66.6,45,167.5,107.5,185,460,F,Open,Wraps,SBD
2,Lachelle Dunbar,MO,67.5,66.2,29,130,70,150,350,F,Open,Wraps,SBD
1,Allison Mayer,KS,82.5,79.4,25,152.5,65,152.5,370,F,Open,Wraps,SBD
1,Delight Curtis,IA,67.5,61.8,42,107.5,60,127.5,295,F,Masters 40-44,Wraps,SBD
1,Monica Morris,MO,67.5,66.6,45,167.5,107.5,185,460,F,Masters 45-49,Wraps,SBD
1,Dylan Smith,KS,100,96.2,19,327.5,215,275,817.5,M,Juniors 18-19,Wraps,SBD
1,Justin Canterberry,MO,90,87.2,33,222.5,135,230,587.5,M,Open,Wraps,SBD
2,Dom Fells,MO,90,88.8,26,190,155,215,560,M,Open,Wraps,SBD
1,Dylan Smith,KS,100,96.2,19,327.5,215,275,817.5,M,Open,Wraps,SBD
2,Drew Mitchell,KS,100,99.2,24,295,177.5,285,757.5,M,Open,Wraps,SBD
3,Aaron Ewy,KS,100,96.4,24,282.5,187.5,277.5,747.5,M,Open,Wraps,SBD
1,Anthony Betcher,IL,110,106.2,24,272.5,187.5,250,710,M,Open,Wraps,SBD
1,Caleb Stephens,KS,125,118.2,29,295,192.5,330,817.5,M,Open,Wraps,SBD
2,Travis Simon,KS,125,120.4,24,285,160,307.5,752.5,M,Open,Wraps,SBD
3,Link Burchett,MO,125,124.2,30,270,190,205,665,M,Open,Wraps,SBD
1,Gary Hackney,MO,110,109.4,53,180,115,217.5,512.5,M,Masters 50-54,Wraps,SBD
1,Mark Leahy,MO,100,97.4,56,235,185,237.5,657.5,M,Masters 55-59,Single-ply,SBD
1,Isaias Ramirez,KS,100,96.6,25,,150,272.5,422.5,M,Open,Raw,BD
