Place,Name,State,WeightClassKg,BodyweightKg,Age,Best3SquatKg,Best3BenchKg,Best3DeadliftKg,TotalKg,Sex,Division,Equipment,Event
1,Christina Warren,FL,60,59.33,23,82.5,42.5,110,235,F,Juniors 20-23,Raw,SBD
1,Demiree Durkin,FL,67.5,67.18,22,117.5,62.5,137.5,317.5,F,Juniors 20-23,Raw,SBD
1,Amber Luning,FL,82.5,81.06,14,105,47.5,125,277.5,F,Juniors 13-15,Raw,SBD
1,Melissa Reyes,FL,44,43.95,24,97.5,52.5,135,285,F,Open,Raw,SBD
1,Corine DeJong,FL,67.5,65.59,34,102.5,55,115,272.5,F,Open,Raw,SBD
1,Blair Ferrara,FL,75,68.22,32,97.5,65,122.5,285,F,Open,Raw,SBD
1,Dawn Molina,FL,52,51.98,36,87.5,50,117.5,255,F,Submasters 35-39,Raw,SBD
1,Christine Davis,FL,90+,112.08,38,137.5,65,157.5,360,F,Submasters 35-39,Raw,SBD
1,Brenda Christine,FL,56,55.34,47,117.5,60,145,322.5,F,Masters 45-49,Raw,SBD
1,Robert Ledger,FL,67.5,66.18,21,142.5,102.5,190,435,M,Juniors 20-23,Raw,SBD
1,Michael Megler,FL,75,74.03,16,175,110,210,495,M,Juniors 16-17,Raw,SBD
1,Michael Escano,FL,75,73.39,20,182.5,140,245,567.5,M,Juniors 20-23,Raw,SBD
2,Angelo Camelo,FL,75,74.16,23,207.5,117.5,227.5,552.5,M,Juniors 20-23,Raw,SBD
1,Sean McCormick,FL,82.5,80.6,22,182.5,125,227.5,535,M,Juniors 20-23,Raw,SBD
2,Wilson Munoz,FL,82.5,82.33,23,177.5,125,232.5,535,M,Juniors 20-23,Raw,SBD
3,Alex Kunesh,FL,82.5,80.6,23,157.5,102.5,167.5,427.5,M,Juniors 20-23,Raw,SBD
1,Daniel Saez,FL,90,89.18,20,187.5,125,247.5,560,M,Juniors 20-23,Raw,SBD
1,Alejandro Ruiz,FL,100,96.57,16,195,150,237.5,582.5,M,Juniors 16-17,Raw,SBD
1,Dan Carpenter,FL,67.5,66.5,36,190,120,232.5,542.5,M,Open,Raw,SBD
1,Joshua Nackenson,FL,82.5,80.88,25,200,122.5,272.5,595,M,Open,Raw,SBD
2,Thomas Finocan,FL,82.5,80.42,27,210,112.5,205,527.5,M,Open,Raw,SBD
1,Trevor Jaffe,FL,90,88.59,35,270,160,320,750,M,Open,Raw,SBD
1,Patrick O'Reilly,FL,100,97.75,28,227.5,165,275,667.5,M,Open,Raw,SBD
2,Tom Stewart,FL,100,98.16,28,227.5,172.5,255,655,M,Open,Raw,SBD
3,Davidson Kuchera,FL,100,98.38,29,200,142.5,205,547.5,M,Open,Raw,SBD
4,Chris Vedral,FL,100,90.36,29,177.5,157.5,205,540,M,Open,Raw,SBD
1,Exson Rodriguez,FL,125,123.2,37,317.5,212.5,322.5,852.5,M,Open,Raw,SBD
2,Rene Esquilin,FL,125,116.57,33,210,155,242.5,607.5,M,Open,Raw,SBD
1,Joey Hernandez,FL,140,137.67,26,312.5,190,322.5,825,M,Open,Raw,SBD
2,Scott Latour,FL,140,133.99,40,227.5,185,250,662.5,M,Open,Raw,SBD
1,Exson Rodriguez,FL,125,123.2,37,317.5,212.5,322.5,852.5,M,Submasters 35-39,Raw,SBD
1,Rafe Brox,FL,90,86.91,41,185,125,240,550,M,Masters 40-44,Raw,SBD
1,Paul Robichaux,AL,100,93.35,46,125,80,165,370,M,Masters 45-49,Raw,SBD
1,Albert Tamayo,FL,100,98.29,54,60,137.5,215,412.5,M,Masters 50-54,Raw,SBD
1,Phillip Smelser,FL,100,99.79,55,195,125,230,550,M,Masters 55-59,Raw,SBD
1,Scott Latour,FL,140,133.99,40,227.5,185,250,662.5,M,Masters 40-44,Raw,SBD
2,Brian Dolan,FL,140,132.27,43,197.5,155,237.5,590,M,Masters 40-44,Raw,SBD
1,Celia Pardi,FL,44,40.82,16,70,30,70,170,F,Juniors 16-17,Wraps,SBD
1,Gillian Perkins,FL,82.5,80.65,29,125,72.5,147.5,345,F,Open,Wraps,SBD
1,Gustavo Teixeira,FL,60,59.87,17,120,72.5,160,352.5,M,Juniors 16-17,Wraps,SBD
1,Joao Gonealvds,FL,75,73.71,21,177.5,135,217.5,530,M,Juniors 20-23,Wraps,SBD
1,Ethan Wash,FL,100,98.34,23,272.5,147.5,252.5,672.5,M,Open,Wraps,SBD
1,Shawn Woolcock,FL,110,107.27,37,215,140,250,605,M,Submasters 35-39,Raw,SBD
1,Tim O'Brien,FL,75,73.44,49,185,122.5,200,507.5,M,Masters 45-49,Wraps,SBD
1,Judson Costas,FL,90,84.37,55,182.5,132.5,225,540,M,Masters 55-59,Wraps,SBD
1,Al Laporte,FL,100,97.75,52,255,190,250,695,M,Masters 50-54,Wraps,SBD
1,April Shumaker,FL,48,47.67,49,157.5,117.5,152.5,427.5,F,Open,Single-ply,SBD
1,Ben Boyette,FL,67.5,66.09,17,185,105,190,480,M,Juniors 16-17,Single-ply,SBD
2,Le Jin,FL,67.5,67.09,17,130,70,155,355,M,Juniors 16-17,Single-ply,SBD
1,Tyler Weaver,FL,67.5,65.91,19,197.5,127.5,235,560,M,Juniors 18-19,Single-ply,SBD
2,Sung-Yueh Chang,FL,67.5,66.27,18,157.5,107.5,177.5,442.5,M,Juniors 18-19,Single-ply,SBD
1,Ziyang Xia,FL,75,72.53,15,145,105,190,440,M,Juniors 13-15,Single-ply,SBD
1,He Lin,FL,75,73.21,16,135,90,182.5,407.5,M,Juniors 16-17,Single-ply,SBD
1,Juan Covarrubias,FL,90,85.05,17,140,125,205,470,M,Juniors 16-17,Single-ply,SBD
1,Yudai Katsumata,FL,100,97.3,15,177.5,117.5,182.5,477.5,M,Juniors 13-15,Single-ply,SBD
1,Donald Lynn,FL,110,109.77,21,245,145,250,640,M,Juniors 20-23,Single-ply,SBD
1,Matt Levine,FL,100,95.93,27,327.5,205,295,827.5,M,Open,Single-ply,SBD
1,Richard Mackin,FL,125,117.53,35,275,175,272.5,722.5,M,Open,Single-ply,SBD
1,Jonathan Gade,FL,140,133.49,49,185,192.5,182.5,560,M,Masters 45-49,Single-ply,SBD
1,Matt Anderson,FL,140+,147.96,29,305,147.5,250,702.5,M,Open,Single-ply,SBD
1,Tracy Goodwin,GA,90+,119.34,42,,112.5,,112.5,F,Open,Raw,B
1,Tracy Goodwin,GA,90+,119.34,42,,112.5,,112.5,F,Masters 40-44,Raw,B
1,Brian Burritt Jr,FL,90,89.99,18,,147.5,,147.5,M,Juniors 18-19,Raw,B
1,Dustin Washington,FL,60,58.74,25,,110,,110,M,Open,Raw,B
1,Michael Silva,GA,100,99.93,42,,170,,170,M,Masters 40-44,Raw,B
1,Scott Simonson,FL,100,99.97,47,,217.5,,217.5,M,Masters 45-49,Raw,B
1,Edward Murphy,FL,110,104.24,55,,142.5,,142.5,M,Masters 55-59,Raw,B
1,Christopher Brock,FL,125,119.98,42,,180,,180,M,Masters 40-44,Raw,B
1,Jim Jarboe,FL,125,124.92,73,,122.5,,122.5,M,Masters 70-74,Raw,B
1,Clay Goodwin,FL,140+,180.62,44,,117.5,,117.5,M,Masters 40-44,Raw,B
DQ,Bart Kilgallin,FL,90,88.86,56,,-135,,,M,Masters 55-59,Single-ply,B
1,Curvon Williams,FL,100,96.66,23,,,292.5,292.5,M,Juniors 20-23,Raw,D
1,Justin Swanson #2,FL,90,85.59,25,,,250,250,M,Open,Raw,D
1,Jimmy McDonald,FL,110,100.29,57,,,272.5,272.5,M,Masters 55-59,Raw,D
2,Edward Murphy,FL,110,104.24,55,,,192.5,192.5,M,Masters 55-59,Raw,D
1,Jim Jarboe,FL,125,124.92,73,,,167.5,167.5,M,Masters 70-74,Raw,D
1,Helen Hankerson,FL,82.5,81.51,62,,122.5,172.5,295,F,Masters 60-64,Raw,BD
1,Brian Burritt Jr,FL,90,89.99,18,,147.5,227.5,375,M,Juniors 18-19,Raw,BD
1,Edward Murphy,FL,110,104.24,55,,142.5,192.5,335,M,Masters 55-59,Raw,BD
1,Jim Jarboe,FL,125,124.92,73,,122.5,167.5,290,M,Masters 70-74,Raw,BD
