Division,WeightClassKg,Place,Name,Team,BodyweightKg,Best3SquatKg,Best3BenchKg,Best3DeadliftKg,TotalKg,Equipment,Event,Sex
Boys,51.71,1,Zach Gonzales,Linden-Kildare,51.71,124.74,56.7,124.74,306.17,Single-ply,SBD,M
Boys,55.79,1,Sam Foley,Waskom,54.43,147.42,79.38,147.42,374.21,Single-ply,SBD,M
Boys,55.79,2,Rj Patrick,McLeod,54.98,97.52,79.38,136.08,312.98,Single-ply,SBD,M
Boys,55.79,3,Blake Myers,Simms Bowie,54.61,108.86,65.77,127.01,301.64,Single-ply,SBD,M
Boys,55.79,4,Cameron Sterling,McLeod,55.61,88.45,61.23,120.2,269.89,Single-ply,SBD,M
Boys,55.79,5,Simon Traylor,McLeod,55.16,102.06,56.7,108.86,267.62,Single-ply,SBD,M
Boys,55.79,DQ,Colton Martin,Elysian Fields,52.8,83.91,,,,Single-ply,SBD,M
Boys,59.87,1,Edgar Simmons,Marshall,58.79,151.95,92.99,142.88,387.82,Single-ply,SBD,M
Boys,59.87,2,Tres Allen,Simms Bowie,58.88,115.67,81.65,147.42,344.73,Single-ply,SBD,M
Boys,59.87,3,Justin Spurlin,Waskom,59.87,124.74,74.84,145.15,344.73,Single-ply,SBD,M
Boys,59.87,4,Eduardo Zanah,Mount Pleasant,59.33,92.99,74.84,138.35,306.17,Single-ply,SBD,M
Boys,59.87,5,Marcos Jimenez,Waskom,58.24,111.13,65.77,120.2,297.1,Single-ply,SBD,M
Boys,67.13,1,Trevor Martin,White Oak,66.68,190.51,104.33,195.04,489.88,Single-ply,SBD,M
Boys,67.13,2,Josh Simms,White Oak,66.22,145.15,102.06,181.44,428.64,Single-ply,SBD,M
Boys,67.13,3,Dominique Ford,Marshall,64.5,170.1,79.38,161.03,410.5,Single-ply,SBD,M
Boys,74.84,4,JC Garcia,Waskom,67.22,158.76,77.11,161.03,396.89,Single-ply,SBD,M
Boys,67.13,5,Jonathan Banda,Mount Pleasant,61.6,149.69,88.45,142.88,381.02,Single-ply,SBD,M
Boys,67.13,6,Cody Adams,Simms Bowie,66.95,136.08,79.38,158.76,374.21,Single-ply,SBD,M
Boys,67.13,7,Jacob Deagro,White Oak,67.04,136.08,92.99,142.88,371.95,Single-ply,SBD,M
Boys,67.13,8,Shelton Booth,Waskom,64.5,136.08,88.45,142.88,367.41,Single-ply,SBD,M
Boys,67.13,9,Jesus Quintero,Price Carlisle,64.86,131.54,86.18,145.15,362.87,Single-ply,SBD,M
Boys,67.13,10,Brad Wagoner,Linden-Kildare,63.78,133.81,79.38,142.88,356.07,Single-ply,SBD,M
Boys,67.13,11,Timmy Allen,Simms Bowie,60.78,117.93,72.57,140.61,331.12,Single-ply,SBD,M
Boys,67.13,12,Dillon Walton,McLeod,66.86,120.2,61.23,147.42,328.85,Single-ply,SBD,M
Boys,67.13,13,Shane Finney,Hughes Springs,64.5,108.86,83.91,127.01,319.78,Single-ply,SBD,M
Boys,67.13,14,Dustin Garamillo,Hughes Springs,63.87,124.74,70.31,117.93,312.98,Single-ply,SBD,M
Boys,67.13,15,Ben Wise,Waskom,67.04,104.33,70.31,120.2,294.84,Single-ply,SBD,M
Boys,74.84,1,Zach Ott,White Oak,70.76,190.51,113.4,195.04,498.95,Single-ply,SBD,M
Boys,74.84,2,Deion Williams,Jefferson,72.03,181.44,97.52,215.46,494.42,Single-ply,SBD,M
Boys,74.84,3,Jacovin Coates,Marshall,71.4,192.78,95.25,204.12,492.15,Single-ply,SBD,M
Boys,74.84,4,Josh Presson,White Oak,73.94,170.1,104.33,195.04,469.47,Single-ply,SBD,M
Boys,74.84,5,Gage Rainer,Simms Bowie,70.67,172.37,111.13,181.44,464.93,Single-ply,SBD,M
Boys,74.84,6,Graseon Bruce,Simms Bowie,67.68,185.97,88.45,183.7,458.13,Single-ply,SBD,M
Boys,74.84,7,Josh Garton,Simms Bowie,74.75,163.29,95.25,181.44,439.98,Single-ply,SBD,M
Boys,74.84,8,Cody Brantley,Mount Pleasant,72.76,149.69,102.06,161.03,412.77,Single-ply,SBD,M
Boys,74.84,9,Abraham Pina,Hughes Springs,70.58,154.22,99.79,151.95,405.97,Single-ply,SBD,M
Boys,74.84,10,Zack Buchanan,Simms Bowie,72.76,147.42,97.52,158.76,403.7,Single-ply,SBD,M
Boys,74.84,11,Shawn Wright,McLeod,68.4,136.08,81.65,181.44,399.16,Single-ply,SBD,M
Boys,74.84,12,Hunter Hanson,Hughes Springs,70.76,156.49,83.91,156.49,396.89,Single-ply,SBD,M
Boys,74.84,13,Gustavo Marinez,Price Carlisle,71.8,145.15,88.45,156.49,390.09,Single-ply,SBD,M
Boys,74.84,14,John Angele,Elysian Fields,67.68,124.74,99.79,149.69,374.21,Single-ply,SBD,M
Boys,74.84,15,Kensha Talley,Marshall,69.13,124.74,81.65,142.88,349.27,Single-ply,SBD,M
Boys,74.84,16,Travis Horn,Linden-Kildare,73.39,124.74,83.91,138.35,347,Single-ply,SBD,M
Boys,74.84,17,Adam Sanchez,Price Carlisle,73.03,108.86,88.45,145.15,342.46,Single-ply,SBD,M
Boys,74.84,18,Lakendrick Stanton,Hughes Springs,68.49,120.2,70.31,140.61,331.12,Single-ply,SBD,M
Boys,74.84,19,Ryan Hindsman,McLeod,73.39,108.86,79.38,133.81,322.05,Single-ply,SBD,M
Boys,74.84,20,Hayden Homes,White Oak,73.21,108.86,56.7,122.47,288.03,Single-ply,SBD,M
Boys,74.84,DQ,Luke Yates,McLeod,69.22,,70.31,102.06,,Single-ply,SBD,M
Boys,74.84,DQ,Matthew Vaughn,Mount Pleasant,71.12,,,136.08,,Single-ply,SBD,M
Boys,82.1,1,Stephen Julian,Mount Pleasant,80.92,235.87,149.69,226.8,612.35,Single-ply,SBD,M
Boys,82.1,2,Colby Simmons,Elysian Fields,79.29,181.44,115.67,181.44,478.54,Single-ply,SBD,M
Boys,82.1,3,Zac Pistolis,Simms Bowie,77.75,172.37,120.2,181.44,474,Single-ply,SBD,M
Boys,89.81,4,Jacob Tucker,Linden-Kildare,82.28,188.24,102.06,181.44,471.74,Single-ply,SBD,M
Boys,82.1,5,Cody Murphy,Hughes Springs,78.11,165.56,92.99,183.7,442.25,Single-ply,SBD,M
Boys,82.1,6,Kanon Walker,Simms Bowie,78.83,154.22,104.33,170.1,428.64,Single-ply,SBD,M
Boys,82.1,7,Dalton Martin,Hughes Springs,79.02,133.81,92.99,151.95,378.75,Single-ply,SBD,M
Boys,89.81,8,Clay Allphin,Price Carlisle,82.19,138.35,92.99,142.88,374.21,Single-ply,SBD,M
Boys,82.1,9,Jacob Cooper,Jefferson,80.83,113.4,81.65,136.08,331.12,Single-ply,SBD,M
Boys,82.1,10,Shadeaux Wynn,McLeod,78.74,111.13,79.38,136.08,326.59,Single-ply,SBD,M
Boys,82.1,11,Alex Moullet,Jefferson,77.29,106.59,61.23,129.27,297.1,Single-ply,SBD,M
Boys,82.1,DQ,Tanner Norman,Elysian Fields,76.57,,,161.03,,Single-ply,SBD,M
Boys,89.81,1,Antwan Jones,Mount Pleasant,82.64,172.37,102.06,190.51,464.93,Single-ply,SBD,M
Boys,89.81,2,Alberto Balderas,Marshall,86.64,172.37,108.86,165.56,446.79,Single-ply,SBD,M
Boys,89.81,3,Sadarius Figures,Jefferson,83.1,142.88,97.52,197.31,437.72,Single-ply,SBD,M
Boys,89.81,4,Leo Meyers,Linden-Kildare,83.91,142.88,104.33,183.7,430.91,Single-ply,SBD,M
Boys,89.81,5,Jason Spurlin,Waskom,87.91,158.76,95.25,176.9,430.91,Single-ply,SBD,M
Boys,89.81,6,Brandon Thompson,Mount Pleasant,83.01,170.1,92.99,156.49,419.57,Single-ply,SBD,M
Boys,89.81,7,Brandt Moore,Marshall,86.64,158.76,77.11,181.44,417.3,Single-ply,SBD,M
Boys,89.81,8,John Coe,Linden-Kildare,83.46,154.22,102.06,151.95,408.23,Single-ply,SBD,M
Boys,89.81,9,Pedro Vargas,Price Carlisle,84.19,142.88,111.13,147.42,401.43,Single-ply,SBD,M
Boys,89.81,10,Mason Shaw,McLeod,85.37,124.74,70.31,147.42,342.46,Single-ply,SBD,M
Boys,89.81,11,Author Kimmel,McLeod,83.46,102.06,86.18,142.88,331.12,Single-ply,SBD,M
Boys,89.81,12,Bradley Timon,McLeod,87.54,102.06,70.31,145.15,317.51,Single-ply,SBD,M
Boys,89.81,13,Keith Irwin,McLeod,87.41,92.99,83.91,138.35,315.25,Single-ply,SBD,M
Boys,89.81,14,Mason Smith,White Oak,85.64,95.25,70.31,138.35,303.91,Single-ply,SBD,M
Boys,99.79,1,Cory Dawson,Marshall,97.25,197.31,136.08,217.72,551.11,Single-ply,SBD,M
Boys,99.79,2,Alejandro Barajas,Mount Pleasant,99.34,172.37,115.67,170.1,458.13,Single-ply,SBD,M
Boys,99.79,3,Cade Avant,Hughes Springs,95.35,142.88,115.67,181.44,439.98,Single-ply,SBD,M
Boys,99.79,4,Dyllan O'Neal,Hughes Springs,91.17,170.1,90.72,174.63,435.45,Single-ply,SBD,M
Boys,99.79,5,Randal Hawkins,Simms Bowie,90.63,158.76,95.25,176.9,430.91,Single-ply,SBD,M
Boys,99.79,6,John Dawson,Linden-Kildare,97.52,179.17,81.65,165.56,426.38,Single-ply,SBD,M
Boys,99.79,7,Gentry Caleb,Waskom,91.17,156.49,95.25,142.88,394.63,Single-ply,SBD,M
Boys,109.77,1,Thomas Reynolds,Marshall,103.33,215.46,129.27,204.12,548.85,Single-ply,SBD,M
Boys,109.77,2,Daniel Hicks,Waskom,101.33,204.12,133.81,190.51,528.44,Single-ply,SBD,M
Boys,109.77,3,Jeffery Davis,White Oak,105.6,185.97,111.13,190.51,487.61,Single-ply,SBD,M
Boys,109.77,4,John Smith,McLeod,109.23,170.1,113.4,165.56,449.06,Single-ply,SBD,M
Boys,109.77,5,Joel Bautista,Mount Pleasant,102.87,136.08,111.13,149.69,396.89,Single-ply,SBD,M
Boys,124.74,1,Brandon Williams,Marshall,116.12,217.72,104.33,165.56,487.61,Single-ply,SBD,M
Boys,124.74,2,Dj Clark,Marshall,120.84,190.51,90.72,181.44,462.66,Single-ply,SBD,M
Boys,124.74,3,Logan Walters,White Oak,111.04,158.76,102.06,195.04,455.86,Single-ply,SBD,M
Boys,124.74,4,Tywon Walker,Mount Pleasant,110.68,163.29,92.99,167.83,424.11,Single-ply,SBD,M
Boys,124.74,5,Steven Merrell,White Oak,110.5,154.22,83.91,154.22,392.36,Single-ply,SBD,M
Boys,124.74+,1,Mason Faber,White Oak,137.35,272.16,147.42,172.37,591.94,Single-ply,SBD,M
Boys,124.74+,2,Joshua Byrd,Marshall,131.9,235.87,124.74,204.12,564.72,Single-ply,SBD,M
Boys,124.74+,3,Ryan Russell,Hughes Springs,125.37,204.12,140.61,190.51,535.24,Single-ply,SBD,M
Boys,124.74+,4,Jeremy Wigington,Elysian Fields,128.19,181.44,106.59,183.7,471.74,Single-ply,SBD,M
Boys,124.74+,5,Sam Clark,Price Carlisle,128.82,158.76,77.11,174.63,410.5,Single-ply,SBD,M
Boys,124.74+,6,Wesley Prince,Waskom,134.72,147.42,97.52,158.76,403.7,Single-ply,SBD,M
Boys,124.74+,DQ,Tucker Brown,Mount Pleasant,132.99,170.1,,170.1,,Single-ply,SBD,M
