Place,Name,State,WeightClassKg,BodyweightKg,Age,Best3SquatKg,Best3BenchKg,Best3DeadliftKg,TotalKg,Sex,Division,Equipment,Event,Tested
1,Alex Hill,IN,90,88.3,21,145,72.5,150,367.5,F,Juniors 20-23,Raw,SBD,Yes
2,Alisha Hedrick,IN,90,83.7,21,115,45,135,295,F,Juniors 20-23,Raw,SBD,Yes
1,Brookelyn Gillin,IN,56,55.1,26,102.5,52.5,105,260,F,Open,Raw,SBD,Yes
1,Danielle Durochik,IN,67.5,67.3,27,120,60,152.5,332.5,F,Open,Raw,SBD,Yes
1,Kasey Litts,IN,75,74.6,27,122.5,65,155,342.5,F,Open,Raw,SBD,Yes
1,Jackie Coleman,IN,82.5,81.4,31,137.5,72.5,165,375,F,Open,Raw,SBD,Yes
1,Amy Swiontek,IN,90,87.3,27,147.5,80,155,382.5,F,Open,Raw,SBD,Yes
2,Liliana Correa,IL,90,88.4,36,127.5,55,137.5,320,F,Open,Raw,SBD,Yes
1,Chelsea Mathews,IN,90+,97.7,35,160,85,182.5,427.5,F,Open,Raw,SBD,Yes
1,Liliana Correa,IL,90,88.4,36,127.5,55,137.5,320,F,Submasters 35-39,Raw,SBD,Yes
1,Chelsea Mathews,IN,90+,97.7,35,160,85,182.5,427.5,F,Submasters 35-39,Raw,SBD,Yes
2,Billie Wolfe,IN,90+,102.9,39,115,62.5,160,337.5,F,Submasters 35-39,Raw,SBD,Yes
1,Hunter Eck,KY,67.5,65.9,17,147.5,102.5,175,425,M,Juniors 16-17,Raw,SBD,Yes
1,Tanner Arnell,IN,67.5,66.8,19,175,125,235,535,M,Juniors 18-19,Raw,SBD,Yes
1,Michael Coladipietro,IL,75,73.9,23,222.5,145,260,627.5,M,Juniors 20-23,Raw,SBD,Yes
2,Dylan Sullivan,MO,75,72.8,23,165,132.5,202.5,500,M,Juniors 20-23,Raw,SBD,Yes
3,Sean Cooper,IN,75,74.2,20,160,105,212.5,477.5,M,Juniors 20-23,Raw,SBD,Yes
4,Cyrus Yongbanthom,KY,75,68.6,22,150,97.5,170,417.5,M,Juniors 20-23,Raw,SBD,Yes
1,Brice Lawrence,IN,90,83.4,18,160,110,207.5,477.5,M,Juniors 18-19,Raw,SBD,Yes
1,Tyler Bolger,IL,90,86.4,21,217.5,147.5,260,625,M,Juniors 20-23,Raw,SBD,Yes
2,Josh Dunsmore,IN,90,89.2,23,210,120,235,565,M,Juniors 20-23,Raw,SBD,Yes
1,Jonathan Biava,IN,100,98.5,21,147.5,130,195,472.5,M,Juniors 20-23,Raw,SBD,Yes
1,Luke Eslinger,IN,110,105.9,19,210,160,227.5,597.5,M,Juniors 18-19,Raw,SBD,Yes
1,Joshua Levato,IN,140+,154,19,215,147.5,225,587.5,M,Juniors 18-19,Raw,SBD,Yes
1,Hunter Eck,KY,67.5,65.9,17,147.5,102.5,175,425,M,Open,Raw,SBD,Yes
1,Michael Coladipietro,IL,75,73.9,23,222.5,145,260,627.5,M,Open,Raw,SBD,Yes
2,Maximilian Finnegan,IL,75,70.4,23,200,145,235,580,M,Open,Raw,SBD,Yes
3,Dylan Sullivan,MO,75,72.8,23,165,132.5,202.5,500,M,Open,Raw,SBD,Yes
4,Sean Cooper,IN,75,74.2,20,160,105,212.5,477.5,M,Open,Raw,SBD,Yes
5,James Goddard,IN,75,69.5,31,132.5,90,172.5,395,M,Open,Raw,SBD,Yes
1,Joshua Beeler,IN,82.5,78.6,35,197.5,142.5,257.5,597.5,M,Open,Raw,SBD,Yes
2,Eric Gerz,IN,82.5,81,34,180,132.5,232.5,545,M,Open,Raw,SBD,Yes
1,Tyler Bolger,IL,90,86.4,21,217.5,147.5,260,625,M,Open,Raw,SBD,Yes
DQ,Connor Julian,IN,90,89.9,24,,,,,M,Open,Raw,SBD,Yes
1,Robert Hayes,KY,100,97.7,29,242.5,167.5,311,721,M,Open,Raw,SBD,Yes
2,Cortez Gardner,IL,100,97.5,33,235,160,270,665,M,Open,Raw,SBD,Yes
3,Brandon Bennett,IN,100,94.1,28,167.5,117.5,202.5,487.5,M,Open,Raw,SBD,Yes
1,Stephen Woodward,IN,110,109,31,227.5,178,252.5,658,M,Open,Raw,SBD,Yes
2,Jed Dant,IN,110,106.1,37,205,185,230,620,M,Open,Raw,SBD,Yes
1,Mark Conover,IN,125,119.7,29,300,210,290,800,M,Open,Raw,SBD,Yes
1,Jed Dant,IN,110,106.1,37,205,185,230,620,M,Submasters 35-39,Raw,SBD,Yes
1,Stephen Correa,TX,125,118,63,157.5,112.5,185.5,455.5,M,Masters 60-64,Raw,SBD,Yes
1,Jaylin Harris,IN,67.5,65.4,24,112.5,65,127.5,305,F,Open,Wraps,SBD,Yes
1,Dawn Harvey,IN,52,50.5,38,105,50,120,275,F,Submasters 35-39,Wraps,SBD,Yes
1,Ferreh Hiatt,IN,82.5,81.2,40,140,67.5,147.5,355,F,Masters 40-44,Wraps,SBD,Yes
1,Deb Wade,IN,90,89.4,47,102.5,90,125,317.5,F,Masters 45-49,Wraps,SBD,Yes
1,Dat Vo,IN,67.5,63.8,20,185,100,265,550,M,Juniors 20-23,Wraps,SBD,Yes
1,Micah Thomas,IN,82.5,77.9,23,207.5,135,227.5,570,M,Juniors 20-23,Wraps,SBD,Yes
1,Dillon Lawrence,IN,90,88.8,22,155,102.5,185,442.5,M,Juniors 20-23,Wraps,SBD,Yes
1,Vincent Ayala,IN,60,59.8,28,152.5,132.5,202.5,487.5,M,Open,Wraps,SBD,Yes
1,Dat Vo,IN,67.5,63.8,20,185,100,265,550,M,Open,Wraps,SBD,Yes
1,Clint Shireman,IN,82.5,82,28,232.5,142.5,227.5,602.5,M,Open,Wraps,SBD,Yes
2,Micah Thomas,IN,82.5,77.9,23,207.5,135,227.5,570,M,Open,Wraps,SBD,Yes
1,Landon Whitaker,IN,110,107.2,29,245,155,272.5,672.5,M,Open,Wraps,SBD,Yes
2,Brandon Combess,KY,110,108.1,30,260,155,257.5,672.5,M,Open,Wraps,SBD,Yes
1,Don Humphreys,IN,140+,151,28,275,175,310,760,M,Open,Wraps,SBD,Yes
1,Dan Zoeller,IN,125,115.4,39,195,140,240,575,M,Submasters 35-39,Wraps,SBD,Yes
1,Alex Hill,IN,90,88.3,21,,72.5,,72.5,F,Juniors 20-23,Raw,B,Yes
1,Dylan Sullivan,MO,75,72.8,23,,132.5,,132.5,M,Juniors 20-23,Raw,B,Yes
1,Dylan Sullivan,MO,75,72.8,23,,132.5,,132.5,M,Open,Raw,B,Yes
1,Alisha Hedrick,IN,90,83.7,21,,,135,135,F,Juniors 20-23,Raw,D,Yes
1,Billie Wolfe,IN,90+,102.9,39,,,160,160,F,Submasters 35-39,Raw,D,Yes
1,Dylan Sullivan,MO,75,72.8,23,,,202.5,202.5,M,Juniors 20-23,Raw,D,Yes
1,Dylan Sullivan,MO,75,72.8,23,,,202.5,202.5,M,Open,Raw,D,Yes
1,Jacob Moroe,IN,90,88.6,30,,,285,285,M,Open,Raw,D,Yes
1,Robert Hayes,KY,100,97.7,29,,,311,311,M,Open,Raw,D,Yes
1,Eric Gerz,IL,82.5,81,34,,132.5,232.5,365,M,Open,Raw,BD,Yes
1,Jeffrey Jones,IN,90,87.4,34,,150,202.5,352.5,M,Open,Raw,BD,Yes
