Division,WeightClassKg,Place,Name,Team,BodyweightKg,Best3SquatKg,Best3BenchKg,Best3DeadliftKg,TotalKg,Equipment,Event,Sex
Boys,51.71,1,Jerry Lopez,Port Isabel,51.17,156.49,83.91,145.15,385.55,Single-ply,SBD,M
Boys,55.79,2,Daniel Porras,Orange Grove,51.89,145.15,70.31,151.95,367.41,Single-ply,SBD,M
Boys,51.71,3,Ricky Guerra,Poteet,49.99,122.47,90.72,147.42,360.61,Single-ply,SBD,M
Boys,51.71,4,Joshua Estrada,Gonzales,51.53,127.01,81.65,142.88,351.53,Single-ply,SBD,M
Boys,51.71,5,Jeremiah Jimenez,Lytle,50.8,131.54,68.04,149.69,349.27,Single-ply,SBD,M
Boys,51.71,6,Sid Alcoser,Somerset,51.35,138.35,56.7,142.88,337.93,Single-ply,SBD,M
Boys,51.71,DQ,John Dominguez,Somerset,51.26,136.08,,,,Single-ply,SBD,M
Boys,51.71,DQ,Jesus Gomez,Somerset,51.44,115.67,,,,Single-ply,SBD,M
Boys,51.71,DQ,Aaron Rocha,Rio Grande City,50.98,,,,,Single-ply,SBD,M
Boys,51.71,DQ,Paul Arocha,Devine,51.44,,,,,Single-ply,SBD,M
Boys,55.79,1,Dallas de la Cruz,Mathis,55.43,158.76,88.45,183.7,430.91,Single-ply,SBD,M
Boys,55.79,2,John Guillen,Lytle,55.7,158.76,104.33,167.83,430.91,Single-ply,SBD,M
Boys,55.79,3,Jordan Glueck,Columbus,55.16,145.15,74.84,167.83,387.82,Single-ply,SBD,M
Boys,55.79,4,Felix Gutierrez,Crystal City,54.25,127.01,86.18,147.42,360.61,Single-ply,SBD,M
Boys,55.79,5,Dustin Padilla,Sinton,55.79,120.2,83.91,127.01,331.12,Single-ply,SBD,M
Boys,55.79,6,Jesse Leyva,Raymondville,55.79,117.93,65.77,142.88,326.59,Single-ply,SBD,M
Boys,55.79,DQ,Xavier Delgado,Zapata,55.79,,,,,Single-ply,SBD,M
Boys,59.87,DQ,James Zaragoza,Raymondville,55.97,,,,,Single-ply,SBD,M
Boys,55.79,DQ,Josh Molina,Port Isabel,53.07,,,,,Single-ply,SBD,M
Boys,59.87,DQ,Sawyer Yandell,Devine,55.97,,,,,Single-ply,SBD,M
Boys,55.79,DQ,Josh Lomas,Crystal City,55.52,158.76,99.79,,,Single-ply,SBD,M
Boys,67.13,1,Felipe Medina,Zapata,60.06,210.92,97.52,190.51,498.95,Single-ply,SBD,M
Boys,59.87,2,Caleb Gale,Somerset,58.06,188.24,88.45,195.04,471.74,Single-ply,SBD,M
Boys,59.87,3,Leonard Garza,Poteet,58.88,179.17,122.47,165.56,467.2,Single-ply,SBD,M
Boys,67.13,4,Pedro Carreon,Geronimo Navarro,59.96,147.42,102.06,170.1,419.57,Single-ply,SBD,M
Boys,67.13,5,Richard Brown,Orange Grove,60.06,149.69,83.91,161.03,394.63,Single-ply,SBD,M
Boys,67.13,6,Steven Garza,Crystal City,60.06,140.61,81.65,154.22,376.48,Single-ply,SBD,M
Boys,59.87,DQ,Marquis Barrolle,Ingleside,59.87,,,,,Single-ply,SBD,M
Boys,59.87,DQ,Ronald Sanchez,Poteet,58.97,165.56,83.91,,,Single-ply,SBD,M
Boys,59.87,DQ,Joseph Zaragoza,Poteet,59.33,,,,,Single-ply,SBD,M
Boys,59.87,DQ,Hernan Guerrero,Rio Hondo,59.24,,,,,Single-ply,SBD,M
Boys,67.13,1,Kaleb Walker,Columbus,65.95,210.92,122.47,217.72,551.11,Single-ply,SBD,M
Boys,67.13,2,Phong Tran,Rockport-Fulton,66.77,204.12,124.74,199.58,528.44,Single-ply,SBD,M
Boys,74.84,3,Leonard Ramirez,Raymondville,67.31,192.78,138.35,197.31,528.44,Single-ply,SBD,M
Boys,67.13,4,Robert Carrasco,Pleasanton,66.68,213.19,97.52,204.12,514.83,Single-ply,SBD,M
Boys,67.13,5,Ozzy Varela,Somerset,66.68,210.92,95.25,183.7,489.88,Single-ply,SBD,M
Boys,74.84,6,Ray Valdez,Orange Grove,67.22,190.51,108.86,188.24,487.61,Single-ply,SBD,M
Boys,67.13,DQ,Aj Bustos,Cuero,67.13,,,,,Single-ply,SBD,M
Boys,67.13,DQ,Miguel Oliva,Robstown,67.13,,,,,Single-ply,SBD,M
Boys,67.13,DQ,Edward Cantu,La Feria,67.04,204.12,124.74,,,Single-ply,SBD,M
Boys,67.13,DQ,Andrew Infante,Port Isabel,66.86,195.04,102.06,,,Single-ply,SBD,M
Boys,67.13,DQ,Josue Valdez,Zapata,66.95,,,,,Single-ply,SBD,M
Boys,74.84,1,Arturo Cervantez,Crystal City,74.39,217.72,142.88,238.14,598.74,Single-ply,SBD,M
Boys,74.84,2,Danny Flores,Zapata,74.48,219.99,142.88,233.6,596.47,Single-ply,SBD,M
Boys,74.84,3,Pedro Molina,Somerset,74.12,226.8,117.93,244.94,589.67,Single-ply,SBD,M
Boys,74.84,4,Ej Ybarra,Port Isabel,74.75,213.19,136.08,199.58,548.85,Single-ply,SBD,M
Boys,74.84,5,Paul Villarreal,Sinton,71.3,201.85,113.4,222.26,537.51,Single-ply,SBD,M
Boys,74.84,6,Mario Davila,Aransas Pass,73.57,197.31,127.01,206.38,530.7,Single-ply,SBD,M
Boys,74.84,7,Jordan Benford,Columbus,73.75,188.24,122.47,192.78,503.49,Single-ply,SBD,M
Boys,74.84,8,Adrian Moncevaiz,Raymondville,73.12,206.38,102.06,183.7,492.15,Single-ply,SBD,M
Boys,74.84,9,Darrell DuBose,Devine,71.12,192.78,106.59,190.51,489.88,Single-ply,SBD,M
Boys,74.84,DQ,Ross Torres,La Feria,72.76,,,,,Single-ply,SBD,M
Boys,89.81,1,D'Vonte Daniels,La Grange,82.19,235.87,165.56,244.94,646.37,Single-ply,SBD,M
Boys,82.1,2,Alex Elizondo,Pearsall,80.38,260.82,151.95,231.33,644.1,Single-ply,SBD,M
Boys,82.1,3,Rueben Hinojosa,Lytle,80.1,206.38,115.67,238.14,560.19,Single-ply,SBD,M
Boys,82.1,4,Hunter Noack,Gonzales,80.01,213.19,115.67,219.99,548.85,Single-ply,SBD,M
Boys,82.1,5,Josh Perez,Sinton,78.56,201.85,136.08,206.38,544.31,Single-ply,SBD,M
Boys,82.1,6,Andrew Reyes,Rockport-Fulton,80.83,199.58,127.01,213.19,539.77,Single-ply,SBD,M
Boys,82.1,7,Andrew Jimenez,Yoakum,75.57,222.26,122.47,192.78,537.51,Single-ply,SBD,M
Boys,82.1,8,Jj Elias,Somerset,79.74,183.7,115.67,226.8,526.17,Single-ply,SBD,M
Boys,82.1,9,Justin Quesada,Somerset,79.83,183.7,113.4,201.85,498.95,Single-ply,SBD,M
Boys,82.1,DQ,Max Castillo,Rio Hondo,81.28,,,,,Single-ply,SBD,M
Boys,89.81,1,Justin Duran,Raymondville,89.72,331.12,197.31,274.42,802.86,Single-ply,SBD,M
Boys,89.81,2,Landon Lock,Gonzales,86.45,260.82,136.08,249.48,646.37,Single-ply,SBD,M
Boys,89.81,3,Ej Castaneda,Rio Hondo,83.55,219.99,158.76,204.12,582.87,Single-ply,SBD,M
Boys,89.81,4,Jesus Ramirez,Port Isabel,87.91,224.53,127.01,217.72,569.26,Single-ply,SBD,M
Boys,89.81,5,Justin Fuentes,Zapata,87.45,217.72,136.08,213.19,566.99,Single-ply,SBD,M
Boys,89.81,6,Fernando Rivera,Port Isabel,87.63,219.99,138.35,183.7,542.04,Single-ply,SBD,M
Boys,89.81,7,Isaac Carrizales,La Feria,88.99,195.04,127.01,199.58,521.63,Single-ply,SBD,M
Boys,89.81,DQ,Derek Watson,La Grange,89.81,,,,,Single-ply,SBD,M
Boys,89.81,DQ,Maison Rickman,Cuero,85.82,,,,,Single-ply,SBD,M
Boys,89.81,DQ,Juan Sanchez,Rio Hondo,86.64,215.46,,,,Single-ply,SBD,M
Boys,99.79,1,Mark Cavazos,Raymondville,95.98,265.35,199.58,215.46,680.39,Single-ply,SBD,M
Boys,99.79,2,Gregory Juarez,Raymondville,98.52,288.03,165.56,224.53,678.12,Single-ply,SBD,M
Boys,99.79,3,Justin Sosa,Zapata,98.34,260.82,163.29,233.6,657.71,Single-ply,SBD,M
Boys,99.79,4,Brandon Fuentes,Pleasanton,92.62,260.82,156.49,213.19,630.49,Single-ply,SBD,M
Boys,99.79,5,Darren Pham,Rockport-Fulton,96.98,233.6,133.81,201.85,569.26,Single-ply,SBD,M
Boys,99.79,6,Matthew Ferral,Rockport-Fulton,98.61,233.6,120.2,195.04,548.85,Single-ply,SBD,M
Boys,99.79,7,Justin Lomas,Crystal City,91.53,215.46,111.13,208.65,535.24,Single-ply,SBD,M
Boys,99.79,DQ,Zane Sanchez,Devine,96.8,235.87,140.61,,,Single-ply,SBD,M
Boys,99.79,DQ,Isaiah Vasquez,Pearsall,97.89,249.48,154.22,,,Single-ply,SBD,M
Boys,99.79,DQ,Lawrence Caldwell,Rio Hondo,93.71,,,,,Single-ply,SBD,M
Boys,109.77,1,Salvador Marines,Somerset,106.14,301.64,149.69,267.62,718.94,Single-ply,SBD,M
Boys,109.77,2,Joel White,La Feria,107.41,294.84,183.7,240.4,718.94,Single-ply,SBD,M
Boys,109.77,3,Ben Neuman,Hondo,108.41,272.16,151.95,219.99,644.1,Single-ply,SBD,M
Boys,109.77,4,Aureliano Silva,Port Isabel,105.41,283.5,154.22,204.12,641.83,Single-ply,SBD,M
Boys,109.77,5,Chris Price,Yoakum,107.68,238.14,147.42,233.6,619.15,Single-ply,SBD,M
Boys,109.77,6,Kevin Garcia,Poteet,104.96,256.28,136.08,224.53,616.89,Single-ply,SBD,M
Boys,109.77,7,Patrick Rodriguez,Devine,108.41,231.33,145.15,217.72,594.21,Single-ply,SBD,M
Boys,109.77,8,Scott Richter,Yoakum,108.95,226.8,158.76,204.12,589.67,Single-ply,SBD,M
Boys,109.77,9,Jorge Gutierrez,Zapata,104.51,158.76,142.88,210.92,512.56,Single-ply,SBD,M
Boys,109.77,10,Raul Hinojosa,Zapata,105.96,192.78,92.99,208.65,494.42,Single-ply,SBD,M
Boys,124.74,1,Alfred Godines,Somerset,124.19,285.76,183.7,235.87,705.34,Single-ply,SBD,M
Boys,124.74,2,Chad Childs,La Grange,119.66,226.8,163.29,233.6,623.69,Single-ply,SBD,M
Boys,124.74,3,Jose Castaneda,Raymondville,121.74,265.35,133.81,206.38,605.55,Single-ply,SBD,M
Boys,124.74,4,Dj Carlson,Devine,124.28,256.28,136.08,206.38,598.74,Single-ply,SBD,M
Boys,124.74,DQ,Stevie Balderrama,Devine,123.65,,,,,Single-ply,SBD,M
Boys,124.74,DQ,J'Von Thomas,Cuero,112.22,272.16,,,,Single-ply,SBD,M
Boys,124.74,DQ,Carl Contreras,Raymondville,111.13,,,,,Single-ply,SBD,M
Boys,124.74,DQ,Ram Montalvo,Orange Grove,110.4,285.76,156.49,,,Single-ply,SBD,M
Boys,124.74,DQ,Daniel Casares,Somerset,117.93,,,,,Single-ply,SBD,M
Boys,124.74+,1,Willie Hights,Yoakum,147.87,324.32,183.7,251.74,759.77,Single-ply,SBD,M
Boys,124.74+,2,Miguel Estrada,Rockport-Fulton,145.6,294.84,185.97,267.62,748.43,Single-ply,SBD,M
Boys,124.74+,3,Nune Perez,Crystal City,140.16,272.16,188.24,272.16,732.55,Single-ply,SBD,M
Boys,124.74+,4,Oscar Ortiz,Orange Grove,143.06,299.37,172.37,235.87,707.6,Single-ply,SBD,M
Boys,124.74+,5,Tyler Seiler,Pearsall,149.87,240.4,197.31,249.48,687.19,Single-ply,SBD,M
Boys,124.74+,6,Jacob Cuellar,Cuero,144.79,272.16,149.69,192.78,614.62,Single-ply,SBD,M
Boys,124.74+,7,Jerrod Grantz,Aransas Pass,128.64,201.85,149.69,219.99,571.53,Single-ply,SBD,M
Boys,124.74+,DQ,Antonio Galvan,Aransas Pass,129.27,,,,,Single-ply,SBD,M
Boys,124.74+,DQ,Aaron Gonzalez,Raymondville,137.71,,,,,Single-ply,SBD,M
Boys,124.74+,DQ,Adrian Cantu,Rio Grande City,142.88,285.76,154.22,,,Single-ply,SBD,M
