Division,WeightClassKg,Place,Name,Team,BodyweightKg,Best3SquatKg,Best3BenchKg,Best3DeadliftKg,TotalKg,Equipment,Event,Sex
Boys,51.71,1,Matt Hebert,Magnolia,50.98,120.2,61.23,113.4,294.84,Single-ply,SBD,M
Boys,51.71,2,Daniel Segura,Magnolia,49.26,83.91,54.43,88.45,226.8,Single-ply,SBD,M
Boys,51.71,3,Trevor Lewing,Livingston,50.53,90.72,45.36,90.72,226.8,Single-ply,SBD,M
Boys,51.71,4,Jim Williams,Conroe The Woodlands,51.03,74.84,49.9,81.65,206.38,Single-ply,SBD,M
Boys,55.79,1,Jamahl Johnson,Houston Cypress Woods,54.79,142.88,81.65,165.56,390.09,Single-ply,SBD,M
Boys,59.87,2,Anthony Grimes,Katy Mayde Creek,55.88,124.74,90.72,158.76,374.21,Single-ply,SBD,M
Boys,55.79,3,Daniel Moreno #3,Dayton,54.43,149.69,79.38,167.83,396.89,Single-ply,SBD,M
Boys,55.79,4,Zach Lee,Livingston,55.25,83.91,47.63,86.18,217.72,Single-ply,SBD,M
Boys,59.87,1,Eric Garza,Magnolia West,58.42,170.1,111.13,172.37,453.59,Single-ply,SBD,M
Boys,67.13,2,Juan Nunez,Katy Mayde Creek,59.96,136.08,81.65,174.63,392.36,Single-ply,SBD,M
Boys,59.87,3,Steven McCartha,Montgomery,58.42,136.08,83.91,136.08,356.07,Single-ply,SBD,M
Boys,59.87,4,Lane Sellers,Magnolia,56.97,120.2,70.31,151.95,342.46,Single-ply,SBD,M
Boys,67.13,5,Albert Cortez,Bryan,59.96,131.54,68.04,131.54,331.12,Single-ply,SBD,M
Boys,67.13,1,Jared Wetuski,Montgomery,63.14,204.12,117.93,195.04,517.1,Single-ply,SBD,M
Boys,67.13,2,Kevin Green,Katy Mayde Creek,66.86,197.31,113.4,195.04,505.76,Single-ply,SBD,M
Boys,67.13,3,Tyler Fuselier,Dayton,65.23,158.76,104.33,215.46,478.54,Single-ply,SBD,M
Boys,67.13,4,Casey Hicks,Houston Cypress Woods,64.23,163.29,99.79,181.44,444.52,Single-ply,SBD,M
Boys,67.13,5,Stephon Ellis,Bryan,62.32,167.83,86.18,181.44,435.45,Single-ply,SBD,M
Boys,67.13,6,Daniel LaTour,Dayton,63.59,138.35,95.25,163.29,396.89,Single-ply,SBD,M
Boys,67.13,7,Craig Collins,Conroe The Woodlands,61.6,140.61,88.45,151.95,381.02,Single-ply,SBD,M
Boys,67.13,8,Caffery Penn,Conroe The Woodlands,65.77,142.88,86.18,149.69,378.75,Single-ply,SBD,M
Boys,67.13,9,Cain Kimberlin,Livingston,63.14,127.01,95.25,145.15,367.41,Single-ply,SBD,M
Boys,67.13,10,Dalton Goetzinger,Conroe The Woodlands,63.32,127.01,77.11,131.54,335.66,Single-ply,SBD,M
Boys,67.13,11,Stephan Farmer,Waller,61.14,113.4,83.91,136.08,333.39,Single-ply,SBD,M
Boys,67.13,12,Carson Neal,Montgomery,66.95,129.27,61.23,136.08,326.59,Single-ply,SBD,M
Boys,67.13,13,Justin Poole,Conroe The Woodlands,64.77,117.93,74.84,117.93,310.71,Single-ply,SBD,M
Boys,67.13,14,Joey Mottu,Livingston,66.68,102.06,61.23,131.54,294.84,Single-ply,SBD,M
Boys,74.84,15,Omar Borjas,Waller,67.22,95.25,58.97,127.01,281.23,Single-ply,SBD,M
Boys,67.13,16,Chris Kinzie,Conroe The Woodlands,64.32,102.06,74.84,102.06,278.96,Single-ply,SBD,M
Boys,74.84,1,Ronald Winston,Katy Mayde Creek,74.66,210.92,127.01,215.46,553.38,Single-ply,SBD,M
Boys,74.84,2,Mark McKeown,Magnolia,74.66,195.04,122.47,199.58,517.1,Single-ply,SBD,M
Boys,74.84,3,Josh Salas,Katy Mayde Creek,73.03,204.12,102.06,197.31,503.49,Single-ply,SBD,M
Boys,74.84,4,Johnathon Bradfield,Katy Mayde Creek,73.48,183.7,122.47,188.24,494.42,Single-ply,SBD,M
Boys,74.84,5,Casem Noureddin,Houston Cypress Woods,74.12,170.1,113.4,188.24,471.74,Single-ply,SBD,M
Boys,74.84,6,Kirby Nielsen,Livingston,73.39,192.78,111.13,156.49,460.4,Single-ply,SBD,M
Boys,74.84,7,Bobby Goss,Dayton,69.67,167.83,102.06,185.97,455.86,Single-ply,SBD,M
Boys,74.84,8,Trey Gordon,Montgomery,68.13,163.29,108.86,181.44,453.59,Single-ply,SBD,M
Boys,82.1,9,Josh McKerley,Waller,75.02,204.12,90.72,158.76,453.59,Single-ply,SBD,M
Boys,74.84,10,Westley Potter,Livingston,67.95,174.63,104.33,167.83,446.79,Single-ply,SBD,M
Boys,74.84,11,P J Johnson,Houston Cypress Woods,72.76,170.1,92.99,183.7,446.79,Single-ply,SBD,M
Boys,74.84,12,Joseph Clay,Bryan,72.21,165.56,95.25,181.44,442.25,Single-ply,SBD,M
Boys,74.84,13,Colton Frisby,Waller,69.13,181.44,83.91,167.83,433.18,Single-ply,SBD,M
Boys,74.84,14,Jon Patty,Montgomery,70.13,158.76,104.33,170.1,433.18,Single-ply,SBD,M
Boys,82.1,15,Nathanel Ozan,Dayton,74.93,167.83,79.38,172.37,419.57,Single-ply,SBD,M
Boys,74.84,16,Lainne Pavlu,Waller,73.3,136.08,79.38,183.7,399.16,Single-ply,SBD,M
Boys,74.84,17,Sammy Vaughn,Livingston,74.75,136.08,104.33,149.69,390.09,Single-ply,SBD,M
Boys,74.84,18,Easton McClain,Livingston,69.76,145.15,83.91,145.15,374.21,Single-ply,SBD,M
Boys,74.84,19,Thomas Guillen,Conroe,71.3,131.54,86.18,156.49,374.21,Single-ply,SBD,M
Boys,74.84,20,Bykyce Campbell,Bryan,69.4,124.74,68.04,163.29,356.07,Single-ply,SBD,M
Boys,74.84,21,Tavion Walton,Bryan,73.66,127.01,81.65,142.88,351.53,Single-ply,SBD,M
Boys,74.84,22,Jacob Cole,Montgomery,71.4,120.2,74.84,138.35,333.39,Single-ply,SBD,M
Boys,74.84,DQ,W Hicks,Magnolia West,71.21,136.08,,129.27,,Single-ply,SBD,M
Boys,74.84,DQ,Jakieth Jones,Bryan,73.12,113.4,,142.88,,Single-ply,SBD,M
Boys,82.1,1,Shyerome Harris,Magnolia,81.74,224.53,115.67,217.72,557.92,Single-ply,SBD,M
Boys,82.1,2,Eric Washington,Montgomery,76.84,204.12,122.47,226.8,553.38,Single-ply,SBD,M
Boys,82.1,3,A Randle,Magnolia West,79.56,217.72,97.52,213.19,528.44,Single-ply,SBD,M
Boys,82.1,4,Will Glover,Houston Cypress Woods,75.11,210.92,111.13,183.7,505.76,Single-ply,SBD,M
Boys,82.1,5,Patrick Strong,Magnolia,80.74,165.56,133.81,183.7,483.08,Single-ply,SBD,M
Boys,82.1,6,Will Phulhill,Conroe,78.74,181.44,111.13,181.44,474,Single-ply,SBD,M
Boys,82.1,7,Toney Robinson,Dayton,78.02,170.1,104.33,181.44,455.86,Single-ply,SBD,M
Boys,82.1,8,Eric Martin,Conroe,77.75,161.03,92.99,190.51,444.52,Single-ply,SBD,M
Boys,82.1,9,Andrew Danheim,Conroe The Woodlands,78.74,167.83,99.79,156.49,424.11,Single-ply,SBD,M
Boys,82.1,10,Mitchell Fountain,Conroe The Woodlands,78.83,147.42,92.99,183.7,424.11,Single-ply,SBD,M
Boys,82.1,11,N Calloway,Magnolia West,77.11,151.95,97.52,163.29,412.77,Single-ply,SBD,M
Boys,82.1,12,Austen Reaves,Conroe The Woodlands,76.11,133.81,81.65,158.76,374.21,Single-ply,SBD,M
Boys,82.1,13,Janaro Orduna,Livingston,80.2,127.01,68.04,136.08,331.12,Single-ply,SBD,M
Boys,82.1,DQ,Michael Kirby,Montgomery,78.83,158.76,92.99,,,Single-ply,SBD,M
Boys,89.81,1,Ryan McClain,Livingston,86.91,208.65,129.27,231.33,569.26,Single-ply,SBD,M
Boys,89.81,2,Kevin Jefferson,Bryan,84.01,181.44,136.08,192.78,510.29,Single-ply,SBD,M
Boys,89.81,3,Blayne Elster,Livingston,83.82,210.92,108.86,188.24,508.02,Single-ply,SBD,M
Boys,89.81,4,Cody Wallace,Magnolia,82.55,183.7,129.27,192.78,505.76,Single-ply,SBD,M
Boys,89.81,5,Erick Barcenas,Conroe,87.45,181.44,140.61,183.7,505.76,Single-ply,SBD,M
Boys,89.81,6,Jared Moffett,Houston Cypress Woods,89.63,181.44,117.93,204.12,503.49,Single-ply,SBD,M
Boys,89.81,7,Seth Keating,Montgomery,84.64,190.51,113.4,170.1,474,Single-ply,SBD,M
Boys,89.81,8,M Trim,Magnolia West,86.27,172.37,111.13,188.24,471.74,Single-ply,SBD,M
Boys,89.81,9,D Ruiz,Magnolia West,87.82,142.88,124.74,197.31,464.93,Single-ply,SBD,M
Boys,89.81,10,JeCory Goosby,Bryan,87.82,165.56,99.79,181.44,446.79,Single-ply,SBD,M
Boys,89.81,11,Mark Love,Conroe The Woodlands,88.18,149.69,79.38,167.83,396.89,Single-ply,SBD,M
Boys,89.81,12,Colin Fuchigami,Conroe The Woodlands,85.64,133.81,86.18,156.49,376.48,Single-ply,SBD,M
Boys,89.81,DQ,T. Anderson,Magnolia West,87.54,163.29,120.2,,,Single-ply,SBD,M
Boys,99.79,1,Dylan Thompson,Houston Cypress Woods,97.52,233.6,165.56,231.33,630.49,Single-ply,SBD,M
Boys,99.79,2,Josh Guitierez,Magnolia West,96.8,244.94,136.08,226.8,607.81,Single-ply,SBD,M
Boys,99.79,3,Ryan Bell,Tomball Concordia Lutheran,99.79,233.6,102.06,235.87,571.53,Single-ply,SBD,M
Boys,99.79,4,Alejandro Palana,Katy Mayde Creek,97.79,231.33,117.93,217.72,566.99,Single-ply,SBD,M
Boys,99.79,5,Derek Powell,Dayton,96.43,206.38,158.76,197.31,562.45,Single-ply,SBD,M
Boys,99.79,6,Thang Nguyen,Montgomery,98.7,215.46,127.01,215.46,557.92,Single-ply,SBD,M
Boys,99.79,7,J. Johnson,Magnolia West,92.8,192.78,145.15,215.46,553.38,Single-ply,SBD,M
Boys,99.79,8,Devante Mays,Livingston,91.9,204.12,138.35,204.12,546.58,Single-ply,SBD,M
Boys,99.79,9,Matt McGlone,Magnolia,93.26,183.7,174.63,183.7,542.04,Single-ply,SBD,M
Boys,99.79,10,Patrick McCloud,Conroe The Woodlands,94.17,192.78,106.59,213.19,512.56,Single-ply,SBD,M
Boys,99.79,11,Austin Galloway,Livingston,97.89,199.58,129.27,181.44,510.29,Single-ply,SBD,M
Boys,99.79,12,Chad Campagna,Conroe,97.34,190.51,138.35,170.1,498.95,Single-ply,SBD,M
Boys,99.79,13,Donovan Jackson,Dayton,90.26,181.44,117.93,176.9,476.27,Single-ply,SBD,M
Boys,99.79,14,Christian Limbrick,Houston Cypress Woods,90.17,170.1,106.59,188.24,464.93,Single-ply,SBD,M
Boys,99.79,15,Isac Espino,Dayton,99.79,124.74,111.13,142.88,378.75,Single-ply,SBD,M
Boys,99.79,16,Eric Whitaker,Conroe The Woodlands,93.35,106.59,77.11,136.08,319.78,Single-ply,SBD,M
Boys,124.74,1,Estevan Villarreal,Houston Cypress Woods,109.86,238.14,151.95,219.99,610.08,Single-ply,SBD,M
Boys,109.77,2,Clay Boyd,Montgomery,104.05,204.12,136.08,204.12,544.31,Single-ply,SBD,M
Boys,109.77,3,Cameron Hodge,Katy Mayde Creek,105.41,204.12,131.54,199.58,535.24,Single-ply,SBD,M
Boys,109.77,4,Charles Tousant,Dayton,101.15,215.46,106.59,204.12,526.17,Single-ply,SBD,M
Boys,109.77,5,Toby Babaloa,Bryan,108.23,158.76,113.4,174.63,446.79,Single-ply,SBD,M
Boys,109.77,6,Tyler Rapp,Conroe The Woodlands,102.51,154.22,86.18,156.49,396.89,Single-ply,SBD,M
Boys,109.77,7,Jacob Cates,Livingston,107.86,131.54,68.04,113.4,312.98,Single-ply,SBD,M
Boys,109.77,DQ,Andrew Woodburn,Waller,105.23,181.44,,,,Single-ply,SBD,M
Boys,124.74,1,Nick Alvarez,Montgomery,118.21,276.69,185.97,247.21,709.87,Single-ply,SBD,M
Boys,124.74,2,Aaron Ripkowski,Dayton,112.13,249.48,165.56,272.16,687.19,Single-ply,SBD,M
Boys,124.74,3,Terran Alves,Houston Cypress Woods,120.2,226.8,149.69,233.6,610.08,Single-ply,SBD,M
Boys,124.74,4,Dimitri Forsyth,Conroe,122.02,213.19,136.08,219.99,569.26,Single-ply,SBD,M
Boys,124.74,5,Keith Lewis,Bryan,121.38,226.8,124.74,215.46,566.99,Single-ply,SBD,M
Boys,124.74,6,Marcos Torres,Katy Mayde Creek,113.4,208.65,142.88,183.7,535.24,Single-ply,SBD,M
Boys,124.74,7,Steve Stone,Conroe,111.22,217.72,129.27,176.9,523.9,Single-ply,SBD,M
Boys,124.74,8,Grant Bonnette,Conroe The Woodlands,112.31,197.31,102.06,165.56,464.93,Single-ply,SBD,M
Boys,124.74,9,Andrew Rush,Waller,119.2,174.63,90.72,185.97,451.32,Single-ply,SBD,M
Boys,124.74,10,Blake Teasdale,Montgomery,115.48,147.42,122.47,149.69,419.57,Single-ply,SBD,M
Boys,124.74,DQ,Colten Kerr,Montgomery,123.29,165.56,,,,Single-ply,SBD,M
Boys,124.74+,1,Darrian Wright,Dayton,126.28,260.82,158.76,249.48,669.05,Single-ply,SBD,M
Boys,124.74+,2,Mikal Fernandez,Houston Cypress Woods,136.35,299.37,147.42,215.46,662.24,Single-ply,SBD,M
Boys,124.74+,3,Larry Reed,Magnolia,132.81,251.74,142.88,188.24,582.87,Single-ply,SBD,M
Boys,124.74+,4,C. Kelly,Magnolia West,126.28,226.8,122.47,215.46,564.72,Single-ply,SBD,M
Boys,124.74+,5,Dalton Baker,Montgomery,139.25,226.8,154.22,181.44,562.45,Single-ply,SBD,M
Boys,124.74+,6,Tim Hines,Bryan,139.07,183.7,131.54,235.87,551.11,Single-ply,SBD,M
Boys,124.74+,7,Colton Placker,Livingston,133.45,199.58,127.01,195.04,521.63,Single-ply,SBD,M
Boys,124.74+,8,Abel Gonzalez,Livingston,142.79,197.31,106.59,181.44,485.34,Single-ply,SBD,M
Boys,124.74+,9,K. Frey,Magnolia West,131.45,183.7,102.06,183.7,469.47,Single-ply,SBD,M
Boys,124.74+,10,Leo Mora,Waller,134.08,176.9,92.99,167.83,437.72,Single-ply,SBD,M
Boys,124.74+,11,Matthew Etheridge,Waller,136.71,136.08,92.99,151.95,381.02,Single-ply,SBD,M
Boys,124.74+,12,Robbie Belk,Conroe The Woodlands,128.91,136.08,90.72,142.88,369.68,Single-ply,SBD,M
Boys,124.74+,DQ,Travis Bass,Conroe,130.91,188.24,,,,Single-ply,SBD,M
