Division,WeightClassKg,Place,Name,Team,BodyweightKg,Best3SquatKg,Best3BenchKg,Best3DeadliftKg,TotalKg,Equipment,Event,Sex
Boys,51.71,1,Echo Jones,Strawn,51.07,204.12,77.11,222.26,503.49,Single-ply,SBD,M
Boys,51.71,2,Jesus Rios,Palacios,51.44,167.83,115.67,208.65,492.15,Single-ply,SBD,M
Boys,51.71,3,Jason Nguyen,Oakridge School,50.53,165.56,74.84,165.56,405.97,Single-ply,SBD,M
Boys,51.71,4,Talon Romero,Amarillo Highland Park,51.17,149.69,95.25,151.95,396.89,Single-ply,SBD,M
Boys,51.71,5,Ryan Folds,San Angelo Grape Creek,51.26,149.69,74.84,161.03,385.55,Single-ply,SBD,M
Boys,51.71,6,Santos Gallegos,Woodville,50.8,138.35,88.45,156.49,383.29,Single-ply,SBD,M
Boys,51.71,7,Rey Martinez,Santa Rosa,51.44,133.81,88.45,161.03,383.29,Single-ply,SBD,M
Boys,51.71,8,Isaac Santillan,Clifton,51.07,129.27,81.65,149.69,360.61,Single-ply,SBD,M
Boys,51.71,9,Mason Williams,Yorktown,51.17,136.08,74.84,149.69,360.61,Single-ply,SBD,M
Boys,51.71,10,Jesse Peacock,Diana New Diana,50.62,129.27,95.25,133.81,358.34,Single-ply,SBD,M
Boys,51.71,11,Sebastian Flores,Blanco,51.71,136.08,86.18,136.08,358.34,Single-ply,SBD,M
Boys,51.71,DQ,Noah Vasquez,Palmer,50.17,,,,,Single-ply,SBD,M
Boys,55.79,1,Randy Soliz,Hebbronville,55.07,197.31,108.86,226.8,532.97,Single-ply,SBD,M
Boys,55.79,2,Callum Hurst,Coahoma,55.79,188.24,104.33,201.85,494.42,Single-ply,SBD,M
Boys,55.79,3,Fausto Rodriguez,West,55.07,170.1,99.79,181.44,451.32,Single-ply,SBD,M
Boys,55.79,4,Tyler Le,Palacios,55.52,165.56,92.99,188.24,446.79,Single-ply,SBD,M
Boys,55.79,5,Anthony Perez,Ben Bolt-Palito Blanco,53.71,154.22,106.59,183.7,444.52,Single-ply,SBD,M
Boys,55.79,6,Luke Martin,High Island,55.07,161.03,102.06,170.1,433.18,Single-ply,SBD,M
Boys,55.79,7,Trevor Koestens,Troy,55.16,161.03,102.06,170.1,433.18,Single-ply,SBD,M
Boys,55.79,8,Mario Giron,Pilot Point,54.98,174.63,92.99,161.03,428.64,Single-ply,SBD,M
Boys,55.79,9,Luis Gonzalez,Wichita Falls City View,55.52,158.76,86.18,174.63,419.57,Single-ply,SBD,M
Boys,55.79,10,Richard Lowrie,Kemp,54.98,176.9,88.45,147.42,412.77,Single-ply,SBD,M
Boys,55.79,11,Gabe Boyett,Moran,55.16,154.22,90.72,163.29,408.23,Single-ply,SBD,M
Boys,55.79,DQ,Brodie Cantu,Dawson,55.79,136.08,,,,Single-ply,SBD,M
Boys,59.87,1,Raymon Aranda,Seagraves,59.87,215.46,129.27,219.99,564.72,Single-ply,SBD,M
Boys,59.87,2,Cristian Martinez,Bowie,58.33,199.58,115.67,185.97,501.22,Single-ply,SBD,M
Boys,59.87,3,Luis Trejo,Friona,59.42,190.51,113.4,190.51,494.42,Single-ply,SBD,M
Boys,59.87,4,Oziel Padilla,Natalia,59.42,192.78,99.79,176.9,469.47,Single-ply,SBD,M
Boys,59.87,5,Bobby Hanson,Axtell,59.42,165.56,111.13,183.7,460.4,Single-ply,SBD,M
Boys,59.87,6,Lamar Turner,Edna,59.06,161.03,92.99,204.12,458.13,Single-ply,SBD,M
Boys,59.87,7,Davin Carboni,Hillsboro,58.6,170.1,108.86,170.1,449.06,Single-ply,SBD,M
Boys,59.87,8,Ryan Fincher,Queen City,59.06,163.29,99.79,172.37,435.45,Single-ply,SBD,M
Boys,59.87,9,Tuan Hoang,Wichita Falls City View,58.79,154.22,79.38,163.29,396.89,Single-ply,SBD,M
Boys,59.87,DQ,Cole Johnson,Colmesneil,58.51,167.83,,,,Single-ply,SBD,M
Boys,59.87,DQ,Jordan Ramirez,Palmer,59.06,167.83,99.79,,,Single-ply,SBD,M
Boys,67.13,1,Cesar Herrera,Glen Rose,64.32,233.6,127.01,226.8,587.4,Single-ply,SBD,M
Boys,67.13,2,Estevan Galvan,Freer,64.95,215.46,117.93,235.87,569.26,Single-ply,SBD,M
Boys,67.13,3,J. Paul Axtell,Olney,65.77,235.87,120.2,210.92,566.99,Single-ply,SBD,M
Boys,67.13,4,Kristopher Imhof,San Antonio Cole,66.32,226.8,108.86,217.72,553.38,Single-ply,SBD,M
Boys,67.13,5,Dylan Gibson,Maud,65.77,215.46,106.59,213.19,535.24,Single-ply,SBD,M
Boys,67.13,6,Andrew Martinez,Coahoma,65.68,210.92,113.4,201.85,526.17,Single-ply,SBD,M
Boys,67.13,7,Eddie Torres,Blanco,66.04,199.58,115.67,210.92,526.17,Single-ply,SBD,M
Boys,67.13,8,Tyler Murphy,Warren,67.13,195.04,104.33,217.72,517.1,Single-ply,SBD,M
Boys,67.13,9,Matthew Rumbaugh,Commerce,65.86,192.78,113.4,208.65,514.83,Single-ply,SBD,M
Boys,67.13,10,Ronald Krushall,Boling,67.04,183.7,104.33,197.31,485.34,Single-ply,SBD,M
Boys,67.13,DQ,JD Rojas,Lubbock Roosevelt,62.78,181.44,,,,Single-ply,SBD,M
Boys,67.13,DQ,Andrew Magedson,Leonard,66.22,217.72,122.47,,,Single-ply,SBD,M
Boys,74.84,1,Javier Rodriguez,San Diego,73.57,251.74,142.88,210.92,605.55,Single-ply,SBD,M
Boys,74.84,2,John Jurado,Ozona,72.67,249.48,122.47,222.26,594.21,Single-ply,SBD,M
Boys,74.84,3,Eric Lucio,Louise,74.39,235.87,124.74,226.8,587.4,Single-ply,SBD,M
Boys,74.84,4,Leonel Salinas,San Diego,74.21,249.48,127.01,206.38,582.87,Single-ply,SBD,M
Boys,74.84,5,Danny Ho,Wichita Falls City View,72.94,217.72,129.27,231.33,578.33,Single-ply,SBD,M
Boys,74.84,6,Justin Griffin,Eustace,73.94,219.99,133.81,208.65,562.45,Single-ply,SBD,M
Boys,74.84,7,Seth Alvarez,Palacios,74.03,235.87,113.4,210.92,560.19,Single-ply,SBD,M
Boys,74.84,8,Cody Coldwell,Sunnyvale,73.66,233.6,142.88,181.44,557.92,Single-ply,SBD,M
Boys,74.84,9,Eric Shaw,Lone Oak,72.85,208.65,140.61,192.78,542.04,Single-ply,SBD,M
Boys,74.84,DQ,Devyn Hebbe,Axtell,71.67,,,,,Single-ply,SBD,M
Boys,74.84,DQ,Leo Guerrero,Trinity,72.85,,,,,Single-ply,SBD,M
Boys,74.84,DQ,Caleb Wilson,Mertzon Irion County,74.75,,,,,Single-ply,SBD,M
Boys,82.1,1,Tate Richards,Springlake Earth,81.83,272.16,183.7,238.14,694,Single-ply,SBD,M
Boys,82.1,2,Dante Gomez,Clyde,79.2,249.48,147.42,226.8,623.69,Single-ply,SBD,M
Boys,82.1,3,Hunter Douzat,Little River Academy,78.2,235.87,149.69,224.53,610.08,Single-ply,SBD,M
Boys,82.1,4,Anthony McGuill,Refugio,80.29,231.33,129.27,244.94,605.55,Single-ply,SBD,M
Boys,82.1,5,Dominic Garcia,Palacios,81.47,231.33,133.81,240.4,605.55,Single-ply,SBD,M
Boys,82.1,6,Cameron Riess,Grapeland,80.2,249.48,136.08,215.46,601.01,Single-ply,SBD,M
Boys,82.1,7,Chase Mackey,Gordon,81.65,235.87,136.08,226.8,598.74,Single-ply,SBD,M
Boys,82.1,8,Cercharvic Berry,San Augustine,80.38,217.72,131.54,240.4,589.67,Single-ply,SBD,M
Boys,82.1,9,Isaiah Herring,Hallettsville,77.84,226.8,129.27,210.92,566.99,Single-ply,SBD,M
Boys,82.1,10,Brandon Murphy,Whitesboro,81.19,226.8,111.13,208.65,546.58,Single-ply,SBD,M
Boys,82.1,DQ,Lane McClelland,George West,80.83,235.87,,,,Single-ply,SBD,M
Boys,82.1,DQ,Brandon Munoz,George West,80.1,,,,,Single-ply,SBD,M
Boys,82.1,DQ,Nacho Rios,Comanche,79.65,210.92,138.35,,,Single-ply,SBD,M
Boys,,NS,Jarius Williams,Warren,,,,,,Single-ply,SBD,M
Boys,89.81,1,Arnold Sauceda,Hebbronville,86.45,278.96,188.24,251.74,718.94,Single-ply,SBD,M
Boys,89.81,2,Cris Stallings,Kermit,86.64,238.14,183.7,244.94,666.78,Single-ply,SBD,M
Boys,89.81,3,Eduardo Hernandez,Denver City,89.72,242.67,170.1,233.6,646.37,Single-ply,SBD,M
Boys,89.81,4,Grant Stansberry,Gladewater Sabine,87.45,238.14,156.49,229.06,623.69,Single-ply,SBD,M
Boys,89.81,5,Michael Autenrieth,Waco Reicher Catholic,89.81,235.87,145.15,231.33,612.35,Single-ply,SBD,M
Boys,89.81,6,Logan Blake,Red Oak Life,89.72,247.21,151.95,208.65,607.81,Single-ply,SBD,M
Boys,89.81,7,Payton Nance,Comanche,83.37,233.6,122.47,249.48,605.55,Single-ply,SBD,M
Boys,89.81,8,Athens Gochis,Pilot Point,89.18,224.53,124.74,226.8,576.06,Single-ply,SBD,M
Boys,89.81,9,Elijah Edwards,Palacios,85.46,192.78,133.81,226.8,553.38,Single-ply,SBD,M
Boys,89.81,DQ,Austin Bennett,Ponder,88.54,249.48,136.08,,,Single-ply,SBD,M
Boys,89.81,DQ,Karl Gibson II,Mathis,88.36,,,,,Single-ply,SBD,M
Boys,89.81,DQ,Cesar Molina,Anahuac,88.72,210.92,161.03,,,Single-ply,SBD,M
Boys,99.79,1,Jose Moreno,San Diego,97.61,301.64,158.76,290.3,750.7,Single-ply,SBD,M
Boys,99.79,2,JD Esquivel,Big Lake Reagan County,99.25,276.69,138.35,278.96,694,Single-ply,SBD,M
Boys,99.79,3,Kaden Hardt,Hallettsville,96.8,272.16,165.56,254.01,691.73,Single-ply,SBD,M
Boys,99.79,4,Jace Jarvis,Caddo Mills,94.89,272.16,138.35,272.16,682.66,Single-ply,SBD,M
Boys,99.79,5,Xavier Garza,Sundown,97.61,272.16,156.49,249.48,678.12,Single-ply,SBD,M
Boys,99.79,6,Eric Marton,Axtell,97.89,272.16,136.08,249.48,657.71,Single-ply,SBD,M
Boys,99.79,7,Jason Marroquin,Axtell,97.98,242.67,133.81,263.08,639.57,Single-ply,SBD,M
Boys,99.79,8,Jose Orellana,La Pryor,92.44,233.6,156.49,244.94,635.03,Single-ply,SBD,M
Boys,99.79,9,Jacob Garza,Vanderbilt Industrial,98.79,265.35,172.37,197.31,635.03,Single-ply,SBD,M
Boys,99.79,10,Triston Matthews,Howe,95.53,249.48,149.69,226.8,625.96,Single-ply,SBD,M
Boys,99.79,11,Andre Agan,Elkhart,96.34,226.8,163.29,226.8,616.89,Single-ply,SBD,M
Boys,99.79,12,Ramon Guerra,Wichita Falls City View,98.07,256.28,120.2,229.06,605.55,Single-ply,SBD,M
Boys,99.79,DQ,Ty Jalowy,East Bernard,93.08,242.67,,,,Single-ply,SBD,M
Boys,109.77,1,Juan Lopez,Winnie East Chambers,107.41,349.27,201.85,238.14,789.25,Single-ply,SBD,M
Boys,109.77,2,Cristian Contreras,Hearne,109.13,292.57,206.38,265.35,764.3,Single-ply,SBD,M
Boys,109.77,3,Matt Coker,Caddo Mills,107.41,272.16,192.78,263.08,728.02,Single-ply,SBD,M
Boys,109.77,4,Haddan Stokes,Clyde,104.6,294.84,181.44,249.48,725.75,Single-ply,SBD,M
Boys,109.77,5,Eli Crawford,Kerens,109.68,272.16,138.35,263.08,673.58,Single-ply,SBD,M
Boys,109.77,6,Jesse Cuellar,Coahoma,106.68,272.16,181.44,206.38,659.98,Single-ply,SBD,M
Boys,109.77,7,Colton Liles,Kirbyville,108.5,231.33,197.31,226.8,655.44,Single-ply,SBD,M
Boys,109.77,8,Ruben Casas,Falfurrias,106.14,260.82,161.03,219.99,641.83,Single-ply,SBD,M
Boys,109.77,9,Jacob Aguirre,Rockdale,106.23,242.67,156.49,235.87,635.03,Single-ply,SBD,M
Boys,109.77,10,Cody Holoway,Paradise,109.59,249.48,131.54,238.14,619.15,Single-ply,SBD,M
Boys,109.77,DQ,Jacob Caldera,San Antonio Cole,106.32,,,,,Single-ply,SBD,M
Boys,109.77,DQ,Chris Bloyd,White Oak,100.7,,,,,Single-ply,SBD,M
Boys,109.77,DQ,Brady Vickery,Vanderbilt Industrial,108.41,,,,,Single-ply,SBD,M
Boys,109.77,DQ,Austin Coker,Santo,106.05,265.35,,,,Single-ply,SBD,M
Boys,124.74,1,Ryan Mitchell,Teague,123.01,340.19,215.46,260.82,816.47,Single-ply,SBD,M
Boys,124.74,2,Javier Henderson,Mathis,122.02,362.87,179.17,249.48,791.52,Single-ply,SBD,M
Boys,124.74,3,Blake Johnson,Franklin,123.47,319.78,165.56,267.62,752.96,Single-ply,SBD,M
Boys,124.74,4,Pedro Bernal,Comanche,120.84,317.51,170.1,263.08,750.7,Single-ply,SBD,M
Boys,124.74,5,Ronnie Killen,Wichita Falls City View,111.31,299.37,149.69,288.03,737.09,Single-ply,SBD,M
Boys,124.74,6,Angel DeLuna,Big Lake Reagan County,112.49,306.17,167.83,260.82,734.82,Single-ply,SBD,M
Boys,124.74,7,Saul Landaverde,Bowie,122.11,317.51,163.29,238.14,718.94,Single-ply,SBD,M
Boys,124.74,8,Mikey Grubbs,Mount Enterprise,119.39,285.76,165.56,263.08,714.41,Single-ply,SBD,M
Boys,124.74,9,Dante Medina,Nixon Smiley,122.38,303.91,185.97,222.26,712.14,Single-ply,SBD,M
Boys,124.74,10,Tanner Edwards,Paradise,119.2,285.76,176.9,233.6,696.26,Single-ply,SBD,M
Boys,124.74,11,Luis Barron,Danbury,121.65,272.16,161.03,258.55,691.73,Single-ply,SBD,M
Boys,124.74,12,Adrian Hernandez,San Angelo Grape Creek,115.85,274.42,154.22,254.01,682.66,Single-ply,SBD,M
Boys,124.74,13,Collin Chesson,Saratoga West Hardin,123.01,263.08,185.97,219.99,669.05,Single-ply,SBD,M
Boys,124.74+,1,Wade Cookston,Sunnyvale,138.44,317.51,217.72,288.03,823.27,Single-ply,SBD,M
Boys,124.74+,2,Nicholas Zapata,Bishop,132.09,340.19,199.58,274.42,814.2,Single-ply,SBD,M
Boys,124.74+,3,Ray Navarro,Natalia,134.72,347,170.1,294.84,811.93,Single-ply,SBD,M
Boys,124.74+,4,AJ Garcia,Hughes Springs,161.75,340.19,181.44,249.48,771.11,Single-ply,SBD,M
Boys,124.74+,5,Sheldon Parkman,Gunter,138.44,340.19,185.97,235.87,762.04,Single-ply,SBD,M
Boys,124.74+,6,Michael Diaz,Stockdale,134.17,294.84,181.44,260.82,737.09,Single-ply,SBD,M
Boys,124.74+,7,James Nino,Weimar,142.25,294.84,170.1,260.82,725.75,Single-ply,SBD,M
Boys,124.74+,8,Ernie Veloz,Big Lake Reagan County,146.42,294.84,185.97,238.14,718.94,Single-ply,SBD,M
Boys,124.74+,9,Drew Thigpen,Little River Academy,140.16,283.5,172.37,215.46,671.32,Single-ply,SBD,M
Boys,124.74+,10,Joel Wamget,Van Vleck,140.34,256.28,174.63,222.26,653.17,Single-ply,SBD,M
Boys,124.74+,11,Joel Sanchez,Luling,172.73,272.16,147.42,215.46,635.03,Single-ply,SBD,M
Boys,124.74+,DQ,Cardrae Brown,Joaquin,155.13,333.39,,,,Single-ply,SBD,M
Boys,124.74+,DQ,James Cooksey,Kenedy,134.26,278.96,,,,Single-ply,SBD,M
Boys,124.74+,DQ,Taylor McBride,Cushing,140.34,,,,,Single-ply,SBD,M
Boys,124.74+,DQ,Antonio Perez,San Angelo Grape Creek,125.37,,,,,Single-ply,SBD,M
