Division,WeightClassKg,Place,Name,Team,BodyweightKg,Best3SquatKg,Best3BenchKg,Best3DeadliftKg,TotalKg,Equipment,Event,Sex
Boys,51.71,1,Chance Kooi,Conroe Caney Creek,50.17,102.06,61.23,106.59,269.89,Single-ply,SBD,M
Boys,55.79,1,Daniel Moreno #3,Dayton,55.7,147.42,81.65,181.44,410.5,Single-ply,SBD,M
Boys,55.79,2,Jamahl Johnson,Houston Cypress Woods,55.34,151.95,88.45,167.83,408.23,Single-ply,SBD,M
Boys,67.13,1,Max Baronaske,Tomball,60.1,167.83,127.01,181.44,476.27,Single-ply,SBD,M
Boys,67.13,2,Anthony Grimes,Katy Mayde Creek,59.96,165.56,104.33,204.12,474,Single-ply,SBD,M
Boys,67.13,3,Pedro Vazquez,Katy Mayde Creek,60.06,113.4,99.79,167.83,381.02,Single-ply,SBD,M
Boys,59.87,4,Fernando Mendez,Conroe Caney Creek,59.51,115.67,61.23,111.13,288.03,Single-ply,SBD,M
Boys,67.13,1,Josh Salas,Katy Mayde Creek,67.04,199.58,104.33,219.99,523.9,Single-ply,SBD,M
Boys,67.13,2,Brandon Coleman,Alief Taylor,61.87,145.15,83.91,158.76,387.82,Single-ply,SBD,M
Boys,67.13,3,Dylan Mora,Conroe Caney Creek,61.69,120.2,79.38,124.74,324.32,Single-ply,SBD,M
Boys,74.84,1,Ryan McBride,Dayton,72.03,199.58,113.4,208.65,521.63,Single-ply,SBD,M
Boys,74.84,2,Bobby Goss,Dayton,73.75,190.51,106.59,210.92,508.02,Single-ply,SBD,M
Boys,74.84,3,Daniel Douglas,Dayton,74.66,181.44,111.13,197.31,489.88,Single-ply,SBD,M
Boys,74.84,DQ,Ryan Derice,Katy Mayde Creek,74.48,170.1,,,,Single-ply,SBD,M
Boys,82.1,1,Jamaud St Andre,Dayton,79.83,172.37,142.88,213.19,528.44,Single-ply,SBD,M
Boys,82.1,2,Casem Nourredin,Houston Cypress Woods,78.56,195.04,127.01,204.12,526.17,Single-ply,SBD,M
Boys,82.1,3,Percy Alford,Tomball,75.48,197.31,97.52,183.7,478.54,Single-ply,SBD,M
Boys,82.1,4,Tyler Carthers,Alief Taylor,77.66,172.37,127.01,179.17,478.54,Single-ply,SBD,M
Boys,82.1,5,Chane Bodden,Katy Mayde Creek,78.2,181.44,111.13,183.7,476.27,Single-ply,SBD,M
Boys,82.1,6,Nathaniel Ozen,Dayton,80.29,181.44,86.18,199.58,467.2,Single-ply,SBD,M
Boys,82.1,7,Josh Cruz,Alief Taylor,81.74,147.42,102.06,163.29,412.77,Single-ply,SBD,M
Boys,82.1,8,Chris Okwegba,Alief Taylor,75.57,149.69,92.99,163.29,405.97,Single-ply,SBD,M
Boys,82.1,9,Chris Coffer,Conroe Caney Creek,76.29,138.35,95.25,142.88,376.48,Single-ply,SBD,M
Boys,89.81,1,Xavier Benitez,Katy Mayde Creek,88.27,226.8,142.88,226.8,596.47,Single-ply,SBD,M
Boys,89.81,2,Solomon Ajai,Alief Taylor,87.36,188.24,102.06,192.78,483.08,Single-ply,SBD,M
Boys,89.81,3,Ayman Elayyan,Houston Cypress Woods,85.55,165.56,138.35,158.76,462.66,Single-ply,SBD,M
Boys,89.81,4,Dillon Anderson,Katy Mayde Creek,88,158.76,102.06,170.1,430.91,Single-ply,SBD,M
Boys,89.81,5,Joshua Van Sant,Tomball,84.46,156.49,99.79,165.56,421.84,Single-ply,SBD,M
Boys,99.79,6,William Bryant,Conroe Caney Creek,90.04,106.59,90.72,120.2,317.51,Single-ply,SBD,M
Boys,89.81,DQ,Sterling Brumant,Katy Mayde Creek,84.01,,,,,Single-ply,SBD,M
Boys,109.77,1,Donnie Preston,Tomball,100.02,260.82,124.74,260.82,646.37,Single-ply,SBD,M
Boys,99.79,2,Alejandro Palana,Katy Mayde Creek,99.34,244.94,124.74,254.01,623.69,Single-ply,SBD,M
Boys,99.79,3,Donovon Jackson,Dayton,90.81,215.46,136.08,222.26,573.79,Single-ply,SBD,M
Boys,99.79,4,Obo Okoronkwo,Alief Taylor,92.8,208.65,138.35,226.8,573.79,Single-ply,SBD,M
Boys,99.79,5,Alvin Nguyen,Alief Taylor,97.34,229.06,131.54,197.31,557.92,Single-ply,SBD,M
Boys,99.79,6,Cameron Eiland,Dayton,94.26,215.46,124.74,206.38,546.58,Single-ply,SBD,M
Boys,99.79,7,Reno Dominguez,Katy Mayde Creek,97.25,226.8,113.4,204.12,544.31,Single-ply,SBD,M
Boys,99.79,8,Deion Lilly,Alief Taylor,91.72,190.51,145.15,195.04,530.7,Single-ply,SBD,M
Boys,99.79,9,Lorenzo Flores,Conroe Caney Creek,97.43,197.31,120.2,192.78,510.29,Single-ply,SBD,M
Boys,99.79,10,Jordan Jones,Houston Cypress Woods,94.89,206.38,111.13,190.51,508.02,Single-ply,SBD,M
Boys,99.79,11,Kaleb Campbell,Alief Taylor,96.71,219.99,106.59,174.63,501.22,Single-ply,SBD,M
Boys,99.79,12,Eduardo Moran,Katy Mayde Creek,99.79,183.7,104.33,183.7,471.74,Single-ply,SBD,M
Boys,99.79,13,Jalen Leviege,Alief Taylor,91.53,170.1,106.59,192.78,469.47,Single-ply,SBD,M
Boys,99.79,14,Jeff Holstein,Dayton,96.71,163.29,108.86,174.63,446.79,Single-ply,SBD,M
Boys,109.77,15,Anthony Linderoth,Conroe Caney Creek,100.02,165.56,83.91,151.95,401.43,Single-ply,SBD,M
Boys,109.77,1,Cameron Hodge,Katy Mayde Creek,107.32,215.46,165.56,238.14,619.15,Single-ply,SBD,M
Boys,109.77,2,Josh McKinnies,Katy Mayde Creek,103.87,219.99,127.01,215.46,562.45,Single-ply,SBD,M
Boys,109.77,3,Kenneth Vera-Ramirez,Katy Mayde Creek,107.77,226.8,136.08,195.04,557.92,Single-ply,SBD,M
Boys,109.77,4,Marquise White,Houston Cypress Woods,104.51,226.8,124.74,204.12,555.65,Single-ply,SBD,M
Boys,109.77,5,Young Troung,Alief Taylor,107.77,181.44,106.59,174.63,462.66,Single-ply,SBD,M
Boys,109.77,6,Robert Burges,Houston Cypress Woods,109.59,183.7,92.99,183.7,460.4,Single-ply,SBD,M
Boys,109.77,7,Jordan Woodward,Houston Cypress Woods,102.51,151.95,102.06,183.7,437.72,Single-ply,SBD,M
Boys,109.77,8,Andrew Velasco,Katy Mayde Creek,106.14,158.76,99.79,167.83,426.38,Single-ply,SBD,M
Boys,109.77,9,Joseph Staggs,Conroe Caney Creek,105.05,151.95,106.59,156.49,415.04,Single-ply,SBD,M
Boys,124.74,1,Ismail Hassan,Katy Mayde Creek,110.22,215.46,124.74,206.38,546.58,Single-ply,SBD,M
Boys,124.74,2,Shannon Standley,Conroe Caney Creek,121.93,204.12,115.67,156.49,476.27,Single-ply,SBD,M
Boys,124.74,DQ,Christian Reyes,Katy Mayde Creek,121.65,226.8,161.03,226.8,,Single-ply,SBD,M
Boys,124.74+,1,Jacob Butterfield,Dayton,129.64,231.33,142.88,233.6,607.81,Single-ply,SBD,M
Boys,124.74+,2,Mohammad El-Zibdeh,Houston Cypress Woods,131.45,215.46,129.27,183.7,528.44,Single-ply,SBD,M
