Division,WeightClassKg,Place,Name,Team,BodyweightKg,Best3SquatKg,Best3BenchKg,Best3DeadliftKg,TotalKg,Equipment,Event,Sex
Boys,55.79,1,Hayden Chenault,Springtown,51.8,79.38,54.43,90.72,224.53,Single-ply,SBD,M
Boys,51.71,2,CJ Jones,Fort Worth Boswell,50.8,70.31,49.9,83.91,204.12,Single-ply,SBD,M
Boys,51.71,DQ,Jonathan Cumpton,Saginaw,50.35,83.91,,,,Single-ply,SBD,M
Boys,59.87,1,Felipe Hernández,Saginaw,55.97,124.74,74.84,129.27,328.85,Single-ply,SBD,M
Boys,55.79,2,Chris Delgado,Fort Worth Boswell,53.43,95.25,68.04,140.61,303.91,Single-ply,SBD,M
Boys,55.79,3,Caleb Salazar,Fort Worth Boswell,53.52,92.99,63.5,102.06,258.55,Single-ply,SBD,M
Boys,55.79,4,Austin Chenault,Springtown,55.2,70.31,61.23,124.74,256.28,Single-ply,SBD,M
Boys,67.13,1,Anthony Cuevas,Saginaw,60.01,142.88,108.86,149.69,401.43,Single-ply,SBD,M
Boys,59.87,2,DeLonte Christmas,Fort Worth Boswell,58.69,140.61,81.65,142.88,365.14,Single-ply,SBD,M
Boys,59.87,3,Gabriel García,Fort Worth Boswell,59.87,102.06,77.11,131.54,310.71,Single-ply,SBD,M
Boys,59.87,4,Suliman Uddin,Springtown,59.42,95.25,54.43,115.67,265.35,Single-ply,SBD,M
Boys,67.13,1,Treveon Kindle,Fort Worth Boswell,64.86,181.44,106.59,199.58,487.61,Single-ply,SBD,M
Boys,67.13,2,Isaiah Mayfield,Fort Worth Boswell,63.05,142.88,86.18,138.35,367.41,Single-ply,SBD,M
Boys,67.13,3,Jackson Walker,Springtown,66.77,122.47,70.31,151.95,344.73,Single-ply,SBD,M
Boys,67.13,4,Drake York,Springtown,64.36,127.01,81.65,129.27,337.93,Single-ply,SBD,M
Boys,67.13,5,Jacob Mueller,Fort Worth Boswell,61.69,102.06,56.7,108.86,267.62,Single-ply,SBD,M
Boys,67.13,DQ,Paul Espinoza,Fort Worth Boswell,61.51,124.74,,,,Single-ply,SBD,M
Boys,74.84,1,Gage McQuade,Fort Worth Boswell,74.84,195.04,117.93,181.44,494.42,Single-ply,SBD,M
Boys,74.84,2,Jarrod Nelson,Springtown,72.67,158.76,102.06,167.83,428.64,Single-ply,SBD,M
Boys,74.84,3,Julian Cothren,Fort Worth Boswell,72.94,131.54,95.25,161.03,387.82,Single-ply,SBD,M
Boys,74.84,4,Ryan Snow,Springtown,74.84,136.08,74.84,172.37,383.29,Single-ply,SBD,M
Boys,74.84,5,Gabriel Morales,Saginaw,71.89,129.27,97.52,149.69,376.48,Single-ply,SBD,M
Boys,74.84,DQ,Miguel Corral,Saginaw,70.76,113.4,,,,Single-ply,SBD,M
Boys,82.1,1,Damian Sprayberry,Springtown,81.69,163.29,104.33,181.44,449.06,Single-ply,SBD,M
Boys,82.1,2,Chris Hammond,Saginaw,78.02,183.7,104.33,156.49,444.52,Single-ply,SBD,M
Boys,82.1,3,Tieranan Hendrix,Fort Worth Boswell,77.56,131.54,77.11,149.69,358.34,Single-ply,SBD,M
Boys,82.1,4,Baret Tedder,Springtown,75.75,136.08,65.77,124.74,326.59,Single-ply,SBD,M
Boys,82.1,DQ,Andres Holguiin,Fort Worth Boswell,80.42,176.9,,,,Single-ply,SBD,M
Boys,82.1,DQ,Colton Humphrey,Fort Worth Boswell,79.83,190.51,,185.97,,Single-ply,SBD,M
Boys,89.81,1,Josef Sprinkle,Fort Worth Boswell,83.91,165.56,108.86,170.1,444.52,Single-ply,SBD,M
Boys,89.81,2,Andrew Oxford,Springtown,83.69,165.56,88.45,181.44,435.45,Single-ply,SBD,M
Boys,89.81,3,Matt Brunk,Saginaw,89.81,147.42,106.59,174.63,428.64,Single-ply,SBD,M
Boys,89.81,4,Chance Nelson,Springtown,84.91,156.49,99.79,170.1,426.38,Single-ply,SBD,M
Boys,99.79,1,Cody Trahan,Fort Worth Boswell,93.44,192.78,136.08,190.51,519.36,Single-ply,SBD,M
Boys,99.79,2,Nathan Badillo,Saginaw,98.88,213.19,120.2,176.9,510.29,Single-ply,SBD,M
Boys,99.79,3,Jan Garcia,Saginaw,99.74,197.31,113.4,183.7,494.42,Single-ply,SBD,M
Boys,109.77,4,Cale Hatfield,Saginaw,100.02,195.04,122.47,176.9,494.42,Single-ply,SBD,M
Boys,99.79,5,Er'Ron Williams,Saginaw,99.56,181.44,131.54,172.37,485.34,Single-ply,SBD,M
Boys,99.79,6,Tyler White,Springtown,91.17,136.08,92.99,145.15,374.21,Single-ply,SBD,M
Boys,99.79,7,Jimmy Crook,Springtown,98.79,136.08,90.72,147.42,374.21,Single-ply,SBD,M
Boys,109.77,1,Jobani Chavez,Springtown,101.88,181.44,104.33,185.97,471.74,Single-ply,SBD,M
Boys,109.77,2,Gage Clark,Fort Worth Boswell,109.77,172.37,124.74,172.37,469.47,Single-ply,SBD,M
Boys,109.77,3,Sam Gonzales,Saginaw,100.7,174.63,127.01,165.56,467.2,Single-ply,SBD,M
Boys,109.77,4,Martine Medina,Springtown,101.7,167.83,102.06,192.78,462.66,Single-ply,SBD,M
Boys,109.77,5,Nathan Hanna,Saginaw,107.5,158.76,158.76,145.15,462.66,Single-ply,SBD,M
Boys,109.77,6,Ethan Maple,Springtown,103.33,158.76,79.38,165.56,403.7,Single-ply,SBD,M
Boys,109.77,DQ,Koby Stevenson,Fort Worth Boswell,108.86,158.76,,,,Single-ply,SBD,M
Boys,124.74,1,Dominic Hill,Fort Worth Boswell,122.92,272.16,167.83,226.8,666.78,Single-ply,SBD,M
Boys,124.74,2,Eli Guerra,Fort Worth Boswell,120.2,204.12,158.76,226.8,589.67,Single-ply,SBD,M
Boys,124.74,3,Brody Maples,Fort Worth Boswell,122.47,197.31,127.01,181.44,505.76,Single-ply,SBD,M
Boys,124.74,4,Jordan Hernandez,Saginaw,111.58,158.76,111.13,156.49,426.38,Single-ply,SBD,M
Boys,124.74,5,Jake Allsbrooks,Fort Worth Boswell,121.56,188.24,83.91,142.88,415.04,Single-ply,SBD,M
Boys,124.74,6,Carter Bobo,Springtown,116.57,158.76,81.65,149.69,390.09,Single-ply,SBD,M
Boys,124.74,7,Dustin Hinton,Springtown,119.52,113.4,72.57,138.35,324.32,Single-ply,SBD,M
Boys,124.74+,1,Jesse Ioanis,Fort Worth Boswell,130.63,226.8,106.59,208.65,542.04,Single-ply,SBD,M
Boys,124.74+,2,Jesse Springfield,Springtown,126.55,167.83,102.06,195.04,464.93,Single-ply,SBD,M
