Division,WeightClassKg,Place,Name,Team,BodyweightKg,Best3SquatKg,Best3BenchKg,Best3DeadliftKg,TotalKg,Equipment,Event,Sex
Boys,51.71,1,Miguel Gallegos,Dublin,51.35,99.79,68.04,142.88,310.71,Single-ply,SBD,M
Boys,51.71,2,John Sotelo,Stephenville,47.99,102.06,58.97,124.74,285.76,Single-ply,SBD,M
Boys,51.71,3,Yancy Perkins,Comanche,50.71,88.45,47.63,108.86,244.94,Single-ply,SBD,M
Boys,51.71,4,Omero Arrendondo,Comanche,49.26,72.57,52.16,102.06,226.8,Single-ply,SBD,M
Boys,55.79,1,Hanner Campbell,Early,54.34,131.54,54.43,136.08,322.05,Single-ply,SBD,M
Boys,55.79,2,Elijah Dyer,Early,55.7,113.4,79.38,124.74,317.51,Single-ply,SBD,M
Boys,55.79,3,Juan Hernández,Comanche,55.79,120.2,68.04,122.47,310.71,Single-ply,SBD,M
Boys,55.79,4,Arnoldo Moreno,Dublin,54.16,102.06,49.9,124.74,276.69,Single-ply,SBD,M
Boys,55.79,5,Trey Orsini,Strawn,55.25,90.72,52.16,102.06,244.94,Single-ply,SBD,M
Boys,55.79,6,Trenton Sizemore,Strawn,55.79,81.65,54.43,90.72,226.8,Single-ply,SBD,M
Boys,59.87,1,Ricky Lopez,Dublin,57.24,124.74,81.65,149.69,356.07,Single-ply,SBD,M
Boys,59.87,2,Aaron Suniga,Comanche,58.88,136.08,72.57,136.08,344.73,Single-ply,SBD,M
Boys,59.87,3,Tony Leos,Comanche,58.06,117.93,56.7,129.27,303.91,Single-ply,SBD,M
Boys,59.87,4,Dalton Walker,Ranger,58.42,104.33,72.57,106.59,283.5,Single-ply,SBD,M
Boys,67.13,1,Cale Wade,Early,60.69,181.44,120.2,149.69,451.32,Single-ply,SBD,M
Boys,67.13,2,Anthony Seider,Lometa,66.77,149.69,92.99,188.24,430.91,Single-ply,SBD,M
Boys,67.13,3,Dylan Mickler,Coleman,63.59,120.2,83.91,147.42,351.53,Single-ply,SBD,M
Boys,67.13,4,Reece Bolton,Early,60.24,136.08,68.04,136.08,340.19,Single-ply,SBD,M
Boys,67.13,5,Matthew Ramsey,Coleman,61.05,106.59,86.18,117.93,310.71,Single-ply,SBD,M
Boys,67.13,6,Jerry Avarez,Ranger,67.13,117.93,65.77,124.74,308.44,Single-ply,SBD,M
Boys,67.13,7,Dj Smart,Lometa,65.5,92.99,61.23,111.13,265.35,Single-ply,SBD,M
Boys,67.13,8,Donnie Smart,Lometa,62.87,88.45,56.7,106.59,251.74,Single-ply,SBD,M
Boys,67.13,9,Hoss Guthrie,Lometa,60.42,83.91,61.23,99.79,244.94,Single-ply,SBD,M
Boys,67.13,DQ,Carlos Villanueva,Strawn,63.32,181.44,,,,Single-ply,SBD,M
Boys,67.13,DQ,Jw Montgomery,Strawn,64.23,163.29,,,,Single-ply,SBD,M
Boys,74.84,1,Manuel DeLeon,Dublin,74.12,192.78,108.86,165.56,467.2,Single-ply,SBD,M
Boys,74.84,2,Tre Beam,Early,68.76,167.83,108.86,179.17,455.86,Single-ply,SBD,M
Boys,74.84,3,Ryan Jones,Early,74.3,158.76,106.59,165.56,430.91,Single-ply,SBD,M
Boys,74.84,4,Zach Foster,Comanche,74.39,183.7,90.72,154.22,428.64,Single-ply,SBD,M
Boys,74.84,5,Ruben Reyes,Stephenville,72.57,161.03,97.52,167.83,426.38,Single-ply,SBD,M
Boys,74.84,6,John Sanchez,Ranger,72.03,151.95,108.86,156.49,417.3,Single-ply,SBD,M
Boys,74.84,7,Taylor Patton,Dublin,74.12,129.27,102.06,167.83,399.16,Single-ply,SBD,M
Boys,74.84,8,Tyler Ray,Baird,72.39,129.27,86.18,138.35,353.8,Single-ply,SBD,M
Boys,74.84,9,CJ Ruggles,Comanche,74.75,136.08,72.57,136.08,344.73,Single-ply,SBD,M
Boys,74.84,10,Gavin Carper,Baird,70.31,102.06,61.23,127.01,290.3,Single-ply,SBD,M
Boys,82.1,1,Kade Mercer,Comanche,82.1,201.85,142.88,208.65,553.38,Single-ply,SBD,M
Boys,82.1,2,Cristian Vazquez,Dublin,78.29,192.78,120.2,206.38,519.36,Single-ply,SBD,M
Boys,82.1,3,Kyle Gault,Strawn,80.38,204.12,113.4,199.58,517.1,Single-ply,SBD,M
Boys,82.1,4,Blaize Leatherwood,Dublin,81.1,183.7,111.13,206.38,501.22,Single-ply,SBD,M
Boys,82.1,5,Colby Henry,Lometa,80.1,170.1,131.54,197.31,498.95,Single-ply,SBD,M
Boys,82.1,6,Lorenzo Garcia,Strawn,81.65,170.1,113.4,170.1,453.59,Single-ply,SBD,M
Boys,82.1,7,Steve Davis,Comanche,77.84,156.49,106.59,170.1,433.18,Single-ply,SBD,M
Boys,82.1,8,Jett Golden,Strawn,76.02,147.42,90.72,136.08,374.21,Single-ply,SBD,M
Boys,82.1,9,Grant Vinson,Baird,79.83,88.45,47.63,127.01,263.08,Single-ply,SBD,M
Boys,82.1,10,Jonathon Dotson,Lohn,78.74,74.84,45.36,122.47,242.67,Single-ply,SBD,M
Boys,82.1,DQ,Gage Sikes,Coleman,78.47,142.88,102.06,,,Single-ply,SBD,M
Boys,89.81,1,Issic DeLaCruz,Stephenville,89.27,226.8,142.88,213.19,582.87,Single-ply,SBD,M
Boys,89.81,2,Ty Schafer,Early,87.82,199.58,124.74,215.46,539.77,Single-ply,SBD,M
Boys,89.81,3,Tyler Bell,Dublin,89.27,190.51,136.08,185.97,512.56,Single-ply,SBD,M
Boys,89.81,4,Johnny Jurado,Dublin,86,195.04,111.13,201.85,508.02,Single-ply,SBD,M
Boys,89.81,5,Gabrian Juarez,Stephenville,85,158.76,97.52,174.63,430.91,Single-ply,SBD,M
Boys,89.81,DQ,Justice Baker,Strawn,85.37,,90.72,,,Single-ply,SBD,M
Boys,89.81,DQ,Miguel Leos,Comanche,84.91,145.15,,172.37,,Single-ply,SBD,M
Boys,99.79,1,Jack Northridge,Comanche,99.7,219.99,147.42,210.92,578.33,Single-ply,SBD,M
Boys,99.79,2,Jadyn Lehde,Early,99.7,217.72,127.01,204.12,548.85,Single-ply,SBD,M
Boys,99.79,3,Caleb Smith,Stephenville,93.44,181.44,124.74,183.7,489.88,Single-ply,SBD,M
Boys,99.79,4,Michael Stanley #1,Dublin,99.79,163.29,117.93,174.63,455.86,Single-ply,SBD,M
Boys,99.79,5,Adrian Cervantez,Stephenville,95.89,172.37,106.59,161.03,439.98,Single-ply,SBD,M
Boys,109.77,1,Kendel Beck,Comanche,109.77,260.82,181.44,260.82,703.07,Single-ply,SBD,M
Boys,109.77,2,Sawyer Barron,Ranger,107.77,208.65,120.2,172.37,501.22,Single-ply,SBD,M
Boys,109.77,3,Austin Atkins,Baird,108.86,170.1,113.4,183.7,467.2,Single-ply,SBD,M
Boys,124.74,1,Jared Ricks,Dublin,112.49,229.06,163.29,238.14,630.49,Single-ply,SBD,M
Boys,124.74,2,Logan Gillem,Early,119.02,240.4,145.15,229.06,614.62,Single-ply,SBD,M
Boys,124.74,3,Jeron Conine,Comanche,122.11,240.4,136.08,204.12,580.6,Single-ply,SBD,M
Boys,124.74,4,Ethen Portillo,Early,111.22,195.04,102.06,183.7,480.81,Single-ply,SBD,M
Boys,124.74,5,Tyler Carper,Baird,117.75,181.44,108.86,181.44,471.74,Single-ply,SBD,M
Boys,124.74,6,Adrian Mantano,Stephenville,118.21,188.24,99.79,158.76,446.79,Single-ply,SBD,M
Boys,124.74,7,Logan Davis,Stephenville,120.29,158.76,92.99,181.44,433.18,Single-ply,SBD,M
Boys,124.74,8,Hayden Nimmo,Stephenville,115.48,136.08,83.91,142.88,362.87,Single-ply,SBD,M
Boys,124.74+,1,Stran Burrow,Dublin,129.18,215.46,145.15,215.46,576.06,Single-ply,SBD,M
Boys,124.74+,2,Stephen Locklear,Dublin,128.19,199.58,142.88,197.31,539.77,Single-ply,SBD,M
Boys,124.74+,3,Gavin Sharp,Stephenville,143.34,142.88,83.91,145.15,371.95,Single-ply,SBD,M
Boys,124.74+,4,Randy Licea,Comanche,125.1,102.06,90.72,161.03,353.8,Single-ply,SBD,M
Boys,124.74+,DQ,Josh Ward,Baird,166.92,179.17,108.86,,,Single-ply,SBD,M
Boys,124.74+,DQ,Cesar Espinosa,Strawn,125.1,113.4,,124.74,,Single-ply,SBD,M
