Division,WeightClassKg,Place,Name,Team,BodyweightKg,Best3SquatKg,Best3BenchKg,Best3DeadliftKg,TotalKg,Equipment,Event,Sex
Boys,51.71,1,Jacory Bellnamy,Houston Madison,51.53,161.03,65.77,145.15,371.95,Single-ply,SBD,M
Boys,51.71,2,Devin West,Clute Brazoswood,50.71,108.86,56.7,111.13,276.69,Single-ply,SBD,M
Boys,51.71,3,Jaylynn Mitchell,Crosby,43,74.84,47.63,90.72,213.19,Single-ply,SBD,M
Boys,51.71,4,Keshaun Johnson,La Marque,49.9,77.11,36.29,83.91,197.31,Single-ply,SBD,M
Boys,67.13,1,Kendrick Sonnier,Port Arthur Memorial,60.06,181.44,86.18,192.78,460.4,Single-ply,SBD,M
Boys,59.87,2,Chen Phan,Dickinson,59.87,170.1,97.52,188.24,455.86,Single-ply,SBD,M
Boys,59.87,3,Jim Tran,Dickinson,59.06,172.37,86.18,181.44,439.98,Single-ply,SBD,M
Boys,59.87,4,Brandon Jordan,Dickinson,59.6,133.81,97.52,158.76,390.09,Single-ply,SBD,M
Boys,59.87,5,Adrian Martinez,Texas City,59.42,140.61,83.91,163.29,387.82,Single-ply,SBD,M
Boys,59.87,6,Dominic Monvisa,Dickinson,56.15,149.69,77.11,158.76,385.55,Single-ply,SBD,M
Boys,59.87,7,Romello Hoyle,Houston Madison,59.42,136.08,68.04,140.61,344.73,Single-ply,SBD,M
Boys,67.13,1,Brandon Martinez,Dickinson,66.13,199.58,111.13,183.7,494.42,Single-ply,SBD,M
Boys,67.13,2,Gerald Johnson,La Marque,63.78,190.51,102.06,190.51,483.08,Single-ply,SBD,M
Boys,67.13,3,David Rodas,Crosby,64.41,158.76,102.06,176.9,437.72,Single-ply,SBD,M
Boys,67.13,4,Angel Galvan,Crosby,67.13,149.69,106.59,161.03,417.3,Single-ply,SBD,M
Boys,67.13,5,Dariun Hunter,Port Arthur Memorial,62.14,151.95,83.91,161.03,396.89,Single-ply,SBD,M
Boys,74.84,6,Jose Eustupion,Beaumont Ozen,67.22,151.95,83.91,154.22,390.09,Single-ply,SBD,M
Boys,67.13,7,Jimmy Coleman,La Marque,61.33,122.47,77.11,127.01,326.59,Single-ply,SBD,M
Boys,67.13,8,Carnell White,La Marque,62.87,92.99,77.11,122.47,292.57,Single-ply,SBD,M
Boys,67.13,9,Jacory Lovings,Houston Madison,64.59,90.72,65.77,113.4,269.89,Single-ply,SBD,M
Boys,67.13,DQ,Arnaldo Garcia,Port Arthur Memorial,67.13,,,,,Single-ply,SBD,M
Boys,67.13,DQ,Kalen Redmon,Beaumont Ozen,66.5,,,,,Single-ply,SBD,M
Boys,82.1,1,Rodney Kinchen,Port Arthur Memorial,74.93,226.8,124.74,231.33,582.87,Single-ply,SBD,M
Boys,82.1,2,Drew Lowery,Clute Brazoswood,74.93,183.7,108.86,222.26,514.83,Single-ply,SBD,M
Boys,82.1,3,Odis Mack,Port Arthur Memorial,75.02,204.12,97.52,195.04,496.68,Single-ply,SBD,M
Boys,74.84,4,Jalen Williams,Dickinson,73.75,163.29,68.04,208.65,439.98,Single-ply,SBD,M
Boys,74.84,5,Cameron Amieva,Dickinson,72.76,154.22,90.72,181.44,426.38,Single-ply,SBD,M
Boys,82.1,6,Giovanni Porreto,Dickinson,74.93,149.69,106.59,154.22,410.5,Single-ply,SBD,M
Boys,74.84,7,Kurtis Luff,Crosby,72.76,136.08,90.72,165.56,392.36,Single-ply,SBD,M
Boys,74.84,8,Richard Gyamfi,Houston Madison,71.03,131.54,99.79,147.42,378.75,Single-ply,SBD,M
Boys,74.84,DQ,Jamal Franklin,Houston Madison,74.84,,,,,Single-ply,SBD,M
Boys,82.1,1,Lance Cole,Crosby,81.74,215.46,140.61,197.31,553.38,Single-ply,SBD,M
Boys,82.1,2,Ashanti Walker,Texas City,82.1,204.12,117.93,229.06,551.11,Single-ply,SBD,M
Boys,82.1,3,Kris Narcisse,Beaumont Ozen,79.29,210.92,142.88,190.51,544.31,Single-ply,SBD,M
Boys,82.1,4,Sterling Winzor,Beaumont Ozen,78.56,161.03,108.86,199.58,469.47,Single-ply,SBD,M
Boys,82.1,5,Christain Reza,Beaumont Ozen,82.01,172.37,106.59,188.24,467.2,Single-ply,SBD,M
Boys,82.1,6,Alvin Robinson,Houston Madison,76.48,154.22,113.4,149.69,417.3,Single-ply,SBD,M
Boys,82.1,7,Connor Cutler,Dickinson,78.74,142.88,79.38,183.7,405.97,Single-ply,SBD,M
Boys,82.1,8,Jaden Bishop,La Marque,76.29,154.22,74.84,170.1,399.16,Single-ply,SBD,M
Boys,82.1,9,Marcus Mathews,La Marque,80.1,142.88,120.2,115.67,378.75,Single-ply,SBD,M
Boys,82.1,10,Gejuan Morris,Houston Madison,81.83,111.13,68.04,120.2,299.37,Single-ply,SBD,M
Boys,82.1,DQ,Nathan Withers,Beaumont Ozen,82.1,,,,,Single-ply,SBD,M
Boys,82.1,DQ,Exavier Simpson,Texas City,77.47,208.65,,,,Single-ply,SBD,M
Boys,89.81,1,Travis Anderson,Crosby,88.36,235.87,156.49,226.8,619.15,Single-ply,SBD,M
Boys,89.81,2,Eric Hembling,Clute Brazoswood,89.45,213.19,129.27,238.14,580.6,Single-ply,SBD,M
Boys,89.81,3,JaeCorien Barnes,Port Arthur Memorial,89.81,235.87,122.47,197.31,555.65,Single-ply,SBD,M
Boys,89.81,4,Chris Ponder,Texas City,85,172.37,129.27,188.24,489.88,Single-ply,SBD,M
Boys,99.79,5,Mykel Thomas,Port Arthur Memorial,89.99,190.51,108.86,183.7,483.08,Single-ply,SBD,M
Boys,89.81,6,Darian Zeigler,Texas City,89.63,145.15,111.13,142.88,399.16,Single-ply,SBD,M
Boys,89.81,DQ,Jalen Harrison,Crosby,87.09,,,,,Single-ply,SBD,M
Boys,99.79,1,Joe Thomas,Beaumont Ozen,97.25,260.82,136.08,249.48,646.37,Single-ply,SBD,M
Boys,99.79,2,Tristan Anderson,Dickinson,98.43,235.87,115.67,249.48,601.01,Single-ply,SBD,M
Boys,99.79,3,Livan Lopez,Dickinson,98.79,204.12,117.93,204.12,526.17,Single-ply,SBD,M
Boys,99.79,4,Adrian Carter,Houston Madison,99.25,204.12,113.4,208.65,526.17,Single-ply,SBD,M
Boys,99.79,5,Trevor Anderson,Dickinson,92.53,181.44,99.79,208.65,489.88,Single-ply,SBD,M
Boys,99.79,DQ,Antoine Newman,Houston Madison,98.52,156.49,86.18,,,Single-ply,SBD,M
Boys,109.77,1,Lorenzo Baeza,Texas City,106.68,294.84,163.29,226.8,684.92,Single-ply,SBD,M
Boys,109.77,2,Deandre Washington,Beaumont Ozen,105.23,254.01,165.56,204.12,623.69,Single-ply,SBD,M
Boys,109.77,3,Casey Williams,Port Arthur Memorial,106.78,222.26,136.08,238.14,596.47,Single-ply,SBD,M
Boys,109.77,4,Keyshawn Pettieway,Crosby,108.77,217.72,151.95,217.72,587.4,Single-ply,SBD,M
Boys,109.77,5,Arthur Harmon,Beaumont Ozen,106.05,183.7,99.79,181.44,464.93,Single-ply,SBD,M
Boys,109.77,6,Ricardo Beliz,Dickinson,100.52,167.83,102.06,183.7,453.59,Single-ply,SBD,M
Boys,109.77,7,Armand Guerra,La Marque,102.06,124.74,68.04,133.81,326.59,Single-ply,SBD,M
Boys,124.74,1,Brandon Jackson,Port Arthur Memorial,120.29,260.82,154.22,247.21,662.24,Single-ply,SBD,M
Boys,124.74,2,Kanien Collins,Port Arthur Memorial,110.59,226.8,124.74,213.19,564.72,Single-ply,SBD,M
Boys,124.74,3,Devyn Billiott,La Marque,122.56,217.72,113.4,208.65,539.77,Single-ply,SBD,M
Boys,124.74,4,Beyden Pethel,Texas City,119.84,215.46,136.08,181.44,532.97,Single-ply,SBD,M
Boys,124.74,5,Anthony Salazar,Texas City,114.21,206.38,129.27,183.7,519.36,Single-ply,SBD,M
Boys,124.74,6,Diante Granger,Beaumont Ozen,119.2,176.9,99.79,195.04,471.74,Single-ply,SBD,M
Boys,124.74,7,Deshondric Selman,Beaumont Ozen,116.21,142.88,77.11,181.44,401.43,Single-ply,SBD,M
Boys,124.74,DQ,Josh Opiela,Crosby,124.74,,,,,Single-ply,SBD,M
Boys,124.74,DQ,Dante Hayes,Texas City,110.59,,,,,Single-ply,SBD,M
Boys,124.74,DQ,Andre Smith,Texas City,117.21,183.7,,,,Single-ply,SBD,M
Boys,124.74+,1,Keenan Murphy,Crosby,135.53,244.94,151.95,249.48,646.37,Single-ply,SBD,M
Boys,124.74+,2,Brandon Artis,Port Arthur Memorial,132.9,233.6,142.88,249.48,625.96,Single-ply,SBD,M
Boys,124.74+,3,William Tinner,La Marque,137.98,226.8,163.29,226.8,616.89,Single-ply,SBD,M
Boys,124.74+,4,Marlon Ford,La Marque,158.58,272.16,102.06,226.8,601.01,Single-ply,SBD,M
Boys,124.74+,5,Chirs Sampson,Texas City,133.45,249.48,136.08,183.7,569.26,Single-ply,SBD,M
Boys,124.74+,6,Kaleb Allen,Port Arthur Memorial,140.43,215.46,127.01,222.26,564.72,Single-ply,SBD,M
Boys,124.74+,7,Anthonie Thomas,Houston Madison,152.68,201.85,149.69,195.04,546.58,Single-ply,SBD,M
Boys,124.74+,8,Donall Watson,Hempstead,132.45,233.6,127.01,183.7,544.31,Single-ply,SBD,M
Boys,124.74+,9,Kevin Maddox,Houston Madison,156.22,197.31,124.74,183.7,505.76,Single-ply,SBD,M
Boys,124.74+,10,Ambrow Moreland,Beaumont Ozen,151.32,195.04,115.67,190.51,501.22,Single-ply,SBD,M
Boys,124.74+,11,Danny Guajardo,Crosby,136.08,215.46,90.72,188.24,494.42,Single-ply,SBD,M
Boys,124.74+,12,Khristion Redwell,La Marque,131.36,201.85,95.25,154.22,451.32,Single-ply,SBD,M
Boys,124.74+,DQ,Trevion Benoit,Houston Madison,153.68,208.65,,,,Single-ply,SBD,M
Boys,124.74+,DQ,Lamont Montgomery,Houston Madison,126.64,147.42,,,,Single-ply,SBD,M
