Division,WeightClassKg,Place,Name,Team,BodyweightKg,Best3SquatKg,Best3BenchKg,Best3DeadliftKg,TotalKg,Equipment,Event,Sex
Boys,51.71,1,Juan Salazar,Bonham,51.62,138.35,92.99,136.08,367.41,Single-ply,SBD,M
Boys,51.71,2,Trey Arras,Texarkana Liberty-Eylau,51.17,131.54,79.38,147.42,358.34,Single-ply,SBD,M
Boys,51.71,3,Darian Butler,Denison,48.63,108.86,54.43,122.47,285.76,Single-ply,SBD,M
Boys,51.71,4,Austen Sisco,Commerce,51.35,95.25,56.7,102.06,254.01,Single-ply,SBD,M
Boys,51.71,5,Chance Anderson,Leonard,50.35,97.52,47.63,106.59,251.74,Single-ply,SBD,M
Boys,51.71,6,Dylan McElroy,Honey Grove,50.08,90.72,43.09,113.4,247.21,Single-ply,SBD,M
Boys,55.79,1,Jonathan Alvarez,Sulphur Springs,54.88,154.22,70.31,147.42,371.95,Single-ply,SBD,M
Boys,55.79,2,Josh Bolton,Paris North Lamar,54.07,147.42,68.04,147.42,362.87,Single-ply,SBD,M
Boys,55.79,3,Luis Martinez,Commerce,54.16,140.61,61.23,136.08,337.93,Single-ply,SBD,M
Boys,55.79,4,Dustin Crabtree,Sulphur Springs,52.62,115.67,49.9,120.2,285.76,Single-ply,SBD,M
Boys,55.79,5,Zach Grabanski,Pattonville Prairiland,54.98,106.59,61.23,115.67,283.5,Single-ply,SBD,M
Boys,67.13,1,Taylor Ibarra,Sulphur Springs,60.1,172.37,99.79,158.76,430.91,Single-ply,SBD,M
Boys,59.87,2,Andrew Magedson,Leonard,57.7,151.95,88.45,165.56,405.97,Single-ply,SBD,M
Boys,59.87,3,Daniel Scott,Anna,58.24,149.69,77.11,151.95,378.75,Single-ply,SBD,M
Boys,59.87,4,Bryden Lopez,Commerce,58.97,149.69,83.91,145.15,378.75,Single-ply,SBD,M
Boys,59.87,5,Christian Morales,Commerce,59.69,140.61,74.84,158.76,374.21,Single-ply,SBD,M
Boys,59.87,6,Scott Dudley,Paris,59.87,145.15,77.11,151.95,374.21,Single-ply,SBD,M
Boys,59.87,7,Isaiah Peters,Paris Chisum,58.6,140.61,79.38,149.69,369.68,Single-ply,SBD,M
Boys,59.87,DQ,Baldemar Carbajal,Sherman,58.24,142.88,,,,Single-ply,SBD,M
Boys,59.87,DQ,Tavon Gray,Paris,59.6,124.74,,,,Single-ply,SBD,M
Boys,67.13,1,Matthew Solomon,Texarkana Liberty-Eylau,66.77,219.99,127.01,206.38,553.38,Single-ply,SBD,M
Boys,74.84,2,X-Zavius Gray,Paris,67.22,215.46,111.13,206.38,532.97,Single-ply,SBD,M
Boys,74.84,3,Jake Ratcliff,Denison,67.36,199.58,97.52,192.78,489.88,Single-ply,SBD,M
Boys,67.13,4,Rajuan Crabtree,Texarkana Liberty-Eylau,63.14,174.63,120.2,174.63,469.47,Single-ply,SBD,M
Boys,67.13,5,Tre Adger,Sherman,63.32,181.44,102.06,181.44,464.93,Single-ply,SBD,M
Boys,67.13,6,Matt Rumbaugh,Commerce,64.14,176.9,102.06,181.44,460.4,Single-ply,SBD,M
Boys,67.13,7,Gage Allen,Hallsville,66.86,179.17,104.33,167.83,451.32,Single-ply,SBD,M
Boys,67.13,8,Xavier McDonald,Clarksville,62.32,140.61,88.45,204.12,433.18,Single-ply,SBD,M
Boys,67.13,9,Keitron Reed,Paris North Lamar,65.23,167.83,92.99,165.56,426.38,Single-ply,SBD,M
Boys,67.13,10,Josh Johnson,Paris North Lamar,66.04,167.83,81.65,174.63,424.11,Single-ply,SBD,M
Boys,67.13,11,Brad Presser,Sherman,63.78,158.76,104.33,158.76,421.84,Single-ply,SBD,M
Boys,67.13,12,Jj Brian,Leonard,60.87,154.22,86.18,167.83,408.23,Single-ply,SBD,M
Boys,67.13,13,Vincent Morales,Sulphur Springs,65.86,145.15,83.91,176.9,405.97,Single-ply,SBD,M
Boys,67.13,14,Christian Contreras,Leonard,63.23,154.22,99.79,145.15,399.16,Single-ply,SBD,M
Boys,67.13,15,Coy Larey,Bogata Rivercrest,65.5,127.01,83.91,170.1,381.02,Single-ply,SBD,M
Boys,67.13,16,Felix Hernandez,Bogata Rivercrest,66.41,124.74,88.45,161.03,374.21,Single-ply,SBD,M
Boys,67.13,17,Elijah Robinson,Pattonville Prairiland,66.13,138.35,81.65,140.61,360.61,Single-ply,SBD,M
Boys,67.13,18,DeVante Clayton,Sherman,67.04,122.47,74.84,151.95,349.27,Single-ply,SBD,M
Boys,67.13,19,Cor'tavius Pruitt,Sulphur Springs,64.68,131.54,74.84,138.35,344.73,Single-ply,SBD,M
Boys,67.13,20,Derek Thacker,Valley View,63.96,133.81,72.57,124.74,331.12,Single-ply,SBD,M
Boys,67.13,21,Jacob Thornton,Sherman,60.42,61.23,56.7,70.31,188.24,Single-ply,SBD,M
Boys,67.13,22,Chris Pugh #2,Royse City,65.77,154.22,,,154.22,Single-ply,S,M
Boys,67.13,DQ,Chandler Horton,Detroit,60.42,,,,,Single-ply,S,M
Boys,67.13,DQ,Kearrius Ladell,Paris,65.68,,,,,Single-ply,S,M
Boys,74.84,1,Brandon Gillen,Paris Chisum,73.21,206.38,147.42,215.46,569.26,Single-ply,SBD,M
Boys,74.84,2,Antonio Barragan,Anna,72.57,192.78,113.4,181.44,487.61,Single-ply,SBD,M
Boys,74.84,3,Lamont Byrd,Texarkana Liberty-Eylau,73.66,174.63,104.33,190.51,469.47,Single-ply,SBD,M
Boys,74.84,4,Austin Mars,Anna,73.21,154.22,90.72,172.37,417.3,Single-ply,SBD,M
Boys,74.84,5,Eric Arriaga,Big Sandy Harmony,74.3,145.15,83.91,181.44,410.5,Single-ply,SBD,M
Boys,82.1,6,Donovan Williams,Paris,74.98,161.03,79.38,170.1,410.5,Single-ply,SBD,M
Boys,74.84,7,Ronnie Hart,Leonard,72.67,149.69,81.65,158.76,390.09,Single-ply,SBD,M
Boys,74.84,8,Mason Chrisman,Paris North Lamar,71.03,142.88,83.91,147.42,374.21,Single-ply,SBD,M
Boys,74.84,DQ,Morgan Landreth,Pattonville Prairiland,73.48,151.95,79.38,,,Single-ply,SBD,M
Boys,74.84,DQ,Derrick Coley,Pattonville Prairiland,71.94,,,,,Single-ply,SBD,M
Boys,74.84,DQ,Ty Slaughter,Anna,72.3,251.74,151.95,,,Single-ply,SBD,M
Boys,74.84,DQ,Wyatt Tabb,Bogata Rivercrest,74.75,,,,,Single-ply,SBD,M
Boys,82.1,1,AJ Rose,Hallsville,81.1,240.4,185.97,213.19,639.57,Single-ply,SBD,M
Boys,82.1,2,Zanoah Arnold,Texarkana Liberty-Eylau,78.56,231.33,124.74,238.14,594.21,Single-ply,SBD,M
Boys,82.1,3,Devon Blanton,Denison,80.38,215.46,117.93,238.14,571.53,Single-ply,SBD,M
Boys,82.1,4,Chase Perry,Paris North Lamar,77.02,208.65,122.47,190.51,521.63,Single-ply,SBD,M
Boys,82.1,5,Jordan Fortner,Melissa,77.2,185.97,115.67,210.92,512.56,Single-ply,SBD,M
Boys,82.1,6,Skylar McClelland,Hallsville,81.1,192.78,95.25,188.24,476.27,Single-ply,SBD,M
Boys,82.1,7,Kolbi Fort,Detroit,77.56,170.1,108.86,183.7,462.66,Single-ply,SBD,M
Boys,82.1,8,Trevor Buckaloo,Bonham,81.1,179.17,90.72,172.37,442.25,Single-ply,SBD,M
Boys,82.1,9,Reece Miller,Bonham,81.1,176.9,97.52,165.56,439.98,Single-ply,SBD,M
Boys,82.1,10,Dakota Embree,Paris North Lamar,77.2,170.1,92.99,172.37,435.45,Single-ply,SBD,M
Boys,82.1,11,Tanner Young,Leonard,78.47,156.49,90.72,176.9,424.11,Single-ply,SBD,M
Boys,82.1,12,Ethan Dean,Big Sandy Harmony,79.11,167.83,90.72,161.03,419.57,Single-ply,SBD,M
Boys,82.1,13,Angel Aguillon,Big Sandy Harmony,81.83,136.08,83.91,154.22,374.21,Single-ply,SBD,M
Boys,82.1,14,Miguel Bravo,Valley View,80.38,142.88,72.57,154.22,369.68,Single-ply,SBD,M
Boys,82.1,DQ,Brandon Alverez,Bogata Rivercrest,79.83,,,,,Single-ply,SBD,M
Boys,89.81,1,Chad Perry,Sherman,84.19,197.31,131.54,219.99,548.85,Single-ply,SBD,M
Boys,89.81,2,Ke'Mon Freeman,Texarkana Liberty-Eylau,89.81,206.38,138.35,201.85,546.58,Single-ply,SBD,M
Boys,89.81,3,Richard Mainor,Texarkana Liberty-Eylau,89.27,204.12,129.27,199.58,532.97,Single-ply,SBD,M
Boys,89.81,4,Tony Ramirez,Commerce,82.64,199.58,113.4,206.38,519.36,Single-ply,SBD,M
Boys,89.81,5,Dalton Hess,Muenster,89.27,204.12,104.33,192.78,501.22,Single-ply,SBD,M
Boys,89.81,6,Jeremy Mansur,Anna,89.36,172.37,117.93,181.44,471.74,Single-ply,SBD,M
Boys,89.81,7,Isaiah Neal,Sulphur Springs,83.91,181.44,99.79,172.37,453.59,Single-ply,SBD,M
Boys,89.81,8,Lake Wilson,Sherman,88.81,158.76,102.06,192.78,453.59,Single-ply,SBD,M
Boys,89.81,9,Alec Kyle,Anna,82.37,154.22,108.86,158.76,421.84,Single-ply,SBD,M
Boys,89.81,10,D'Wayne Coleman,Texarkana Liberty-Eylau,86.09,154.22,95.25,165.56,415.04,Single-ply,SBD,M
Boys,89.81,11,Cory Wlodarezak,Paris North Lamar,85.73,149.69,88.45,172.37,410.5,Single-ply,SBD,M
Boys,89.81,12,Preston Eaves,Leonard,87,149.69,90.72,165.56,405.97,Single-ply,SBD,M
Boys,89.81,13,Darron Mitchell,Paris,85.28,115.67,65.77,131.54,312.98,Single-ply,SBD,M
Boys,89.81,DQ,Keagan Phillips,Big Sandy Harmony,88.54,,,,,Single-ply,SBD,M
Boys,99.79,DQ,Sam Arneson,Sulphur Springs,89.99,167.83,,,,Single-ply,SBD,M
Boys,89.81,DQ,Coltin Morrison,Sulphur Springs,85.46,190.51,113.4,,,Single-ply,SBD,M
Boys,89.81,DQ,Quentin Bowes,Commerce,88.54,,,,,Single-ply,SBD,M
Boys,99.79,1,Kendall Alexander,Paris,94.53,231.33,136.08,219.99,587.4,Single-ply,SBD,M
Boys,99.79,2,Lomas Rey,Valley View,99.16,231.33,129.27,199.58,560.19,Single-ply,SBD,M
Boys,99.79,3,Darrion Dockins,Clarksville,91.72,215.46,106.59,213.19,535.24,Single-ply,SBD,M
Boys,99.79,4,Alex Gamez,Sulphur Springs,95.07,210.92,120.2,197.31,528.44,Single-ply,SBD,M
Boys,99.79,5,Hunter Hull,Sherman,97.79,185.97,122.47,183.7,492.15,Single-ply,SBD,M
Boys,99.79,6,Justin Nichols,Sherman,98.88,183.7,113.4,181.44,478.54,Single-ply,SBD,M
Boys,99.79,7,Darrius Samuels,Paris,95.25,172.37,113.4,185.97,471.74,Single-ply,SBD,M
Boys,99.79,8,Casey Harper,Paris North Lamar,94.98,170.1,136.08,163.29,469.47,Single-ply,SBD,M
Boys,99.79,9,Kendrick Sauls,Texarkana Liberty-Eylau,96.34,183.7,81.65,174.63,439.98,Single-ply,SBD,M
Boys,99.79,10,Tyreese Williams,Sulphur Springs,95.89,158.76,95.25,176.9,430.91,Single-ply,SBD,M
Boys,109.77,1,Dennis Coleman,Paris,109.32,260.82,142.88,247.21,650.91,Single-ply,SBD,M
Boys,109.77,2,Cason Riley,Leonard,100.15,222.26,142.88,226.8,591.94,Single-ply,SBD,M
Boys,109.77,3,Kj Mohl,Hallsville,106.68,229.06,136.08,210.92,576.06,Single-ply,SBD,M
Boys,109.77,4,Jack White,Paris North Lamar,107.23,235.87,136.08,204.12,576.06,Single-ply,SBD,M
Boys,109.77,5,Riley Russell,Bogata Rivercrest,106.23,219.99,136.08,185.97,542.04,Single-ply,SBD,M
Boys,109.77,6,Cheyenne Lockhart,Texarkana Liberty-Eylau,106.68,188.24,92.99,219.99,501.22,Single-ply,SBD,M
Boys,109.77,7,Hudson Barnes,Leonard,109.13,174.63,124.74,192.78,492.15,Single-ply,SBD,M
Boys,109.77,8,Ian Mauldin,Leonard,102.33,181.44,106.59,197.31,485.34,Single-ply,SBD,M
Boys,109.77,9,De'Waven Rowden,Texarkana Liberty-Eylau,102.69,188.24,108.86,188.24,485.34,Single-ply,SBD,M
Boys,109.77,10,Brandon Foster,Sulphur Springs,102.78,185.97,120.2,174.63,480.81,Single-ply,SBD,M
Boys,109.77,11,Alyiass Spiller,Texarkana Liberty-Eylau,104.42,170.1,113.4,181.44,464.93,Single-ply,SBD,M
Boys,109.77,12,Max Castillo,Melissa,105.51,174.63,111.13,170.1,455.86,Single-ply,SBD,M
Boys,109.77,13,Javier Vanegas,Valley View,101.33,204.12,81.65,167.83,453.59,Single-ply,SBD,M
Boys,109.77,14,Nick Handy,Commerce,106.68,158.76,65.77,170.1,394.63,Single-ply,SBD,M
Boys,109.77,DQ,Brandon Halliday,Paris North Lamar,103.78,213.19,113.4,,,Single-ply,SBD,M
Boys,109.77,DQ,Ian Blanch,Sulphur Springs,103.78,213.19,,,,Single-ply,SBD,M
Boys,124.74,1,Frank Smith,Texarkana Liberty-Eylau,124.56,238.14,117.93,244.94,601.01,Single-ply,SBD,M
Boys,124.74,2,Bailey Reid,Denison,110.31,242.67,151.95,204.12,598.74,Single-ply,SBD,M
Boys,124.74,3,Dakota Helm,Paris,115.21,215.46,120.2,226.8,562.45,Single-ply,SBD,M
Boys,124.74,4,Colton Dale,Sherman,123.47,192.78,140.61,204.12,537.51,Single-ply,SBD,M
Boys,124.74,5,Byron Muse,Paris,118.52,210.92,129.27,195.04,535.24,Single-ply,SBD,M
Boys,124.74,6,Ty White,Valley View,113.85,219.99,124.74,181.44,526.17,Single-ply,SBD,M
Boys,124.74,7,Travis Shouse,Anna,118.39,204.12,127.01,188.24,519.36,Single-ply,SBD,M
Boys,124.74,8,Brandon Miller,Bonham,112.31,195.04,106.59,181.44,483.08,Single-ply,SBD,M
Boys,124.74,9,Ryder Bryant,Paris North Lamar,113.13,188.24,108.86,185.97,483.08,Single-ply,SBD,M
Boys,124.74,10,Alfonso Viramontes,Melissa,117.12,174.63,95.25,181.44,451.32,Single-ply,SBD,M
Boys,124.74,DQ,Hayden Power,Sherman,113.49,151.95,,,,Single-ply,SBD,M
Boys,124.74,DQ,Josh Schnitker,Sherman,116.48,190.51,,,,Single-ply,SBD,M
Boys,124.74+,1,Qurdale Huff,Paris,173.91,283.5,165.56,249.48,698.53,Single-ply,SBD,M
Boys,124.74+,2,Bailey Booker,Bogata Rivercrest,152.86,267.62,149.69,213.19,630.49,Single-ply,SBD,M
Boys,124.74+,3,Alfredo Cervantes,Royse City,139.53,226.8,147.42,215.46,589.67,Single-ply,SBD,M
Boys,124.74+,4,Austin Frye,Royse City,137.17,229.06,120.2,204.12,553.38,Single-ply,SBD,M
Boys,124.74+,5,Jonathan Clark,Honey Grove,147.78,217.72,120.2,181.44,519.36,Single-ply,SBD,M
Boys,124.74+,6,David Palmore,Sherman,156.67,174.63,104.33,181.44,460.4,Single-ply,SBD,M
Boys,124.74+,DQ,Alec Dickinson,Honey Grove,131.09,213.19,,,,Single-ply,SBD,M
Boys,124.74+,DQ,Israel Huerta,Clarksville,131.9,,,,,Single-ply,SBD,M
Boys,124.74+,DQ,Lenza Clark,Clarksville,134.26,179.17,,,,Single-ply,SBD,M
