Place,Sex,Name,Event,Division,WeightClassKg,Equipment,State,BodyweightKg,Squat1Kg,Squat2Kg,Squat3Kg,Best3SquatKg,Bench1Kg,Bench2Kg,Bench3Kg,Best3BenchKg,Deadlift1Kg,Deadlift2Kg,Deadlift3Kg,Best3DeadliftKg,TotalKg,BirthYear
1,M,William Thacker,B,M-M,105,Single-ply,GA,102,,,,,200,205,210,210,,,,,210,1972
1,M,Mickey Glasco,B,M-M,120,Single-ply,GA,109.8,,,,,160,170,182.5,182.5,,,,,182.5,1944
1,M,Austin Brown,B,M-O,105,Single-ply,GA,104.7,,,,,222.5,230,237.5,237.5,,,,,237.5,1990
2,M,William Thacker,B,M-O,105,Single-ply,GA,102,,,,,200,205,210,210,,,,,210,1972
1,M,John Clay,B,M-O,120,Single-ply,LA,109,,,,,185,195,-200,195,,,,,195,1980
2,M,Mickey Glasco,B,M-O,120,Single-ply,GA,109.8,,,,,160,170,182.5,182.5,,,,,182.5,1944
1,M,Clint Poore,B,MR-O,105,Raw,KY,104,,,,,190,197.5,-202.5,197.5,,,,,197.5,1973
2,M,James Hall,B,MR-O,105,Raw,KY,98,,,,,180,185,195,195,,,,,195,1970
3,M,William Thacker,B,MR-O,105,Raw,GA,102,,,,,165,175,185,185,,,,,185,1972
1,M,John D Jones Jr,B,MR-O,120+,Raw,MD,123.5,,,,,200,210,-215,210,,,,,210,1986
1,M,Charlie Paige,B,MR-O,74,Raw,GA,71.6,,,,,182.5,-193.5,-193.5,182.5,,,,,182.5,1981
2,M,Brandon McClendon,B,MR-O,74,Raw,GA,73.1,,,,,152.5,157.5,162.5,162.5,,,,,162.5,1986
3,M,Phillip Brown,B,MR-O,74,Raw,GA,69.5,,,,,135,140,-145,140,,,,,140,1987
1,M,Brandon Maddox #1,B,MR-O,83,Raw,AL,74.2,,,,,175,187.5,192.5,192.5,,,,,192.5,1992
2,M,Terence Wright,B,MR-O,83,Raw,AL,81.7,,,,,175,-177.5,177.5,177.5,,,,,177.5,1981
3,M,Frank Murawski,B,MR-O,83,Raw,GA,78,,,,,125,-137.5,137.5,137.5,,,,,137.5,1955
1,M,Clint Poore,B,MR-M,105,Raw,KY,104,,,,,190,197.5,-202.5,197.5,,,,,197.5,1973
2,M,James Hall,B,MR-M,105,Raw,KY,98,,,,,180,185,195,195,,,,,195,1970
1,F,LaTavia Bowens,B,F-O,84+,Single-ply,GA,93.3,,,,,95,100,107.5,107.5,,,,,107.5,1980
1,F,Valerie Smith,B,FR-M,72,Raw,GA,64.9,,,,,80,-82.5,82.5,82.5,,,,,82.5,1973
1,F,Emily House,B,FR-O,63,Raw,GA,60.6,,,,,82.5,87.5,-92.5,87.5,,,,,87.5,1989
1,F,Valerie Smith,B,FR-O,72,Raw,GA,64.9,,,,,80,-82.5,82.5,82.5,,,,,82.5,1973
1,F,Melissa Copeland,B,FR-O,84+,Raw,MD,109,,,,,102.5,110,-112.5,110,,,,,110,1977
2,F,LaTavia Bowens,B,FR-O,84+,Raw,GA,93.3,,,,,75,82.5,87.5,87.5,,,,,87.5,1980
1,M,Damarrio Holloway,D,M-O,74,Single-ply,GA,69.7,,,,,,,,,265,275,285,285,285,1980
1,M,Nathan Walton,D,M-O,83,Single-ply,GA,76.9,,,,,,,,,285,295,307.5,307.5,307.5,1976
1,M,Garrett Bailey,D,M-O,93,Single-ply,LA,92.8,,,,,,,,,327.5,340,-345,340,340,1992
2,M,Ben Green,D,M-O,93,Single-ply,GA,84.7,,,,,,,,,200,207.5,-215,207.5,207.5,1980
1,M,John Clay,D,M-O,120,Single-ply,LA,109,,,,,,,,,215,227.5,-250,227.5,227.5,1980
DQ,M,Jared Martin,D,MR-O,120,Raw,IN,119.1,,,,,,,,,-312.5,-312.5,,,,1989
1,M,Perry Ellis Jr,D,MR-O,120+,Raw,GA,124,,,,,,,,,317.5,340,,340,340,1981
2,M,Andre Avena,D,MR-O,120+,Raw,GA,128.6,,,,,,,,,220,227.5,-232.5,227.5,227.5,1983
1,M,Phillip Brown,D,MR-O,74,Raw,GA,69.5,,,,,,,,,192.5,207.5,220,220,220,1987
1,M,Garrett Bailey,D,MR-O,93,Raw,LA,92.8,,,,,,,,,265,287.5,295,295,295,1992
1,F,Emily House,D,FR-O,63,Raw,GA,60,,,,,,,,,165,175,182.5,182.5,182.5,1989
1,F,Rhonda Watts,D,FR-O,84+,Raw,AL,85,,,,,,,,,212.5,-222.5,-222.5,212.5,212.5,1990
2,F,Melissa Copeland,D,FR-O,84+,Raw,MD,109,,,,,,,,,197.5,210,-215,210,210,1977
1,M,Damarrio Holloway,SBD,M-O,74,Single-ply,GA,70.3,250,262.5,267.5,267.5,165,175,182.5,182.5,255,-265,-267.5,255,705,1980
1,M,Nathan Walton,SBD,M-O,83,Single-ply,GA,76.5,252.5,265,270,270,172.5,177.5,-182.5,177.5,280,-290,-290,280,727.5,1976
1,M,Mark Freeman,SBD,M-O,105,Single-ply,GA,104.7,-305,-315,325,325,217.5,230,240,240,260,-272.5,272.5,272.5,837.5,1984
2,M,Noah Venters,SBD,M-O,105,Single-ply,TN,93.7,242.5,255,-260,255,137.5,147.5,-157.5,147.5,237.5,250,-262.5,250,652.5,1996
1,M,Nikita Koba,SBD,MR-Jr,105,Raw,GA,104.3,-235,235,252.5,252.5,145,155,-157.5,155,265,280,-285,280,687.5,1993
1,M,Jeff Bigham,SBD,MR-M,105,Raw,SC,103,227.5,257.5,-275,257.5,160,170,-177.5,170,265,-300,-300,265,692.5,1976
1,M,Phillip Brown,SBD,MR-O,66,Raw,GA,65.9,200,-207.5,-207.5,200,140,142.5,-145,142.5,225,-235,-235,225,567.5,1987
1,M,Brandon Maddox #1,SBD,MR-O,74,Raw,AL,73.6,237.5,245,-252.5,245,175,187.5,190,190,247.5,260,265,265,700,1992
2,M,Eric Snow,SBD,MR-O,74,Raw,GA,73,210,222.5,-227.5,222.5,142.5,145,-147.5,145,242.5,260,267.5,267.5,635,1986
1,M,Richard Aluko,SBD,MR-O,83,Raw,IL,82.1,227.5,245,250,250,137.5,150,-160,150,260,280,290,290,690,1974
1,M,Garrett Bailey,SBD,MR-O,93,Raw,LA,92.9,242.5,262.5,-270,262.5,147.5,165,-167.5,165,320,335,-342.5,335,762.5,1992
2,M,Matthew Treherne,SBD,MR-O,93,Raw,GA,90.9,265,280,-285,280,-160,165,-170,165,-287.5,300,-307.5,300,745,1989
1,M,Bryce Lewis,SBD,MR-O,105,Raw,CO,103.4,277.5,292.5,305,305,200,210,215,215,320,335,350,350,870,1987
2,M,Jeff Bigham,SBD,MR-O,105,Raw,SC,103,227.5,257.5,-275,257.5,160,170,-177.5,170,265,-300,-300,265,692.5,1976
3,M,Nikita Koba,SBD,MR-O,105,Raw,GA,104.3,-235,235,252.5,252.5,145,155,-157.5,155,265,280,-285,280,687.5,1993
1,M,Perry Ellis Jr,SBD,MR-O,120,Raw,GA,119.4,335,355,362.5,362.5,182.5,190,-192.5,190,345,360,-365,360,912.5,1981
2,M,Jared Martin,SBD,MR-O,120,Raw,IN,118.5,317.5,332.5,350,350,180,192.5,-195,192.5,312.5,332.5,-337.5,332.5,875,1989
3,M,Jake Randolph,SBD,MR-O,120,Raw,TN,117.2,205,-227.5,240,240,-167.5,185,-197.5,185,307.5,-340,-340,307.5,732.5,1986
4,M,Ikechukwu Onuoha,SBD,MR-O,120,Raw,GA,108,205,217.5,227.5,227.5,160,170,-180,170,230,245,260,260,657.5,1997
1,F,Lara Sturm,SBD,F-M,63,Single-ply,GA,62.5,165,177.5,185,185,92.5,-97.5,97.5,97.5,155,175,-182.5,175,457.5,1968
1,F,Tracy Dent,SBD,F-M,84+,Single-ply,GA,84.6,150,160,170,170,-82.5,87.5,-92.5,87.5,140,147.5,152.5,152.5,410,1972
1,F,Lara Sturm,SBD,F-O,63,Single-ply,GA,62.5,165,177.5,185,185,92.5,-97.5,97.5,97.5,155,175,-182.5,175,457.5,1968
1,F,Tracy Dent,SBD,F-O,84+,Single-ply,GA,84.6,150,160,170,170,-82.5,87.5,-92.5,87.5,140,147.5,152.5,152.5,410,1972
1,F,Shelby Anderson,SBD,FR-Jr,63,Raw,GA,57.2,110,-115,-115,110,55,-60,-60,55,130,137.5,142.5,142.5,307.5,1992
1,F,Kimberly McLaughlin,SBD,FR-O,57,Raw,GA,56.6,110,-125,-125,110,62.5,-67.5,-67.5,62.5,107.5,125,-132.5,125,297.5,1995
2,F,Lauren Bowman,SBD,FR-O,57,Raw,FL,53.9,-100,102.5,105,105,42.5,45,-47.5,45,110,115,120,120,270,1987
1,F,Lauren Rutan,SBD,FR-O,63,Raw,SC,59.7,142.5,150,-152.5,150,82.5,-87.5,-87.5,82.5,142.5,-147.5,147.5,147.5,380,1984
2,F,Jenn Yates,SBD,FR-O,63,Raw,GA,62.1,-122.5,-122.5,127.5,127.5,70,-75,75,75,125,140,-160,140,342.5,1982
3,F,Christina Myers,SBD,FR-O,63,Raw,AL,60.1,125,132.5,-137.5,132.5,62.5,-67.5,-67.5,62.5,127.5,137.5,-142.5,137.5,332.5,1989
4,F,Shelby Anderson,SBD,FR-O,63,Raw,GA,57.2,110,-115,-115,110,55,-60,-60,55,130,137.5,142.5,142.5,307.5,1992
5,F,Trinna McIntosh,SBD,FR-O,63,Raw,GA,62.7,97.5,-107.5,-117.5,97.5,50,57.5,-62.5,57.5,102.5,112.5,-122.5,112.5,267.5,1985
1,F,Karina Baymiller,SBD,FR-O,84,Raw,TN,74.3,140,145,150,150,75,80,85,85,155,165,175,175,410,1988
1,F,Rebecca Holcomb,SBD,FR-O,84+,Raw,GA,152.1,207.5,217.5,230,230,97.5,105,-110,105,212.5,227.5,-238,227.5,562.5,1987
2,F,Melissa Copeland,SBD,FR-O,84+,Raw,MD,109.2,195,202.5,-207.5,202.5,105,-112.5,112.5,112.5,197.5,212.5,-220,212.5,527.5,1977
