Division,WeightClassKg,Place,Name,Team,BodyweightKg,Best3SquatKg,Best3BenchKg,Best3DeadliftKg,TotalKg,Equipment,Event,Sex
Boys,51.71,1,Anthony Lara,Wolfforth Frenship,51.62,120.2,68.04,142.88,331.12,Single-ply,SBD,M
Boys,51.71,2,Avery Gallegos,Plainview,48.72,108.86,52.16,113.4,274.42,Single-ply,SBD,M
Boys,51.71,3,Erick Sotelo,Hart,51.71,72.57,45.36,68.04,185.97,Single-ply,SBD,M
Boys,51.71,DQ,Diego Martinez,Lamesa,51.71,,,,,Single-ply,SBD,M
Boys,55.79,1,Ignacio Romero,Plainview,54.25,179.17,79.38,172.37,430.91,Single-ply,SBD,M
Boys,55.79,2,Tucker Craig,Midland,55.7,138.35,83.91,136.08,358.34,Single-ply,SBD,M
Boys,55.79,3,Mario Hernandez,Friona,53.25,117.93,74.84,136.08,328.85,Single-ply,SBD,M
Boys,55.79,4,Kris Hernandez,Lamesa,55.34,102.06,65.77,136.08,303.91,Single-ply,SBD,M
Boys,55.79,DQ,Jonathan Padilla,Lamesa,55.34,111.13,,,,Single-ply,SBD,M
Boys,55.79,DQ,Jonathan Vidal,Denver City,55.79,,,,,Single-ply,SBD,M
Boys,59.87,1,Raymon Aranda,Seagraves,59.6,199.58,124.74,215.46,539.77,Single-ply,SBD,M
Boys,59.87,2,Luis Trejo,Friona,59.78,206.38,111.13,188.24,505.76,Single-ply,SBD,M
Boys,59.87,3,Zachary Salazar,Lamesa,59.78,170.1,106.59,158.76,435.45,Single-ply,SBD,M
Boys,59.87,4,Esteban Fierro,Plainview,59.51,158.76,97.52,174.63,430.91,Single-ply,SBD,M
Boys,59.87,5,Adrian Velasquez,Wolfforth Frenship,58.15,156.49,86.18,176.9,419.57,Single-ply,SBD,M
Boys,59.87,6,Bryan de la Torre,Bovina,58.69,158.76,77.11,167.83,403.7,Single-ply,SBD,M
Boys,59.87,7,Zavian Florez,Kermit,59.6,158.76,88.45,154.22,401.43,Single-ply,SBD,M
Boys,59.87,8,Cameron Arellano,Wolfforth Frenship,59.6,145.15,81.65,172.37,399.16,Single-ply,SBD,M
Boys,59.87,9,Evan Paez,Muleshoe,56.7,151.95,77.11,167.83,396.89,Single-ply,SBD,M
Boys,59.87,10,Devan Glover,Midland Lee,59.15,127.01,83.91,179.17,390.09,Single-ply,SBD,M
Boys,59.87,11,Miguel Vasquez,Farwell,59.69,140.61,97.52,151.95,390.09,Single-ply,SBD,M
Boys,59.87,12,Bryan Fuentes,Kermit,59.24,142.88,83.91,151.95,378.75,Single-ply,SBD,M
Boys,59.87,13,Gerardo Trejo,Friona,56.88,138.35,63.5,136.08,337.93,Single-ply,SBD,M
Boys,67.13,1,Cooper Ogle,Shallowater,66.5,181.44,106.59,197.31,485.34,Single-ply,SBD,M
Boys,67.13,2,Abel Burciaga,Denver City,66.22,163.29,124.74,181.44,469.47,Single-ply,SBD,M
Boys,67.13,3,Michael Lopez,Levelland,62.69,174.63,95.25,185.97,455.86,Single-ply,SBD,M
Boys,67.13,4,Emilio Miranda,Levelland,65.59,174.63,88.45,176.9,439.98,Single-ply,SBD,M
Boys,67.13,5,Salvador Santiago,Friona,61.69,170.1,86.18,167.83,424.11,Single-ply,SBD,M
Boys,67.13,6,Mikey Lozano,Muleshoe,62.23,158.76,72.57,158.76,390.09,Single-ply,SBD,M
Boys,67.13,7,Don Jones #3,Shallowater,63.59,124.74,88.45,172.37,385.55,Single-ply,SBD,M
Boys,67.13,8,Joshua Trevino,Kermit,63.59,151.95,79.38,151.95,383.29,Single-ply,SBD,M
Boys,67.13,9,Adrian Perez,Meadow,62.51,145.15,79.38,154.22,378.75,Single-ply,SBD,M
Boys,67.13,10,Ricky Cuellar,Lockney,64.05,149.69,68.04,158.76,376.48,Single-ply,SBD,M
Boys,67.13,11,Hayden McCalib,Wolfforth Frenship,62.6,142.88,56.7,156.49,356.07,Single-ply,SBD,M
Boys,67.13,12,Garrett Ransom,Midland Lee,63.68,136.08,74.84,133.81,344.73,Single-ply,SBD,M
Boys,67.13,13,Justin Greenlee,Plains,66.95,124.74,77.11,136.08,337.93,Single-ply,SBD,M
Boys,67.13,14,James Bejarano,Wolfforth Frenship,60.78,122.47,68.04,145.15,335.66,Single-ply,SBD,M
Boys,67.13,15,Justin Carrion,Muleshoe,62.32,117.93,65.77,145.15,328.85,Single-ply,SBD,M
Boys,67.13,DQ,Angel Rodríguez,Meadow,66.13,,,,,Single-ply,SBD,M
Boys,67.13,DQ,Braiden Clement,Midland Lee,67.13,,,,,Single-ply,SBD,M
Boys,67.13,DQ,Israel Delgado,Midland Lee,67.13,,,,,Single-ply,SBD,M
Boys,74.84,1,Luis Estrada,Plainview,70.22,204.12,124.74,204.12,532.97,Single-ply,SBD,M
Boys,74.84,2,Chase Rheilander,Midland,69.85,181.44,124.74,185.97,492.15,Single-ply,SBD,M
Boys,74.84,3,Chris Chavarria,Floydada,67.86,183.7,102.06,199.58,485.34,Single-ply,SBD,M
Boys,74.84,4,Marco Sanchez,Bovina,74.66,172.37,108.86,192.78,474,Single-ply,SBD,M
Boys,74.84,5,John Paul Estrada,Midland,73.39,172.37,111.13,181.44,464.93,Single-ply,SBD,M
Boys,74.84,6,Adam Covarrubias,Levelland,70.94,167.83,117.93,174.63,460.4,Single-ply,SBD,M
Boys,74.84,7,Jacob Duenes,Shallowater,73.39,167.83,97.52,195.04,460.4,Single-ply,SBD,M
Boys,74.84,8,Ruben Luna,Midland Lee,69.13,167.83,117.93,172.37,458.13,Single-ply,SBD,M
Boys,74.84,9,Jerry Simental,Seagraves,72.3,163.29,104.33,188.24,455.86,Single-ply,SBD,M
Boys,74.84,10,Michael DeLeon,Springlake Earth,67.77,181.44,95.25,172.37,449.06,Single-ply,SBD,M
Boys,74.84,11,Peyton Ledbetter,Farwell,69.13,172.37,97.52,172.37,442.25,Single-ply,SBD,M
Boys,74.84,12,Steven Anna,Plains,73.03,151.95,108.86,181.44,442.25,Single-ply,SBD,M
Boys,74.84,13,Taylor Hobbs,Denver City,74.3,154.22,97.52,181.44,433.18,Single-ply,SBD,M
Boys,74.84,14,Jorge Martinez,Dimmitt,70.94,154.22,86.18,188.24,428.64,Single-ply,SBD,M
Boys,74.84,15,Michael Flores,Lamesa,68.86,147.42,79.38,165.56,392.36,Single-ply,SBD,M
Boys,74.84,16,Marc Silva,Wolfforth Frenship,73.3,142.88,83.91,165.56,392.36,Single-ply,SBD,M
Boys,74.84,17,Isaiah Ramos,Shallowater,73.03,145.15,88.45,151.95,385.55,Single-ply,SBD,M
Boys,74.84,18,Ivan Valverde,Denver City,71.12,142.88,86.18,151.95,381.02,Single-ply,SBD,M
Boys,74.84,19,Felipe Rodriguez,Kermit,73.21,142.88,83.91,149.69,376.48,Single-ply,SBD,M
Boys,74.84,20,Jose Duenas,Dimmitt,74.48,124.74,92.99,158.76,376.48,Single-ply,SBD,M
Boys,74.84,21,Julian Cruz,Friona,70.13,145.15,77.11,129.27,351.53,Single-ply,SBD,M
Boys,74.84,22,Joshua Garcia,Kermit,69.58,124.74,72.57,142.88,340.19,Single-ply,SBD,M
Boys,74.84,23,Abraham Navarro,Dimmitt,70.58,120.2,83.91,97.52,301.64,Single-ply,SBD,M
Boys,74.84,DQ,Noe Gonzales,Lamesa,74.84,133.81,,,,Single-ply,SBD,M
Boys,74.84,DQ,Jesse Easily,Muleshoe,74.66,136.08,,,,Single-ply,SBD,M
Boys,74.84,DQ,Nate Lujan,Plains,68.04,,,,,Single-ply,SBD,M
Boys,74.84,DQ,Elijah Acevedo,Meadow,74.84,,,,,Single-ply,SBD,M
Boys,74.84,DQ,Donald Gibbens,Floydada,68.04,,,,,Single-ply,SBD,M
Boys,74.84,DQ,Cristian Cortez,Denver City,74.84,,,,,Single-ply,SBD,M
Boys,74.84,DQ,Miguel Rochel,Bovina,74.84,,,,,Single-ply,SBD,M
Boys,82.1,1,Tate Richards,Springlake Earth,81.65,272.16,183.7,244.94,700.8,Single-ply,SBD,M
Boys,82.1,2,Austin Powell,Plainview,81.47,206.38,124.74,226.8,557.92,Single-ply,SBD,M
Boys,82.1,3,Rolando Gill,Plainview,81.47,210.92,124.74,219.99,555.65,Single-ply,SBD,M
Boys,82.1,4,Fernando Vazquez,Denver City,79.92,226.8,131.54,195.04,553.38,Single-ply,SBD,M
Boys,82.1,5,James Sandoval,Springlake Earth,81.65,199.58,122.47,204.12,526.17,Single-ply,SBD,M
Boys,82.1,6,Kobie McCallister,Midland,82.01,195.04,136.08,195.04,526.17,Single-ply,SBD,M
Boys,82.1,7,Tyler Gonzales,Midland,76.29,197.31,133.81,190.51,521.63,Single-ply,SBD,M
Boys,82.1,8,Wayne Carrillo,Shallowater,78.93,185.97,111.13,213.19,510.29,Single-ply,SBD,M
Boys,82.1,9,Collin McCullough,Midland,82.01,167.83,127.01,206.38,501.22,Single-ply,SBD,M
Boys,82.1,10,Carlos Hinojosa,Lamesa,80.92,188.24,102.06,208.65,498.95,Single-ply,SBD,M
Boys,82.1,11,Alex Quinonez,Seagraves,80.92,174.63,106.59,215.46,496.68,Single-ply,SBD,M
Boys,82.1,12,Daniel Olivas,Hart,82.1,197.31,124.74,174.63,496.68,Single-ply,SBD,M
Boys,82.1,13,Ashton Akbar,Midland Lee,79.29,190.51,99.79,195.04,485.34,Single-ply,SBD,M
Boys,82.1,14,Armando Ramos,Levelland,81.1,176.9,111.13,192.78,480.81,Single-ply,SBD,M
Boys,82.1,15,Dillon Hibbitts,Seagraves,82.01,170.1,108.86,199.58,478.54,Single-ply,SBD,M
Boys,82.1,16,Michael Marquez,Levelland,80.01,190.51,104.33,165.56,460.4,Single-ply,SBD,M
Boys,82.1,17,Julio Maldonado,Springlake Earth,75.75,158.76,108.86,190.51,458.13,Single-ply,SBD,M
Boys,82.1,18,Omar Soto,Farwell,81.74,156.49,99.79,183.7,439.98,Single-ply,SBD,M
Boys,82.1,19,Ross Marker,Midland,78.65,163.29,113.4,151.95,428.64,Single-ply,SBD,M
Boys,82.1,20,Quinten Johnson,Wolfforth Frenship,82.1,158.76,88.45,181.44,428.64,Single-ply,SBD,M
Boys,82.1,21,Cameron Flores,Bovina,79.38,140.61,81.65,167.83,390.09,Single-ply,SBD,M
Boys,82.1,22,Matthew Mireles,Friona,78.93,158.76,86.18,131.54,376.48,Single-ply,SBD,M
Boys,82.1,23,Mark Hartman,Plains,79.02,74.84,70.31,129.27,274.42,Single-ply,SBD,M
Boys,82.1,DQ,Ryan Walters,Lockney,82.1,,,,,Single-ply,SBD,M
Boys,82.1,DQ,Marco Urbina,Lockney,82.1,,,,,Single-ply,SBD,M
Boys,82.1,DQ,Javier Davilla,Denver City,82.1,,,,,Single-ply,SBD,M
Boys,82.1,DQ,Saul Rosas,Seagraves,82.1,,,,,Single-ply,SBD,M
Boys,89.81,1,Cris Stallings,Kermit,88.72,240.4,172.37,244.94,657.71,Single-ply,SBD,M
Boys,89.81,2,Roy Flores,Levelland,86.36,226.8,145.15,226.8,598.74,Single-ply,SBD,M
Boys,89.81,3,Josh Chandler,Midland,87,215.46,138.35,190.51,544.31,Single-ply,SBD,M
Boys,89.81,4,D'Angelo Thomas,Plainview,89.45,204.12,127.01,199.58,530.7,Single-ply,SBD,M
Boys,89.81,5,Joel Cigarroa,Friona,89.63,208.65,111.13,185.97,505.76,Single-ply,SBD,M
Boys,89.81,6,Cesar Olvera,Muleshoe,87.36,174.63,102.06,204.12,480.81,Single-ply,SBD,M
Boys,89.81,7,Mason Hubbard,Midland Lee,88,163.29,111.13,192.78,467.2,Single-ply,SBD,M
Boys,89.81,8,Christian Perez,Levelland,88.9,183.7,99.79,183.7,467.2,Single-ply,SBD,M
Boys,89.81,9,Jacob Quesada,Bovina,82.55,165.56,106.59,192.78,464.93,Single-ply,SBD,M
Boys,89.81,10,Isaiah Vargas,Midland,86.64,170.1,113.4,174.63,458.13,Single-ply,SBD,M
Boys,89.81,11,Josh Garcia,Hart,86,158.76,111.13,174.63,444.52,Single-ply,SBD,M
Boys,89.81,12,Adam Delgado,Wolfforth Frenship,84.73,156.49,102.06,183.7,442.25,Single-ply,SBD,M
Boys,89.81,13,Nik Hodges,Shallowater,89.81,163.29,102.06,163.29,428.64,Single-ply,SBD,M
Boys,89.81,14,Ariel Jaramillo,Friona,88.18,183.7,86.18,156.49,426.38,Single-ply,SBD,M
Boys,89.81,15,Edgar Olvera,Bovina,84.1,163.29,102.06,158.76,424.11,Single-ply,SBD,M
Boys,89.81,16,Isaiah Williams,Wolfforth Frenship,88.9,151.95,106.59,163.29,421.84,Single-ply,SBD,M
Boys,89.81,17,Dylan Goode,Midland Lee,83.01,163.29,92.99,163.29,419.57,Single-ply,SBD,M
Boys,89.81,18,Jesus Jaramillo,Friona,87.36,151.95,81.65,167.83,401.43,Single-ply,SBD,M
Boys,89.81,19,Zach Harris,Plains,89.36,108.86,86.18,145.15,340.19,Single-ply,SBD,M
Boys,89.81,20,Andrew Cigarroa,Friona,83.73,124.74,65.77,117.93,308.44,Single-ply,SBD,M
Boys,89.81,DQ,Eduardo Hernandez,Denver City,89.45,229.06,,,,Single-ply,SBD,M
Boys,89.81,DQ,Riley McBee,Meadow,89.81,,,,,Single-ply,SBD,M
Boys,89.81,DQ,Spencer Adams,Midland Lee,88,167.83,124.74,,,Single-ply,SBD,M
Boys,99.79,1,Alex Ayala,Lamesa,97.7,254.01,188.24,260.82,703.07,Single-ply,SBD,M
Boys,99.79,2,Turner Phillips,Midland,92.99,226.8,147.42,226.8,601.01,Single-ply,SBD,M
Boys,99.79,3,Isaiah Marquez,Kermit,99.34,229.06,145.15,215.46,589.67,Single-ply,SBD,M
Boys,99.79,4,Bolton Huerta,Wolfforth Frenship,99.79,213.19,131.54,213.19,557.92,Single-ply,SBD,M
Boys,99.79,5,Asher Robinson,Wolfforth Frenship,93.8,204.12,122.47,226.8,553.38,Single-ply,SBD,M
Boys,99.79,6,Jessie Villarreal,Lamesa,98.34,190.51,127.01,190.51,508.02,Single-ply,SBD,M
Boys,99.79,7,Braden Price,Levelland,94.98,183.7,97.52,215.46,496.68,Single-ply,SBD,M
Boys,99.79,8,Noah Payan,Midland,96.34,192.78,120.2,174.63,487.61,Single-ply,SBD,M
Boys,99.79,9,Matthew Leyva,Kermit,95.53,197.31,102.06,185.97,485.34,Single-ply,SBD,M
Boys,99.79,10,Isaiah Lira,Plains,95.25,197.31,102.06,183.7,483.08,Single-ply,SBD,M
Boys,99.79,11,Tristan Castillo,Friona,96.16,197.31,120.2,156.49,474,Single-ply,SBD,M
Boys,99.79,12,Kougar Rodriguez,Midland Lee,92.53,183.7,111.13,151.95,446.79,Single-ply,SBD,M
Boys,99.79,13,Jose Salas,Dimmitt,96.52,149.69,106.59,190.51,446.79,Single-ply,SBD,M
Boys,99.79,14,Steven Bazan,Lockney,96.34,163.29,86.18,156.49,405.97,Single-ply,SBD,M
Boys,99.79,15,Jose Valles,Wolfforth Frenship,97.52,127.01,83.91,165.56,376.48,Single-ply,SBD,M
Boys,99.79,DQ,Gage Morgan,Wolfforth Frenship,91.63,,,,,Single-ply,SBD,M
Boys,99.79,DQ,Drake Emery,Plains,90.36,136.08,79.38,,,Single-ply,SBD,M
Boys,99.79,DQ,Crystin Baston,Plainview,99.7,272.16,158.76,,,Single-ply,SBD,M
Boys,109.77,1,Keoni Garcia,Midland,105.32,272.16,170.1,254.01,696.26,Single-ply,SBD,M
Boys,109.77,2,Paul Ochoa,Levelland,100.43,272.16,181.44,240.4,694,Single-ply,SBD,M
Boys,109.77,3,Roy Abanonu,Plainview,109.59,247.21,161.03,249.48,657.71,Single-ply,SBD,M
Boys,109.77,4,Alexis Gonzales,Denver City,102.78,215.46,149.69,206.38,571.53,Single-ply,SBD,M
Boys,109.77,5,Traver Vliem,Midland,109.13,197.31,142.88,229.06,569.26,Single-ply,SBD,M
Boys,109.77,6,Jesus Benitez,Lamesa,103.06,233.6,124.74,201.85,560.19,Single-ply,SBD,M
Boys,109.77,7,Marco Martínez,Kermit,106.68,204.12,133.81,215.46,553.38,Single-ply,SBD,M
Boys,109.77,8,Eric Vela,Muleshoe,102.06,201.85,136.08,201.85,539.77,Single-ply,SBD,M
Boys,109.77,9,Gage Holmes,Wolfforth Frenship,109.5,210.92,104.33,217.72,532.97,Single-ply,SBD,M
Boys,109.77,10,Felipe Diaz,Midland Lee,101.15,204.12,111.13,204.12,519.36,Single-ply,SBD,M
Boys,109.77,11,Omar Villanueva,Midland,107.05,188.24,117.93,190.51,496.68,Single-ply,SBD,M
Boys,109.77,12,Alex Lozano,Denver City,108.05,176.9,120.2,183.7,480.81,Single-ply,SBD,M
Boys,109.77,13,Frank Richard,Wolfforth Frenship,102.06,174.63,108.86,192.78,476.27,Single-ply,SBD,M
Boys,109.77,14,Javier Olivera,Floydada,106.87,179.17,111.13,172.37,462.66,Single-ply,SBD,M
Boys,109.77,15,Hector Pando,Plains,100.7,181.44,102.06,151.95,435.45,Single-ply,SBD,M
Boys,109.77,16,Jonathen Villavicencio,Midland Lee,108.59,174.63,92.99,158.76,426.38,Single-ply,SBD,M
Boys,109.77,DQ,Zach Morgan,Wolfforth Frenship,107.95,158.76,,,,Single-ply,SBD,M
Boys,109.77,DQ,Alexis Nunez,Farwell,109.77,,,,,Single-ply,SBD,M
Boys,124.74,1,Devon Miller,Midland,120.56,290.3,174.63,290.3,755.23,Single-ply,SBD,M
Boys,124.74,2,Adriel Flores,Plainview,124.19,272.16,142.88,258.55,673.58,Single-ply,SBD,M
Boys,124.74,3,Paxton Heiting,Midland,123.65,215.46,183.7,254.01,653.17,Single-ply,SBD,M
Boys,124.74,4,Israel Rosalez,Seagraves,117.39,272.16,161.03,213.19,646.37,Single-ply,SBD,M
Boys,124.74,5,Camilo de la Rosa,Bovina,120.02,256.28,149.69,231.33,637.3,Single-ply,SBD,M
Boys,124.74,6,Tomas Vidales,Levelland,122.56,235.87,142.88,226.8,605.55,Single-ply,SBD,M
Boys,124.74,7,Evan Brown,Wolfforth Frenship,116.48,206.38,151.95,210.92,569.26,Single-ply,SBD,M
Boys,124.74,8,Adan Chavez,Midland Lee,112.76,204.12,122.47,226.8,553.38,Single-ply,SBD,M
Boys,124.74,9,Tito Salcido,Midland,123.65,201.85,142.88,201.85,546.58,Single-ply,SBD,M
Boys,124.74,10,Lucas Flores,Wolfforth Frenship,114.76,217.72,111.13,210.92,539.77,Single-ply,SBD,M
Boys,124.74,11,Ivan Esquivel,Denver City,111.04,215.46,120.2,197.31,532.97,Single-ply,SBD,M
Boys,124.74,12,Derek Woods,Kermit,118.48,206.38,124.74,201.85,532.97,Single-ply,SBD,M
Boys,124.74,13,Marquis Rogers,Midland Lee,111.04,197.31,136.08,197.31,530.7,Single-ply,SBD,M
Boys,124.74,14,Boomer Warren,Midland Lee,112.85,192.78,127.01,167.83,487.61,Single-ply,SBD,M
Boys,124.74,15,Dillan Allen,Wolfforth Frenship,115.48,170.1,92.99,174.63,437.72,Single-ply,SBD,M
Boys,124.74,16,Steven Noriega,Bovina,110.86,172.37,86.18,158.76,417.3,Single-ply,SBD,M
Boys,124.74,17,Dane Lewis,Wolfforth Frenship,113.76,158.76,83.91,174.63,417.3,Single-ply,SBD,M
Boys,124.74,DQ,Tyler Rodriguez,Midland Lee,116.85,183.7,,,,Single-ply,SBD,M
Boys,124.74,DQ,Conan Hernandez,Midland Lee,124.74,,,,,Single-ply,SBD,M
Boys,124.74,DQ,Ivien Gonzales,Lamesa,119.66,206.38,,,,Single-ply,SBD,M
Boys,124.74+,1,Braxton Gardner,Midland,133.9,272.16,147.42,254.01,673.58,Single-ply,SBD,M
Boys,124.74+,2,Trevor Townsend,Plainview,135.62,258.55,142.88,199.58,601.01,Single-ply,SBD,M
Boys,124.74+,3,Juan Vasquez,Midland,142.16,219.99,138.35,188.24,546.58,Single-ply,SBD,M
Boys,124.74+,4,Zathan McIntosh,Kermit,149.14,213.19,120.2,183.7,517.1,Single-ply,SBD,M
Boys,124.74+,5,Patrick Leyva,Midland Lee,151.41,215.46,102.06,195.04,512.56,Single-ply,SBD,M
Boys,124.74+,6,Misael Grado,Dimmitt,144.06,204.12,117.93,181.44,503.49,Single-ply,SBD,M
Boys,124.74+,7,Vincent Romero,Levelland,126.14,192.78,102.06,195.04,489.88,Single-ply,SBD,M
Boys,124.74+,8,Justin Perez,Farwell,127.46,181.44,129.27,176.9,487.61,Single-ply,SBD,M
Boys,124.74+,DQ,Gerardo Carrillo,Bovina,125.19,,,,,Single-ply,SBD,M
