Division,WeightClassKg,Place,Name,Team,BodyweightKg,Best3SquatKg,Best3BenchKg,Best3DeadliftKg,TotalKg,Equipment,Event,Sex
Boys,51.71,1,Jerry Lopez,Port Isabel,51.44,188.24,92.99,167.83,449.06,Single-ply,SBD,M
Boys,55.79,2,Leo Tanguma,Rio Grande City Grulla,51.89,115.67,70.31,131.54,317.51,Single-ply,SBD,M
Boys,51.71,DQ,Dylan Rodriguez,Edcouch-Elsa,49.8,,,,,Single-ply,SBD,M
Boys,55.79,1,JR Torres,San Benito,55.7,161.03,86.18,181.44,428.64,Single-ply,SBD,M
Boys,59.87,2,Aaron Vasquez,Edcouch-Elsa,55.97,120.2,63.5,129.27,312.98,Single-ply,SBD,M
Boys,55.79,3,Billy Guerra,La Feria,54.25,102.06,52.16,131.54,285.76,Single-ply,SBD,M
Boys,55.79,4,Hugo Abarca,Lyford,53.25,106.59,58.97,106.59,272.16,Single-ply,SBD,M
Boys,59.87,DQ,Jesse Leyva,Raymondville,55.97,165.56,,,,Single-ply,SBD,M
Boys,59.87,1,Aaron Robles,San Benito,58.74,158.76,88.45,190.51,437.72,Single-ply,SBD,M
Boys,67.13,2,Julio Rodriguez,Raymondville,60.06,142.88,95.25,183.7,421.84,Single-ply,SBD,M
Boys,59.87,3,James Zaragoza,Raymondville,58.97,142.88,83.91,142.88,369.68,Single-ply,SBD,M
Boys,67.13,DQ,Jonathan Gonzalez,Port Isabel,60.06,,,,,Single-ply,SBD,M
Boys,67.13,1,Joseph Zaragoza,Raymondville,64.05,242.67,145.15,197.31,585.13,Single-ply,SBD,M
Boys,67.13,2,Ernie Sandell,San Benito,65.86,206.38,138.35,222.26,566.99,Single-ply,SBD,M
Boys,74.84,3,Arturo Rosales,San Benito,67.22,181.44,127.01,210.92,519.36,Single-ply,SBD,M
Boys,74.84,4,Oliver Salander,Port Isabel,67.22,147.42,81.65,163.29,392.36,Single-ply,SBD,M
Boys,67.13,5,Marco Arista,Port Isabel,64.95,158.76,79.38,140.61,378.75,Single-ply,SBD,M
Boys,74.84,DQ,David Yanes,Port Isabel,67.31,,,,,Single-ply,SBD,M
Boys,74.84,DQ,Brandon Ramon,La Feria,67.31,,,,,Single-ply,SBD,M
Boys,67.13,DQ,Chris Morales,Edcouch-Elsa,62.87,,,,,Single-ply,SBD,M
Boys,74.84,1,Tristan Salinas,Santa Rosa,67.95,240.4,154.22,208.65,603.28,Single-ply,SBD,M
Boys,74.84,2,Ross Torres,La Feria,73.75,195.04,129.27,233.6,557.92,Single-ply,SBD,M
Boys,82.1,3,Abel Rangel,La Feria,75.02,197.31,102.06,199.58,498.95,Single-ply,SBD,M
Boys,74.84,4,Richard Hernandez,Edcouch-Elsa,74.03,181.44,113.4,188.24,483.08,Single-ply,SBD,M
Boys,74.84,5,Armando Garza,La Feria,74.84,172.37,108.86,174.63,455.86,Single-ply,SBD,M
Boys,74.84,6,Diego Garcia,Edcouch-Elsa,73.12,151.95,115.67,176.9,444.52,Single-ply,SBD,M
Boys,74.84,7,Travis Ramos,Lyford,67.68,172.37,95.25,151.95,419.57,Single-ply,SBD,M
Boys,74.84,DQ,Pedro Gonzalez,Port Isabel,72.39,,,,,Single-ply,SBD,M
Boys,74.84,DQ,Adan Cantu,Rio Grande City Grulla,74.66,,,,,Single-ply,SBD,M
Boys,82.1,1,Max Castillo,Rio Hondo,80.1,233.6,138.35,224.53,596.47,Single-ply,SBD,M
Boys,82.1,2,Ramon Sauceda,La Feria,79.02,215.46,127.01,215.46,557.92,Single-ply,SBD,M
Boys,82.1,3,Matt Martinez,Port Isabel,78.65,229.06,136.08,183.7,548.85,Single-ply,SBD,M
Boys,82.1,4,Cristain Hoshino,Port Isabel,80.29,188.24,102.06,181.44,471.74,Single-ply,SBD,M
Boys,82.1,5,Cordero Castillo,Lyford,81.1,176.9,99.79,181.44,458.13,Single-ply,SBD,M
Boys,82.1,6,Isai Perez,Rio Grande City Grulla,80.47,174.63,99.79,165.56,439.98,Single-ply,SBD,M
Boys,89.81,7,Miguel Garcia,Port Isabel,82.28,120.2,86.18,163.29,369.68,Single-ply,SBD,M
Boys,82.1,DQ,Rey Chapa,La Feria,80.38,181.44,,,,Single-ply,SBD,M
Boys,82.1,DQ,Robert Trevino,Edcouch-Elsa,80.29,,,,,Single-ply,SBD,M
Boys,89.81,1,Ej Castaneda,Rio Hondo,87.18,249.48,165.56,226.8,641.83,Single-ply,SBD,M
Boys,89.81,2,Juan Sanchez,Rio Hondo,87.54,240.4,133.81,215.46,589.67,Single-ply,SBD,M
Boys,89.81,3,Jose Gonzalez,San Benito,89.09,199.58,113.4,201.85,514.83,Single-ply,SBD,M
Boys,89.81,4,Juan Varela,Edcouch-Elsa,83.91,183.7,106.59,201.85,492.15,Single-ply,SBD,M
Boys,89.81,5,Mark Salinas,Rio Grande City Grulla,87.18,172.37,90.72,154.22,417.3,Single-ply,SBD,M
Boys,89.81,6,Isreal Torres,La Feria,88.63,149.69,88.45,163.29,401.43,Single-ply,SBD,M
Boys,99.79,1,Julio Rivas,San Benito,99.52,249.48,163.29,258.55,671.32,Single-ply,SBD,M
Boys,109.77,2,Gregory Juarez,Raymondville,99.97,265.35,167.83,238.14,671.32,Single-ply,SBD,M
Boys,99.79,3,Mark Cavazos,Raymondville,93.17,247.21,170.1,206.38,623.69,Single-ply,SBD,M
Boys,99.79,4,Javier Arriaga,Rio Hondo,97.07,215.46,151.95,233.6,601.01,Single-ply,SBD,M
Boys,99.79,5,Fernando Rivera,Port Isabel,96.52,240.4,149.69,201.85,591.94,Single-ply,SBD,M
Boys,99.79,6,Mario Vera,Edcouch-Elsa,96.07,242.67,127.01,215.46,585.13,Single-ply,SBD,M
Boys,99.79,7,Anthony Rios,Rio Hondo,98.88,195.04,170.1,195.04,560.19,Single-ply,SBD,M
Boys,99.79,8,Jesus Roiz,Rio Grande City Grulla,95.25,195.04,136.08,181.44,512.56,Single-ply,SBD,M
Boys,99.79,9,Evalalio Buerostro,San Benito,99.79,165.56,108.86,183.7,458.13,Single-ply,SBD,M
Boys,109.77,1,Aureliano Silva,Port Isabel,105.6,288.03,154.22,215.46,657.71,Single-ply,SBD,M
Boys,109.77,2,Bobby Gonzales,Raymondville,102.87,247.21,149.69,231.33,628.23,Single-ply,SBD,M
Boys,109.77,3,Mike Garza,Edcouch-Elsa,105.6,254.01,129.27,240.4,623.69,Single-ply,SBD,M
Boys,109.77,4,Peter Adameit,Lyford,107.77,240.4,122.47,210.92,573.79,Single-ply,SBD,M
Boys,109.77,5,Isaac Carrizles,La Feria,100.15,204.12,145.15,213.19,562.45,Single-ply,SBD,M
Boys,109.77,6,Joe Cruz,Rio Hondo,106.87,208.65,142.88,195.04,546.58,Single-ply,SBD,M
Boys,109.77,7,Michael Cervantes,Lyford,104.87,222.26,117.93,165.56,505.76,Single-ply,SBD,M
Boys,124.74,1,Pedro Lozano,San Benito,123.6,267.62,183.7,254.01,705.34,Single-ply,SBD,M
Boys,124.74,2,Frank Alvarez,Port Isabel,113.76,183.7,108.86,206.38,498.95,Single-ply,SBD,M
Boys,124.74,3,Ruben Silva,Port Isabel,115.94,158.76,99.79,161.03,419.57,Single-ply,SBD,M
Boys,124.74,DQ,Jose Castaneda,Raymondville,122.2,247.21,,,,Single-ply,SBD,M
Boys,124.74+,1,Mike Benavidez,San Benito,158.76,306.17,183.7,222.26,712.14,Single-ply,SBD,M
Boys,124.74+,2,Adrian Cantu,Rio Grande City Grulla,154.58,303.91,167.83,226.8,698.53,Single-ply,SBD,M
Boys,124.74+,3,Mark Benavidez,Port Isabel,150.77,276.69,172.37,219.99,669.05,Single-ply,SBD,M
Boys,124.74+,4,Dominic Tijerina,Raymondville,149.59,292.57,136.08,206.38,635.03,Single-ply,SBD,M
Boys,124.74+,5,Emilio Rivera,Lyford,128.82,265.35,136.08,231.33,632.76,Single-ply,SBD,M
Boys,124.74+,6,Juan Pena,Raymondville,131.45,274.42,138.35,215.46,628.23,Single-ply,SBD,M
Boys,124.74+,7,Alvin Lofton,Edcouch-Elsa,132.36,244.94,154.22,215.46,614.62,Single-ply,SBD,M
Boys,124.74+,8,Kassper Hernandez,Lyford,131.36,229.06,124.74,181.44,535.24,Single-ply,SBD,M
Boys,124.74+,9,Abram Vela Jr,Lyford,148.51,226.8,102.06,176.9,505.76,Single-ply,SBD,M
Boys,124.74+,DQ,Joshua Lopez,Rio Hondo,131.27,226.8,124.74,,,Single-ply,SBD,M
