Place,Sex,Name,Event,Division,WeightClassKg,Equipment,BodyweightKg,Best3SquatKg,Best3BenchKg,Best3DeadliftKg,TotalKg,BirthYear
1,M,Kasey Kaufmann,B,MR-T2,67.5,Raw,65,,87.5,,87.5,1998
1,M,Steven Toole,B,MR-Jr,110,Raw,106.9,,195,,195,1991
1,M,Chris Musillo,B,MR-O,90,Raw,85.7,,142.5,,142.5,
2,M,Clayton Long,B,MR-O,90,Raw,85.5,,135,,135,1978
DQ,M,Darriel Davis,B,MR-O,90,Raw,83.4,,,,,1985
1,M,Clifton Allen,B,MR-O,125,Raw,113.6,,247.5,,247.5,1978
2,M,Marlon Bhoorasingh,B,MR-O,125,Raw,123.9,,230,,230,1983
1,M,Chris Fountas,B,MR-M1b,67.5,Raw,65.9,,125.5,,125.5,
1,M,Romeo Lavarias,B,MR-M1b,100,Raw,97.9,,112.5,,112.5,1964
1,M,James Campbell,B,MR-M1b,125,Raw,117.8,,167.5,,167.5,1966
1,M,Bill Campbell,B,M-M2b,125+,Single-ply,147.1,,320,,320,1957
1,M,Scott Daneberg,B,MR-M2a,60,Raw,59.1,,122.5,,122.5,
1,M,Rick Watson,B,MR-M3a,82.5,Raw,81.2,,105,,105,1952
1,F,Eastin Kimberly,B,F-M1a,90+,Single-ply,114.4,,120,,120,1970
1,F,Peggy Busacca,B,FR-M3a,90+,Raw,102.6,,80,,80,1953
1,M,Mark Preciados,D,MR-O,100,Raw,97.4,,,227.5,227.5,1984
1,M,William Hennessey,D,MR-M2a,75,Raw,70.7,,,137.5,137.5,1963
1,M,Doug Harney,D,MR-M2a,82.5,Raw,81.9,,,220,220,1962
2,M,Marvin Wheeler,D,MR-M2a,82.5,Raw,80.7,,,160,160,1963
1,M,Richard Ortiz,D,MR-M4a,75,Raw,74.5,,,160,160,1944
1,F,Eastin Kimberly,D,F-M1a,90+,Single-ply,114.4,,,177.5,177.5,1970
1,F,Peggy Busacca,D,FR-M3a,90+,Raw,102.6,,,117.5,117.5,1953
1,M,Logan Morrison,SBD,MR-T1,82.5,Raw,79.2,117.5,77.5,127.5,322.5,1999
1,M,Juan Villavirgo,SBD,MR-T3,67.5,Raw,66.6,155,105,182.5,442.5,
1,M,Jordan McKenzie,SBD,MR-T3,75,Raw,73.9,172.5,125,247.5,545,1995
1,M,Andrew LeMay,SBD,MR-T3,100,Raw,97.1,182.5,162.5,250,595,1994
1,M,Joseph Monduy,SBD,MR-Jr,52,Raw,48.7,82.5,45,92.5,220,1990
1,M,Joseph Gerlach,SBD,MR-Jr,67.5,Raw,67,172.5,102.5,210,485,1992
1,M,Andrew Cao,SBD,MR-Jr,75,Raw,74.2,175,105,225,505,1994
2,M,Zachary Nelson #1,SBD,MR-Jr,75,Raw,68.2,167.5,115,187.5,470,1990
3,M,Christopher Gai,SBD,MR-Jr,75,Raw,70.7,125,70,200,395,1993
2,M,Jorge Rasado,SBD,MR-Jr,82.5,Raw,80.6,205,110,222.5,537.5,
3,M,Curtis Gaines,SBD,MR-Jr,82.5,Raw,82.4,185,132.5,215,532.5,1992
4,M,Joshua Cordoba,SBD,MR-Jr,82.5,Raw,78.4,175,117.5,227.5,520,1993
5,M,Colton Johnson,SBD,MR-Jr,82.5,Raw,78.7,140,107.5,187.5,435,1993
1,M,Jon Gruden,SBD,MR-Jr,82.5,Raw,80.8,210,167.5,230,607.5,1994
1,M,Jonathan Castro,SBD,MR-Jr,90,Raw,88.9,215,145,265,625,1997
3,M,Danny Quach,SBD,MR-Jr,90,Raw,88.4,195,152.5,245,592.5,1990
4,M,Anthony Liardo,SBD,MR-Jr,90,Raw,90,185,132.5,207.5,525,1993
5,M,Chris Piscopo,SBD,MR-Jr,90,Raw,87.1,200,122.5,200,522.5,1992
2,M,Cameron Hooper,SBD,MR-Jr,90,Raw,88.6,212.5,132.5,267.5,612.5,1991
6,M,Fovad Haddad,SBD,MR-Jr,90,Raw,88.3,145,100,160,405,
2,M,John Mylott,SBD,MR-Jr,100,Raw,95,210,120,250,580,1992
1,M,Brandon Gully,SBD,MR-Jr,100,Raw,96.7,200,125,262.5,587.5,1993
1,M,Samuel Parker,SBD,MR-Jr,110,Raw,109.8,227.5,152.5,275,655,1991
1,M,Gabriel Porras,SBD,MR-Jr,125,Raw,121.8,227.5,147.5,227.5,602.5,1992
1,M,Justin Stine,SBD,MR-Jr,125+,Raw,153.9,275,195,280,750,1992
1,M,Morgan Mann,SBD,M-O,125,Single-ply,119.7,272.5,220,250,742.5,1983
1,M,Che Anthony Achat,SBD,MR-O,67.5,Raw,66.9,140,105,202.5,447.5,
2,M,Michael Rywalt,SBD,MR-O,67.5,Raw,66.3,120,87.5,155,362.5,1978
1,M,Nicholas Gonzalez,SBD,MR-O,75,Raw,74.3,160,132.5,215,507.5,1986
1,M,Kennard Green,SBD,MR-O,82.5,Raw,82,177.5,130,217.5,525,
2,M,Adolfo Rivera,SBD,MR-O,90,Raw,88.1,185,142.5,237.5,565,
3,M,Daniel Valle,SBD,MR-O,90,Raw,85,192.5,115,227.5,535,1982
4,M,Damian Hernandez,SBD,MR-O,90,Raw,85,157.5,127.5,205,490,1981
1,M,Andrew Dorman,SBD,MR-O,90,Raw,85.8,205,147.5,237.5,590,
1,M,Sam Grossman,SBD,MR-O,100,Raw,98.5,185,157.5,225,567.5,1998
1,M,Ryan Montague,SBD,MR-O,110,Raw,108.7,240,160,250,650,1981
1,M,James McMurrey,SBD,MR-O,125,Raw,117.9,232.5,177.5,295,705,
2,M,Kevin Phillipson,SBD,MR-O,125,Raw,113,207.5,185,305,697.5,1980
3,M,David Covan,SBD,MR-O,125,Raw,114.9,227.5,192.5,262.5,682.5,1981
1,M,Jorge Alvarez,SBD,MR-O,125,Raw,120.2,217.5,147.5,272.5,637.5,1984
5,M,Preston Eden,SBD,MR-O,125,Raw,112.5,192.5,125,237.5,555,1985
4,M,Michael Armour,SBD,MR-O,125,Raw,110.4,215,175,252.5,642.5,1989
1,M,Brian Mott,SBD,M-M1a,75,Single-ply,69.5,105,115,137.5,357.5,1970
1,M,Brian Morrison,SBD,MR-M1a,75,Raw,74.1,165,132.5,200,497.5,1973
1,M,Gregroy Prince,SBD,MR-M1a,100,Raw,98.4,235,120,235,590,
1,M,Don Teets,SBD,M-M1b,100,Single-ply,96.6,290,187.5,277.5,755,1967
1,M,Ned Johnson,SBD,M-M2b,100,Single-ply,94.5,185,137.5,205,527.5,1959
1,M,Bill Campbell,BD,M-M2b,125+,Single-ply,147.1,,320,230,550,1957
1,M,Doug Harney,SBD,MR-M2a,82.5,Raw,81.9,170,100,220,490,1962
2,M,Marvin Wheeler,SBD,MR-M2a,82.5,Raw,80.7,147.5,95,160,402.5,1963
1,M,Robert Keller,SBD,MR-M2a,125+,Raw,125.6,25,25,25,75,1962
1,M,Jim Cooper,SBD,MR-M2b,125+,Raw,141.8,212.5,170,255,637.5,1958
1,M,John LaFlamme,SBD,MR-M3a,82.5,Raw,81.7,145,92.5,212.5,450,1950
1,M,Joseph Gonzalez Jr,SBD,MR-M3b,100,Raw,97.7,125,115,187.5,427.5,
1,M,Nick Shriner,SBD,MR-M4a,82.5,Raw,78.7,112.5,75,132.5,320,1943
1,F,Brooke Gilardi,SBD,FR-Jr,67.5,Raw,65.8,110,70,125,305,
1,F,Grace Guevara,SBD,FR-Jr,75,Raw,71.4,90,40,105,235,1993
1,F,Danielle Alicea,SBD,FR-Jr,82.5,Raw,80,130,67.5,140,337.5,1992
1,F,Nellie Jane Howard,BD,FR-O,60,Raw,56.6,,42.5,110,152.5,
1,F,Stacy Maceda,SBD,FR-O,67.5,Raw,65.6,90,60,140,290,1983
1,F,Eastin Kimberly,SBD,F-M1a,90+,Single-ply,114.4,160,120,177.5,457.5,1970
1,F,Melinda Fischl,SBD,FR-M1a,90+,Raw,95,135,70,167.5,372.5,1971
1,F,Amelia Johnson,SBD,F-M1b,44,Single-ply,43.6,65,32.5,87.5,185,1965
1,F,Laurel Blackburn,SBD,FR-M1b,67.5,Raw,66.1,70,42.5,97.5,210,1962
1,M,Noah Alan Wiles,BD,MR-T1,125+,Raw,142.6,,92.5,170,262.5,
1,M,Jonathan Hernandez,BD,M-O,90,Single-ply,87.2,,185,255,440,1986
1,M,Robert Jardine,BD,MR-O,90,Raw,87.6,,90,95,185,
1,M,Lucas Irwin,BD,MR-O,110,Raw,104.4,,155,232.5,387.5,1980
1,M,Jethro Alexander,BD,MR-O,125,Raw,117,,167.5,260,427.5,1981
1,M,Michael Ricker,BD,M-M1b,125+,Single-ply,142,,215,100,315,1965
1,M,James Campbell,BD,MR-M1b,125,Raw,117.8,,167.5,167.5,335,1966
1,M,William Hennessey,BD,MR-M2a,75,Raw,70.7,,87.5,137.5,225,1963
1,M,Robert Jardine,BD,MR-M4b,90,Raw,87.6,,90,95,185,
1,F,Eastin Kimberly,BD,F-M1a,90+,Single-ply,114.4,,120,177.5,297.5,1970
1,F,Peggy Busacca,BD,FR-M3a,90+,Raw,102.6,,80,117.5,197.5,1953
