Division,WeightClassKg,Place,Name,Team,BodyweightKg,Best3SquatKg,Best3BenchKg,Best3DeadliftKg,TotalKg,Equipment,Event,Sex
Boys,51.71,1,Rafael Morales,Laredo Cigarroa,51.53,149.69,83.91,163.29,396.89,Single-ply,SBD,M
Boys,55.79,2,Cesar Casas,Hidalgo Early College,51.94,149.69,92.99,147.42,390.09,Single-ply,SBD,M
Boys,51.71,3,Stevie Solis,PSJA Memorial,50.98,133.81,77.11,154.22,365.14,Single-ply,SBD,M
Boys,51.71,4,Aaron Rocha,Rio Grande City Grulla,51.17,113.4,68.04,147.42,328.85,Single-ply,SBD,M
Boys,51.71,5,Francisco Fuentes,Zapata,46.08,102.06,54.43,106.59,263.08,Single-ply,SBD,M
Boys,59.87,1,Alex Solis,Weslaco East,55.97,197.31,117.93,181.44,496.68,Single-ply,SBD,M
Boys,55.79,2,Enrique Alvarez,Laredo Cigarroa,55.11,192.78,102.06,181.44,476.27,Single-ply,SBD,M
Boys,55.79,3,Marcos Oyervides,PSJA,55.52,151.95,97.52,156.49,405.97,Single-ply,SBD,M
Boys,55.79,4,Daniel Rodriguez,PSJA,55.79,149.69,92.99,161.03,403.7,Single-ply,SBD,M
Boys,55.79,5,Brandon Guzman,Weslaco East,55.7,131.54,72.57,138.35,342.46,Single-ply,SBD,M
Boys,55.79,6,Juan Torres,San Benito,53.71,131.54,70.31,138.35,340.19,Single-ply,SBD,M
Boys,55.79,DQ,Eddie Garza,PSJA Southwest,53.71,92.99,,,,Single-ply,SBD,M
Boys,59.87,1,Felipe Medina,Zapata,59.6,158.76,102.06,181.44,442.25,Single-ply,SBD,M
Boys,59.87,2,Isaias Carrasco,Pharr Valley View,58.69,163.29,92.99,176.9,433.18,Single-ply,SBD,M
Boys,59.87,3,Augustin Soto,Mission,57.79,165.56,104.33,149.69,419.57,Single-ply,SBD,M
Boys,59.87,4,Jesse Casarez,Mercedes,56.7,165.56,90.72,145.15,401.43,Single-ply,SBD,M
Boys,59.87,5,Aaron Martinez,Weslaco East,56.97,122.47,72.57,145.15,340.19,Single-ply,SBD,M
Boys,59.87,6,Isael Granados,Laredo Nixon,57.79,102.06,61.23,131.54,294.84,Single-ply,SBD,M
Boys,59.87,7,Luis Guevara,Laredo Nixon,56.97,83.91,65.77,115.67,265.35,Single-ply,SBD,M
Boys,67.13,1,Ernie Sandell,San Benito,67.04,185.97,120.2,208.65,514.83,Single-ply,SBD,M
Boys,74.84,2,Esteban Flores,Pharr Valley View,67.22,174.63,102.06,222.26,498.95,Single-ply,SBD,M
Boys,67.13,3,Joseph Zaragoza,Raymondville,63.68,183.7,124.74,188.24,496.68,Single-ply,SBD,M
Boys,67.13,4,Gilbert Flores,Pharr Valley View,64.5,183.7,102.06,181.44,467.2,Single-ply,SBD,M
Boys,67.13,5,Vicente Flores,Zapata,64.86,158.76,120.2,188.24,467.2,Single-ply,SBD,M
Boys,67.13,6,Joe Balzadua,Mercedes,65.23,181.44,106.59,167.83,455.86,Single-ply,SBD,M
Boys,67.13,7,Mano Cantu,Laredo Cigarroa,63.5,154.22,83.91,172.37,410.5,Single-ply,SBD,M
Boys,67.13,8,Manny Barrera,Rio Grande City Grulla,65.68,151.95,95.25,154.22,401.43,Single-ply,SBD,M
Boys,74.84,9,Erick Flores,Mission,67.36,140.61,83.91,167.83,392.36,Single-ply,SBD,M
Boys,67.13,10,Martin Rodriguez,Hidalgo Early College,64.23,127.01,83.91,161.03,371.95,Single-ply,SBD,M
Boys,67.13,11,Jessie Villareal,PSJA Southwest,67.04,145.15,74.84,149.69,369.68,Single-ply,SBD,M
Boys,74.84,12,Ricky Zavala,Laredo Martin,67.22,133.81,79.38,127.01,340.19,Single-ply,SBD,M
Boys,67.13,13,Martin Saldana,PSJA Southwest,63.23,138.35,72.57,127.01,337.93,Single-ply,SBD,M
Boys,67.13,14,Josue Valdez,Zapata,65.14,170.1,95.25,68.04,333.39,Single-ply,SBD,M
Boys,67.13,15,Angel Guzman,Rio Grande City Grulla,62.82,117.93,70.31,138.35,326.59,Single-ply,SBD,M
Boys,67.13,16,Mark Perez,Rio Grande City Grulla,66.13,111.13,63.5,127.01,301.64,Single-ply,SBD,M
Boys,67.13,17,Lorenzo Huerta,PSJA Southwest,62.14,95.25,63.5,136.08,294.84,Single-ply,SBD,M
Boys,67.13,18,Yoni Portillo,Laredo Nixon,61.14,102.06,61.23,111.13,274.42,Single-ply,SBD,M
Boys,67.13,19,Adan Cantu,Rio Grande City Grulla,66.77,113.4,58.97,97.52,269.89,Single-ply,SBD,M
Boys,74.84,1,Abram Guerra,Rio Grande City,73.48,229.06,127.01,204.12,560.19,Single-ply,SBD,M
Boys,74.84,2,Danny Flores,Zapata,74.12,210.92,129.27,219.99,560.19,Single-ply,SBD,M
Boys,74.84,3,Adalberto Chavez,Hidalgo Early College,74.3,215.46,142.88,183.7,542.04,Single-ply,SBD,M
Boys,74.84,4,Armin Solis,Rio Grande City,74.39,208.65,127.01,181.44,517.1,Single-ply,SBD,M
Boys,74.84,5,Justin Guerra,Rio Grande City,74.84,195.04,124.74,192.78,512.56,Single-ply,SBD,M
Boys,74.84,6,Leonard Ramirez,Raymondville,72.12,183.7,133.81,192.78,510.29,Single-ply,SBD,M
Boys,82.1,7,Miguel Pena,Pharr Valley View,75.02,181.44,124.74,188.24,494.42,Single-ply,SBD,M
Boys,74.84,8,Isaac Garza,PSJA Memorial,70.67,170.1,122.47,192.78,485.34,Single-ply,SBD,M
Boys,74.84,9,Mike Benavides,Laredo Cigarroa,71.4,165.56,124.74,195.04,485.34,Single-ply,SBD,M
Boys,74.84,10,Noel Zuniga,PSJA,71.4,190.51,97.52,192.78,480.81,Single-ply,SBD,M
Boys,74.84,11,Edipo Escobedo,Laredo Cigarroa,74.57,192.78,102.06,181.44,476.27,Single-ply,SBD,M
Boys,74.84,12,DJ Martinez,PSJA Memorial,72.48,163.29,108.86,192.78,464.93,Single-ply,SBD,M
Boys,74.84,13,Adrian Reyna,Rio Grande City,73.94,185.97,90.72,185.97,462.66,Single-ply,SBD,M
Boys,74.84,14,Adrian Moncevaiz,Raymondville,74.84,192.78,86.18,183.7,462.66,Single-ply,SBD,M
Boys,74.84,15,Alex Guajardo,Pharr Valley View,72.03,158.76,104.33,158.76,421.84,Single-ply,SBD,M
Boys,74.84,16,Juan Servantes,PSJA Memorial,70.13,156.49,88.45,163.29,408.23,Single-ply,SBD,M
Boys,74.84,17,Sergio Garcia,Laredo Nixon,69.31,140.61,72.57,151.95,365.14,Single-ply,SBD,M
Boys,74.84,18,Omar Alejos,PSJA Southwest,74.03,111.13,68.04,147.42,326.59,Single-ply,SBD,M
Boys,74.84,DQ,Jesus Gonzalez,PSJA,67.59,151.95,,,,Single-ply,SBD,M
Boys,82.1,1,Teo Fonseca,PSJA,81.47,238.14,129.27,204.12,571.53,Single-ply,SBD,M
Boys,89.81,2,Ricardo Lopez,Rio Grande City,82.33,229.06,131.54,204.12,564.72,Single-ply,SBD,M
Boys,82.1,3,Epifanio Chavero,Rio Grande City,78.93,213.19,122.47,208.65,544.31,Single-ply,SBD,M
Boys,89.81,4,Miguel Galvan,Pharr Valley View,82.28,192.78,124.74,197.31,514.83,Single-ply,SBD,M
Boys,82.1,5,Ubaldo Candanoza,Weslaco East,81.28,183.7,122.47,201.85,508.02,Single-ply,SBD,M
Boys,82.1,6,Peter Gonzalez,Weslaco East,78.56,197.31,108.86,195.04,501.22,Single-ply,SBD,M
Boys,82.1,7,JD Elizondo,PSJA,77.84,195.04,133.81,170.1,498.95,Single-ply,SBD,M
Boys,82.1,8,Erasmo Canalez,Rio Grande City,78.93,190.51,120.2,185.97,496.68,Single-ply,SBD,M
Boys,82.1,9,Eddie Montalvo,Pharr Valley View,76.11,208.65,86.18,190.51,485.34,Single-ply,SBD,M
Boys,82.1,10,Randy de la Garza,Mission,78.56,174.63,120.2,181.44,476.27,Single-ply,SBD,M
Boys,82.1,11,Enrique Rodriguez,San Benito,78.2,165.56,117.93,172.37,455.86,Single-ply,SBD,M
Boys,82.1,12,Rick Garza,Mercedes,81.1,167.83,124.74,156.49,449.06,Single-ply,SBD,M
Boys,82.1,13,Jesse Vega,Mercedes,76.75,172.37,111.13,163.29,446.79,Single-ply,SBD,M
Boys,82.1,14,Alberto Roque,Mission,80.29,176.9,83.91,181.44,442.25,Single-ply,SBD,M
Boys,82.1,15,Manny Garza,PSJA Southwest,75.39,111.13,92.99,136.08,340.19,Single-ply,SBD,M
Boys,82.1,16,Johan Alcala,PSJA Southwest,79.38,102.06,63.5,115.67,281.23,Single-ply,SBD,M
Boys,82.1,17,Kevin de la Sanchez,PSJA Southwest,75.93,90.72,61.23,111.13,263.08,Single-ply,SBD,M
Boys,89.81,1,Justin Duran,Raymondville,89.36,274.42,176.9,269.89,721.21,Single-ply,SBD,M
Boys,89.81,2,Justin Fuentes,Zapata,88.63,215.46,129.27,204.12,548.85,Single-ply,SBD,M
Boys,89.81,3,Luis Muñoz,Hidalgo Early College,83.46,204.12,133.81,204.12,542.04,Single-ply,SBD,M
Boys,89.81,4,Mathew Galvan,San Benito,83.55,188.24,127.01,199.58,514.83,Single-ply,SBD,M
Boys,89.81,5,John Avevalo,Weslaco East,88.09,190.51,102.06,210.92,503.49,Single-ply,SBD,M
Boys,89.81,6,Larry Banda,Laredo Nixon,88.36,188.24,122.47,179.17,489.88,Single-ply,SBD,M
Boys,89.81,7,Javier Perez,PSJA Memorial,86.36,183.7,115.67,183.7,483.08,Single-ply,SBD,M
Boys,89.81,8,Michael Saldana,Hidalgo Early College,85.55,151.95,106.59,181.44,439.98,Single-ply,SBD,M
Boys,89.81,9,Faustino Saldana,PSJA Southwest,86.45,149.69,86.18,145.15,381.02,Single-ply,SBD,M
Boys,89.81,10,Isai Perez,Rio Grande City Grulla,87,131.54,72.57,115.67,319.78,Single-ply,SBD,M
Boys,89.81,11,Sergio Perez,Rio Grande City Grulla,83.19,102.06,65.77,117.93,285.76,Single-ply,SBD,M
Boys,89.81,DQ,Joey Valdez,Hidalgo Early College,85.82,151.95,,,,Single-ply,SBD,M
Boys,99.79,1,Xaviel Hinojosa,Weslaco East,97.07,285.76,183.7,247.21,716.68,Single-ply,SBD,M
Boys,99.79,2,Robert Castillo,PSJA,98.52,267.62,170.1,269.89,707.6,Single-ply,SBD,M
Boys,99.79,3,Mark Cavazos,Raymondville,94.98,260.82,183.7,224.53,669.05,Single-ply,SBD,M
Boys,99.79,4,Gregory Juarez,Raymondville,99.43,274.42,161.03,224.53,659.98,Single-ply,SBD,M
Boys,99.79,5,William Relko,Mission,98.07,254.01,140.61,204.12,598.74,Single-ply,SBD,M
Boys,99.79,6,Erik Fernandez,Laredo Nixon,99.52,204.12,131.54,201.85,537.51,Single-ply,SBD,M
Boys,99.79,7,Joaquin Guillen,PSJA Memorial,98.43,213.19,111.13,181.44,505.76,Single-ply,SBD,M
Boys,99.79,8,Jaime Huerta,San Benito,98.88,192.78,124.74,185.97,503.49,Single-ply,SBD,M
Boys,99.79,9,Carlos Muñoz,Laredo Nixon,94.17,188.24,90.72,213.19,492.15,Single-ply,SBD,M
Boys,99.79,10,Juan Jasso,Zapata,98.52,195.04,92.99,181.44,469.47,Single-ply,SBD,M
Boys,99.79,DQ,Blake Flores,PSJA Memorial,97.25,179.17,,,,Single-ply,SBD,M
Boys,109.77,1,Sam Salazar,Weslaco East,108.95,258.55,161.03,229.06,648.64,Single-ply,SBD,M
Boys,109.77,2,Christian Garcia,Weslaco East,107.41,247.21,149.69,226.8,623.69,Single-ply,SBD,M
Boys,109.77,3,Apollo Romo,Mercedes,109.5,235.87,133.81,226.8,596.47,Single-ply,SBD,M
Boys,109.77,4,Ruben Rubio,Mercedes,108.05,249.48,142.88,192.78,585.13,Single-ply,SBD,M
Boys,124.74,5,Victor Martinez,Laredo Martin,109.86,240.4,136.08,208.65,585.13,Single-ply,SBD,M
Boys,109.77,6,Raul Hinojosa,Zapata,107.59,231.33,140.61,210.92,582.87,Single-ply,SBD,M
Boys,109.77,7,Jose Rubalcava,Rio Grande City,109.32,233.6,133.81,215.46,582.87,Single-ply,SBD,M
Boys,109.77,8,Julio Rivas,San Benito,100.61,192.78,136.08,222.26,551.11,Single-ply,SBD,M
Boys,109.77,9,Jesus Morales,Weslaco East,101.79,233.6,147.42,170.1,551.11,Single-ply,SBD,M
Boys,109.77,10,Joshua Huerta,San Benito,106.5,229.06,117.93,195.04,542.04,Single-ply,SBD,M
Boys,109.77,11,Joel Sanchez,Rio Grande City,109.32,210.92,122.47,201.85,535.24,Single-ply,SBD,M
Boys,109.77,12,Victor Aguillar,Mercedes,100.52,210.92,124.74,197.31,532.97,Single-ply,SBD,M
Boys,109.77,13,Tony Perez,Raymondville,108.41,204.12,111.13,217.72,532.97,Single-ply,SBD,M
Boys,109.77,14,Shawn Garcia,PSJA,104.6,197.31,129.27,192.78,519.36,Single-ply,SBD,M
Boys,109.77,15,Robbie Garcia,Mercedes,105.96,201.85,124.74,188.24,514.83,Single-ply,SBD,M
Boys,109.77,16,Jorge Gutierrez,Zapata,105.32,181.44,138.35,192.78,512.56,Single-ply,SBD,M
Boys,109.77,17,Frank Villareal,Laredo Martin,107.95,231.33,92.99,181.44,505.76,Single-ply,SBD,M
Boys,109.77,18,Guadalupe Gonzalez,Zapata,107.95,197.31,113.4,192.78,503.49,Single-ply,SBD,M
Boys,109.77,19,Sebastian Garcia,PSJA Memorial,105.05,161.03,129.27,185.97,476.27,Single-ply,SBD,M
Boys,109.77,20,Justin Hernandez,Laredo Nixon,104.69,170.1,88.45,151.95,410.5,Single-ply,SBD,M
Boys,109.77,21,Johnathan Soto,PSJA Southwest,105.14,136.08,90.72,138.35,365.14,Single-ply,SBD,M
Boys,124.74,1,Carlos Cuellar,Weslaco East,121.11,317.51,197.31,256.28,771.11,Single-ply,SBD,M
Boys,124.74+,2,Jason Guerra,Rio Grande City,124.78,290.3,181.44,226.8,698.53,Single-ply,SBD,M
Boys,124.74,3,Mauro Herrera,PSJA,123.1,274.42,127.01,231.33,632.76,Single-ply,SBD,M
Boys,124.74,4,Carl Contreras,Raymondville,114.12,251.74,165.56,201.85,619.15,Single-ply,SBD,M
Boys,124.74,5,Johnny Gomez,Mercedes,123.29,226.8,142.88,210.92,580.6,Single-ply,SBD,M
Boys,124.74,6,Ezequiel Lopez,San Benito,123.65,222.26,122.47,197.31,542.04,Single-ply,SBD,M
Boys,124.74,7,Jaime Cardona,Laredo Nixon,114.94,226.8,102.06,190.51,519.36,Single-ply,SBD,M
Boys,124.74,8,Juan Cantu,Mission,111.67,217.72,108.86,188.24,514.83,Single-ply,SBD,M
Boys,124.74,9,Alfredo Cruz,PSJA Memorial,113.85,213.19,115.67,176.9,505.76,Single-ply,SBD,M
Boys,124.74,10,Francisco Moreno,Laredo Cigarroa,124.01,183.7,83.91,185.97,453.59,Single-ply,SBD,M
Boys,124.74,11,Isaac Escobedo,PSJA Memorial,120.11,151.95,117.93,161.03,430.91,Single-ply,SBD,M
Boys,124.74,12,Gilbert Galvan,PSJA Southwest,110.86,165.56,88.45,174.63,428.64,Single-ply,SBD,M
Boys,124.74,13,Manuel Navarro,Zapata,122.65,163.29,92.99,151.95,408.23,Single-ply,SBD,M
Boys,124.74+,1,Jorge Mendez,Pharr Valley View,133.99,324.32,149.69,238.14,712.14,Single-ply,SBD,M
Boys,124.74+,2,Aaron Gonzalez,Raymondville,137.98,306.17,174.63,222.26,703.07,Single-ply,SBD,M
Boys,124.74+,3,Mark Reyes,Hidalgo Early College,134.17,306.17,161.03,210.92,678.12,Single-ply,SBD,M
Boys,124.74+,4,Mike Benavides,San Benito,154.58,290.3,176.9,210.92,678.12,Single-ply,SBD,M
Boys,124.74+,5,Juan Zuniga,Mission,125.55,240.4,133.81,204.12,578.33,Single-ply,SBD,M
Boys,124.74+,6,Ricardo Zamora,PSJA,132,233.6,111.13,197.31,542.04,Single-ply,SBD,M
Boys,124.74+,7,Danny Young,Mercedes,130.09,204.12,111.13,185.97,501.22,Single-ply,SBD,M
Boys,124.74+,8,Miguel Montalvo,PSJA,144.24,174.63,115.67,156.49,446.79,Single-ply,SBD,M
Boys,124.74+,DQ,Yanez Alexandez,Mission,131.45,,,,,Single-ply,SBD,M
Boys,124.74+,DQ,Frankie Pedraza,Hidalgo Early College,132.63,183.7,,,,Single-ply,SBD,M
