Division,WeightClassKg,Place,Name,Team,BodyweightKg,Best3SquatKg,Best3BenchKg,Best3DeadliftKg,TotalKg,Equipment,Event,Sex
Boys,51.71,1,Germain Casares,Sunray,51.44,124.74,65.77,138.35,328.85,Single-ply,SBD,M
Boys,51.71,2,Nathan Flores,Friona,51.71,124.74,63.5,138.35,326.59,Single-ply,SBD,M
Boys,51.71,3,Brian Tejeda,Perryton,51.35,106.59,63.5,131.54,301.64,Single-ply,SBD,M
Boys,55.79,1,Alex Castellanos,Sunray,55.79,133.81,81.65,149.69,365.14,Single-ply,SBD,M
Boys,55.79,2,Preston Mann,Amarillo Highland Park,55.79,136.08,83.91,142.88,362.87,Single-ply,SBD,M
Boys,55.79,3,Angel Carranza,Friona,54.07,136.08,72.57,138.35,347,Single-ply,SBD,M
Boys,55.79,4,Bo Hernandez,Dimmitt,55.34,83.91,56.7,129.27,269.89,Single-ply,SBD,M
Boys,55.79,5,Emiliano Aguirre,Amarillo Highland Park,55.79,79.38,54.43,113.4,247.21,Single-ply,SBD,M
Boys,55.79,DQ,Aj Bradley,Lefors,52.62,,,,,Single-ply,SBD,M
Boys,59.87,1,Erik Gaspar,Sunray,58.97,131.54,70.31,172.37,374.21,Single-ply,SBD,M
Boys,59.87,2,Ty Gouldy,Vega,58.69,129.27,58.97,127.01,315.25,Single-ply,SBD,M
Boys,59.87,3,Ben Brown,Borger,58.24,113.4,63.5,129.27,306.17,Single-ply,SBD,M
Boys,59.87,4,Hayden Montgomery,Tulia,59.51,127.01,58.97,117.93,303.91,Single-ply,SBD,M
Boys,59.87,5,Johnson Phan,Amarillo Highland Park,55.97,113.4,49.9,138.35,301.64,Single-ply,SBD,M
Boys,67.13,1,Walker Voyles,Vega,66.5,188.24,97.52,197.31,483.08,Single-ply,SBD,M
Boys,67.13,2,Kade Tinsley,Bushland,64.5,167.83,88.45,192.78,449.06,Single-ply,SBD,M
Boys,67.13,3,Stewart Skiles,Vega,64.95,176.9,83.91,172.37,433.18,Single-ply,SBD,M
Boys,67.13,4,Kenny Ramirez,Perryton,66.13,158.76,92.99,170.1,421.84,Single-ply,SBD,M
Boys,67.13,5,Lupe Soltero,Amarillo Highland Park,66.86,149.69,86.18,176.9,412.77,Single-ply,SBD,M
Boys,67.13,6,William Wall,Dimmitt,66.95,136.08,83.91,183.7,403.7,Single-ply,SBD,M
Boys,67.13,7,Robert Perez,Dimmitt,64.41,145.15,77.11,170.1,392.36,Single-ply,SBD,M
Boys,67.13,8,Ivan Fernandez,Tulia,64.59,145.15,70.31,147.42,362.87,Single-ply,SBD,M
Boys,67.13,9,Moses Mejia,Dimmitt,63.5,131.54,90.72,138.35,360.61,Single-ply,SBD,M
Boys,67.13,10,Josmar Mejia,Dimmitt,60.15,129.27,83.91,145.15,358.34,Single-ply,SBD,M
Boys,67.13,11,Fabian Lozano,Farwell,61.23,127.01,77.11,131.54,335.66,Single-ply,SBD,M
Boys,67.13,12,Jose Herrera,Amarillo Highland Park,60.69,111.13,81.65,140.61,333.39,Single-ply,SBD,M
Boys,67.13,13,Bryan Nguyen,Amarillo Highland Park,60.06,106.59,97.52,127.01,331.12,Single-ply,SBD,M
Boys,67.13,14,Gavin Rutherford,Farwell,61.96,111.13,61.23,129.27,301.64,Single-ply,SBD,M
Boys,67.13,15,Michael Prichard,Amarillo Highland Park,63.78,102.06,61.23,127.01,290.3,Single-ply,SBD,M
Boys,74.84,1,Timothy Dettle,Dalhart,73.66,190.51,102.06,197.31,489.88,Single-ply,SBD,M
Boys,74.84,2,Roger Palacios,Friona,73.3,197.31,102.06,181.44,480.81,Single-ply,SBD,M
Boys,74.84,3,Josh Prather,Panhandle,74.21,199.58,97.52,170.1,467.2,Single-ply,SBD,M
Boys,74.84,4,Carter Neil,Panhandle,69.58,167.83,97.52,181.44,446.79,Single-ply,SBD,M
Boys,74.84,5,Cristian González,Vega,70.22,192.78,88.45,165.56,446.79,Single-ply,SBD,M
Boys,74.84,6,Kathan Valenzuela,Tulia,74.3,170.1,79.38,183.7,433.18,Single-ply,SBD,M
Boys,74.84,7,Paul Ortiz,Sunray,73.39,147.42,70.31,190.51,408.23,Single-ply,SBD,M
Boys,74.84,8,Adryan Rodriguez,Amarillo Highland Park,74.03,142.88,72.57,170.1,385.55,Single-ply,SBD,M
Boys,74.84,9,Luke Unterkircher,Tulia,73.48,147.42,72.57,156.49,376.48,Single-ply,SBD,M
Boys,74.84,10,Tommy Espino,Sunray,68.95,127.01,79.38,158.76,365.14,Single-ply,SBD,M
Boys,74.84,11,Damion Serna,Amarillo Highland Park,71.76,136.08,61.23,158.76,356.07,Single-ply,SBD,M
Boys,74.84,12,Gus Shirley,Sunray,74.12,115.67,63.5,133.81,312.98,Single-ply,SBD,M
Boys,74.84,13,Donavan Cardenas,Amarillo Highland Park,67.86,111.13,74.84,120.2,306.17,Single-ply,SBD,M
Boys,82.1,1,Edgar Olvera,Dalhart,81.1,226.8,131.54,197.31,555.65,Single-ply,SBD,M
Boys,82.1,2,Carson Freimuth,Lubbock,82.01,181.44,113.4,204.12,498.95,Single-ply,SBD,M
Boys,82.1,3,Alex Clements,Borger,77.47,149.69,90.72,204.12,444.52,Single-ply,SBD,M
Boys,82.1,4,Jax Ferrel,Memphis,75.3,156.49,97.52,188.24,442.25,Single-ply,SBD,M
Boys,82.1,5,Matt Anders,Amarillo Highland Park,81.74,142.88,92.99,183.7,419.57,Single-ply,SBD,M
Boys,82.1,6,Noah Aebischer-Like,Amarillo Highland Park,78.93,136.08,92.99,158.76,387.82,Single-ply,SBD,M
Boys,82.1,7,Dawson Taylor,Lefors,75.75,117.93,63.5,138.35,319.78,Single-ply,SBD,M
Boys,82.1,8,Landon Lasley,Borger,82.01,90.72,49.9,108.86,249.48,Single-ply,SBD,M
Boys,82.1,DQ,Blaisen Flowers,Amarillo Highland Park,78.79,,,,,Single-ply,SBD,M
Boys,89.81,1,Braxton Juardo,Shallowater,87.45,208.65,122.47,204.12,535.24,Single-ply,SBD,M
Boys,89.81,2,Jonathan Hernandez,Friona,89.72,195.04,124.74,201.85,521.63,Single-ply,SBD,M
Boys,89.81,3,Preston Love,Bushland,89.09,204.12,113.4,195.04,512.56,Single-ply,SBD,M
Boys,89.81,4,Cameron Enriquez,Dimmitt,83.82,197.31,111.13,197.31,505.76,Single-ply,SBD,M
Boys,89.81,5,Ryan Eller,Shallowater,85.82,167.83,102.06,183.7,453.59,Single-ply,SBD,M
Boys,89.81,6,Corbin McDowell,Tulia,85.46,158.76,81.65,176.9,417.3,Single-ply,SBD,M
Boys,99.79,1,Frey Diaz,Sunray,93.53,201.85,127.01,204.12,532.97,Single-ply,SBD,M
Boys,99.79,2,Savion Cortez,Lubbock,95.89,199.58,113.4,213.19,526.17,Single-ply,SBD,M
Boys,99.79,3,Jeremiah Vasquez,Lubbock,96.71,204.12,117.93,204.12,526.17,Single-ply,SBD,M
Boys,99.79,4,Michael Adamson,Lefors,98.43,213.19,95.25,185.97,494.42,Single-ply,SBD,M
Boys,99.79,5,Wyatt Packebush,Sunray,95.71,188.24,92.99,199.58,480.81,Single-ply,SBD,M
Boys,99.79,6,Armando Trujillo,Vega,94.44,183.7,97.52,174.63,455.86,Single-ply,SBD,M
Boys,99.79,7,Ricky Judy,Amarillo Highland Park,95.44,176.9,102.06,176.9,455.86,Single-ply,SBD,M
Boys,99.79,8,Malachi Christiansen,Shallowater,93.53,181.44,102.06,158.76,442.25,Single-ply,SBD,M
Boys,99.79,9,Cade Hood,Vega,95.16,183.7,95.25,154.22,433.18,Single-ply,SBD,M
Boys,99.79,10,Jon Peevey,Lefors,96.52,156.49,77.11,174.63,408.23,Single-ply,SBD,M
Boys,109.77,1,Elias Aguirre,Muleshoe,107.68,231.33,138.35,208.65,578.33,Single-ply,SBD,M
Boys,109.77,2,Bo Christie,Canyon,109.5,208.65,133.81,226.8,569.26,Single-ply,SBD,M
Boys,109.77,3,Shane Whitworth,Canyon,99.88,219.99,129.27,217.72,566.99,Single-ply,SBD,M
Boys,109.77,4,Andrew Rodriguez,Bushland,101.06,215.46,131.54,208.65,555.65,Single-ply,SBD,M
Boys,109.77,5,Jason Champlin,Amarillo Highland Park,104.6,204.12,115.67,226.8,546.58,Single-ply,SBD,M
Boys,109.77,6,Elijah Olivo,Shallowater,104.42,195.04,106.59,197.31,498.95,Single-ply,SBD,M
Boys,109.77,7,Bobby Villegas,Tulia,107.95,213.19,90.72,183.7,487.61,Single-ply,SBD,M
Boys,109.77,8,Gerardo Gonzalez,Dimmitt,101.24,158.76,83.91,204.12,446.79,Single-ply,SBD,M
Boys,109.77,9,Chris Cantu,Memphis,106.14,145.15,77.11,176.9,399.16,Single-ply,SBD,M
Boys,109.77,10,Isaac Zamora,Memphis,102.6,151.95,74.84,170.1,396.89,Single-ply,SBD,M
Boys,124.74,1,Aaron Longoria,Quanah,118.57,242.67,142.88,217.72,603.28,Single-ply,SBD,M
Boys,124.74,2,Jaziel Rivera,Borger,110.22,242.67,149.69,190.51,582.87,Single-ply,SBD,M
Boys,124.74,3,Eddie-Ray Ortega,Sunray,124.01,192.78,104.33,210.92,508.02,Single-ply,SBD,M
Boys,124.74,4,Bryan Polina,Sunray,124.28,188.24,92.99,183.7,464.93,Single-ply,SBD,M
Boys,124.74+,1,Jaden Massey,Dalhart,157.4,326.59,206.38,240.4,773.37,Single-ply,SBD,M
Boys,124.74+,2,Jacen Rodriguez,Lubbock,128.46,204.12,122.47,215.46,542.04,Single-ply,SBD,M
Boys,124.74+,3,Andy Pena,Perryton,134.17,201.85,145.15,190.51,537.51,Single-ply,SBD,M
Boys,124.74+,4,Jerik Reed,Tulia,127.55,204.12,108.86,201.85,514.83,Single-ply,SBD,M
