Place,Name,BirthYear,Team,Sex,Event,Equipment,BodyweightKg,WeightClassKg,Division,Squat1Kg,Squat2Kg,Squat3Kg,Best3SquatKg,Bench1Kg,Bench2Kg,Bench3Kg,Best3BenchKg,Deadlift1Kg,Deadlift2Kg,Deadlift3Kg,Best3DeadliftKg,TotalKg
1,Mijuane de Wet,2006,G,F,SBD,Raw,45.3,47,Sub-Juniors,60,70,75,75,27.5,32.5,-35,32.5,65,80,91.5,91.5,199
2,Patricia Harding,2000,EP,F,SBD,Raw,45.5,47,Sub-Juniors,47.5,52.5,-55,52.5,30,32.5,35,35,85,91,92,92,179.5
1,Rochelle de Beer,1999,EP,F,SBD,Raw,55.95,57,Sub-Juniors,70,77.5,82.5,82.5,37.5,42.5,47.5,47.5,100,107.5,112.5,112.5,242.5
2,Cayla Colling,2000,EP,F,SBD,Raw,54.25,57,Sub-Juniors,55,62.5,67.5,67.5,30,35,37.5,37.5,90,95,102.5,102.5,207.5
1,Caitlin Poxon,2000,G,F,SBD,Raw,61.65,63,Sub-Juniors,100,-107.5,-107.5,100,45,50,52.5,52.5,117.5,122.5,-127.5,122.5,275
2,Aneyke Vrettos,2000,G,F,SBD,Raw,61.45,63,Sub-Juniors,65,75,85,85,35,40,47.5,47.5,70,80,-90,80,212.5
1,Nicole Ferreira,,EP,F,SBD,Raw,69.2,72,Sub-Juniors,102.5,107.5,113,113,52.5,-57.5,57.5,57.5,135,-145,145,145,315.5
2,Merchant Burger,2000,FS,F,SBD,Raw,69.75,72,Sub-Juniors,80,92.5,100,100,42.5,-50,-50,42.5,100,112.5,122.5,122.5,265
3,Ciara Morley,2000,G,F,SBD,Raw,70.25,72,Sub-Juniors,80,90,100,100,40,45,47.5,47.5,100,110,-122.5,110,257.5
1,Jelhandri Rautenbach,,FS,F,SBD,Raw,75.75,84,Sub-Juniors,95,105,115,115,52.5,60,70.5,70.5,125,140,150,150,335.5
1,Megan Rogers,1999,G,F,SBD,Raw,99.8,84+,Sub-Juniors,90,100,107.5,107.5,47.5,52.5,-55,52.5,105,120,-125,120,280
1,Rouchelle Roux,1997,G,F,SBD,Raw,51.85,52,Juniors,97.5,-102.5,102.5,102.5,47.5,52.5,54.5,54.5,100,-115,-128,100,257
2,Genevieve Vrettas,1994,G,F,SBD,Raw,49.15,52,Juniors,70,77.5,82.5,82.5,37.5,42.5,47.5,47.5,85,95,-102.5,95,225
1,Megan Leighton,1996,G,F,SBD,Raw,57,57,Juniors,115,123,-128,123,65,67.5,70.5,70.5,137.5,-148,-148,137.5,331
2,Michelle van Rensburg,1998,G,F,SBD,Raw,53.95,57,Juniors,50,60,-70,60,30,35,-37.5,35,75,80,85,85,180
1,Sasha Payne,1995,G,F,SBD,Raw,58.9,63,Juniors,97.5,105,-110,105,57.5,62.5,-65.5,62.5,125,135.5,140,140,307.5
2,Dina Power,1994,G,F,SBD,Raw,62.95,63,Juniors,100,-107.5,-107.5,100,50,-55,-55,50,115,130,137.5,137.5,287.5
3,Caitlin Poxon,2000,G,F,SBD,Raw,61.65,63,Juniors,100,-107.5,-107.5,100,45,50,52.5,52.5,117.5,122.5,-127.5,122.5,275
4,Samantha Harding,1998,EP,F,SBD,Raw,59.95,63,Juniors,55,62.5,67.5,67.5,35,37.5,40,40,100,112.5,117.5,117.5,225
1,Bronwyn Marshall,1998,EP,F,SBD,Raw,70.1,72,Juniors,92.5,97.5,100,100,40,47.5,-50,47.5,105,115,117.5,117.5,265
2,Chelsea Fleetwood,1996,G,F,SBD,Raw,70.4,72,Juniors,62.5,70,80,80,40,-47.5,-52.5,40,100,-110,110,110,230
1,Lezaan Jordaan,1995,G,F,SBD,Raw,82.95,84,Juniors,-135,140,150,150,70,75,-77.5,75,150,175,-182.5,175,400
1,Kay-Lee Steyn,1994,NW,F,SBD,Raw,102.35,84+,Juniors,120,130,132.5,132.5,40,45,50,50,120,140,145,145,327.5
2,Taskin Quagliani,1997,G,F,SBD,Raw,90.35,84+,Juniors,100,-110,-115,100,60,62.5,-65,62.5,100,120,130,130,292.5
3,Megan Rogers,1999,G,F,SBD,Raw,99.8,84+,Juniors,90,100,107.5,107.5,47.5,52.5,-55,52.5,105,120,-125,120,280
1,Mariska Casey,1978,G,F,SBD,Raw,46.75,47,Open,87.5,-93,-93,87.5,56,58,60,60,122.5,127.5,-132.5,127.5,275
2,Kirsten Enslin,1979,KZN,F,SBD,Raw,47,47,Open,90,92.5,93.5,93.5,55,59,60.5,60.5,115,120,-122.5,120,274
1,Nicole Warburg,1984,G,F,SBD,Raw,51.35,52,Open,115,120,125,125,72.5,77.5,-80,77.5,135,142.5,145,145,347.5
2,Jeanri Bezuidenhout,1992,G,F,SBD,Raw,51.9,52,Open,127.5,133,-136,133,60,65,-67.5,65,132.5,-137.5,,132.5,330.5
3,Gabriella de Gouveia,1990,G,F,SBD,Raw,52,52,Open,115,-120,-120,115,50,52.5,55,55,130,137.5,-140,137.5,307.5
4,Giulia Muto,1987,G,F,SBD,Raw,50.35,52,Open,110,117.5,-120,117.5,60,65,67.5,67.5,115,-120,,115,300
5,Susan Parker,1970,G,F,SBD,Raw,51.9,52,Open,60,70,,70,50,55,-60,55,105,-115,-115,105,230
1,Antoinette Kriel,1971,G,F,SBD,Raw,56.8,57,Open,110,117.5,122.5,122.5,87.5,92.5,95.5,95.5,145,155,165.5,165.5,383.5
2,Megan Leighton,1996,G,F,SBD,Raw,57,57,Open,115,123,-128,123,65,67.5,70.5,70.5,137.5,-148,-148,137.5,331
3,Toni Coetzee,1984,G,F,SBD,Raw,56.45,57,Open,110,112.5,115,115,55,60,62.5,62.5,130,137.5,142.5,142.5,320
4,Lauren Katz,1982,G,F,SBD,Raw,54.55,57,Open,90,100,-105,100,60,65,,65,115,125,-135,125,290
5,Allison Mlitwa,1981,WP,F,SBD,Raw,54.2,57,Open,-80,80,-90,80,52.5,57.5,-60,57.5,120,130,140,140,277.5
6,Jennifer Moodie,1990,G,F,SBD,Raw,55.7,57,Open,90,95,-100,95,40,45,47.5,47.5,110,117.5,122.5,122.5,265
7,Caroline Wolf,1979,G,F,SBD,Raw,56.55,57,Open,90,97.5,-102.5,97.5,30,40,47.5,47.5,105,115,117.5,117.5,262.5
8,Zanalee Davies,1986,G,F,SBD,Raw,55.3,57,Open,80,85,-87.5,85,42.5,47.5,50,50,100,110,-120,110,245
1,Vicki Botha,1973,NW,F,SBD,Raw,61.15,63,Open,115,122.5,127.5,127.5,65,75,-77.5,75,150,160,165.5,165.5,368
2,Lisa Basson,1984,G,F,SBD,Raw,61.85,63,Open,115,120,-125,120,75.5,-80.5,-80.5,75.5,135,147.5,157.5,157.5,353
3,Laura Newman,1983,G,F,SBD,Raw,61.65,63,Open,122.5,127.5,-132.5,127.5,57.5,62.5,65,65,150,-160,-160,150,342.5
4,Ilona Wilson,1977,G,F,SBD,Raw,60.05,63,Open,115,117.5,120,120,50,52.5,-55,52.5,132.5,137.5,-142.5,137.5,310
5,Tanya van Lill,1979,G,F,SBD,Raw,61.05,63,Open,-115,115,117.5,117.5,55,-60,-60,55,127.5,132.5,-135,132.5,305
6,Lara Taylor,1988,G,F,SBD,Raw,62.55,63,Open,90,95,-100,95,45,50,55,55,135,-145,145,145,295
7,Debbie McAlpine,1976,G,F,SBD,Raw,62.55,63,Open,115,117.5,120,120,52.5,-55,-55,52.5,120,-125,-125,120,292.5
8,Dina Power,1994,G,F,SBD,Raw,62.95,63,Open,100,-107.5,-107.5,100,50,-55,-55,50,115,130,137.5,137.5,287.5
9,Michelle De Jong,1981,G,F,SBD,Raw,62.9,63,Open,90,97.5,102.5,102.5,60,65,-70,65,105,117.5,-122.5,117.5,285
10,Tracy Bath,1988,G,F,SBD,Raw,62.55,63,Open,97.5,105,-110,105,50,55,-60,55,115,120,-122.5,120,280
11,Ceri Power,1986,G,F,SBD,Raw,62.25,63,Open,95,100,-107.5,100,50,55,-57.5,55,100,117.5,-122.5,117.5,272.5
12,Jessica Britz,1989,G,F,SBD,Raw,62.05,63,Open,75,85,-97.5,85,37.5,42.5,47.5,47.5,110,120,-130,120,252.5
13,Melissa Zwart,1993,NW,F,SBD,Raw,60.05,63,Open,75,80,85,85,35,42.5,45,45,85,95,100,100,230
14,Estè Coertzen,1986,NW,F,SBD,Raw,57.9,63,Open,70,75,77.5,77.5,35,42.5,-45,42.5,90,100,-107.5,100,220
1,Ilze-Mari Maritz,1988,EP,F,B,Raw,60,63,Open,,,,,90,100,107.5,107.5,,,,,107.5
1,Laura de Beer,1977,G,F,SBD,Raw,71.85,72,Open,140,145,-149,145,70,75,-75.5,75,160,170,180.5,180.5,400.5
2,Candice Coetzer,1985,G,F,SBD,Raw,70.3,72,Open,120,127.5,132.5,132.5,70,75,77.5,77.5,157.5,165,-170,165,375
3,Chantelle Du Toit,1985,G,F,SBD,Raw,70.55,72,Open,115,122.5,-127.5,122.5,80.5,85.5,-88,85.5,150,160,-167.5,160,368
4,Mahlako Mahapa,1982,G,F,SBD,Raw,71.2,72,Open,112.5,117.5,122.5,122.5,52.5,-57.5,-57.5,52.5,145,155,-162.5,155,330
5,Angelique van der Westhuizen,1982,G,F,SBD,Raw,71.75,72,Open,90,95,-100,95,50,-57.5,-57.5,50,122.5,135,142.5,142.5,287.5
6,Shana Power,1992,G,F,SBD,Raw,70.1,72,Open,90,100,105,105,50,-55,-55,50,110,-120,120,120,275
1,Sandri van Staden,1988,G,F,SBD,Raw,80.8,84,Open,150,160,165,165,77.5,85,87.5,87.5,170,180,-185,180,432.5
2,Caileigh Dade,1989,G,F,SBD,Raw,82.4,84,Open,150,160,165,165,72.5,77.5,-82.5,77.5,160,180,-192.5,180,422.5
3,Lezaan Jordaan,1995,G,F,SBD,Raw,82.95,84,Open,-135,140,150,150,70,75,-77.5,75,150,175,-182.5,175,400
4,Tia McDougall,1984,G,F,SBD,Raw,77.1,84,Open,110,117.5,125,125,70,75,77.5,77.5,120,,,120,322.5
5,Christolene Tomboer,1985,WP,F,SBD,Raw,74.95,84,Open,90,100,115,115,50,55,60,60,130,140,-150,140,315
6,Kelli Hart,1984,KZN,F,SBD,Raw,83.65,84,Open,100,107.5,115,115,47.5,52.5,57.5,57.5,120,130,140,140,312.5
7,Marlize Adonis,1983,WP,F,SBD,Raw,79.45,84,Open,-100,100,-115,100,50,-60,60,60,130,-140,140,140,300
8,Rebecca Taylor,1990,KZN,F,SBD,Raw,80.95,84,Open,95,105,-110,105,52.5,55,57.5,57.5,125,135,-137.5,135,297.5
1,Lauren Norton,1989,G,F,SBD,Raw,106.85,84+,Open,140,145,150,150,85,90,95,95,170,180,-187.5,180,425
2,SJ Heany,1983,WP,F,SBD,Raw,90.15,84+,Open,130,140,-145,140,70,72.5,75,75,150,160,162.5,162.5,377.5
3,Jacqui Rees,1980,G,F,SBD,Raw,94.45,84+,Open,135,-142.5,142.5,142.5,57.5,62.5,-65,62.5,155,165,-175,165,370
4,Christie De Jager,1986,G,F,SBD,Raw,90.65,84+,Open,105,115,-122.5,115,82.5,85,-92.5,85,130,150,-165,150,350
5,Roelien Watson,1985,G,F,SBD,Raw,91.95,84+,Open,110,120,-130,120,70,75,-80,75,140,150,-160,150,345
6,Megan Brook-Sofianos,1992,G,F,SBD,Raw,101.65,84+,Open,120,130,140,140,60,67.5,72.5,72.5,130,-140,-145,130,342.5
1,Elisabeth Barry,1973,EP,F,SBD,Raw,46.6,47,Masters 1,70,77.5,80,80,32.5,35,37.5,37.5,100,107.5,112.5,112.5,230
1,Susan Parker,1970,G,F,SBD,Raw,51.9,52,Masters 1,60,70,,70,50,55,-60,55,105,-115,-115,105,230
1,Antoinette Kriel,1971,G,F,SBD,Raw,56.8,57,Masters 1,110,117.5,122.5,122.5,87.5,92.5,95.5,95.5,145,155,165.5,165.5,383.5
2,Carm Nadal,1975,G,F,SBD,Raw,56.9,57,Masters 1,70,75,82.5,82.5,45,-50,-50,45,72.5,85,95,95,222.5
3,Louise van Linge,1972,G,F,SBD,Raw,56.65,57,Masters 1,70,-80,-80,70,35,-40,40,40,100,110,-115,110,220
1,Vicki Botha,1973,NW,F,SBD,Raw,61.15,63,Masters 1,115,122.5,127.5,127.5,65,75,-77.5,75,150,160,165.5,165.5,368
2,Ilona Wilson,1977,G,F,SBD,Raw,60.05,63,Masters 1,115,117.5,120,120,50,52.5,-55,52.5,132.5,137.5,-142.5,137.5,310
3,Debbie McAlpine,1976,G,F,SBD,Raw,62.55,63,Masters 1,115,117.5,120,120,52.5,-55,-55,52.5,120,-125,-125,120,292.5
4,Ronel Reyneke,1969,G,F,SBD,Raw,61.25,63,Masters 1,107.5,-115,-115,107.5,57.5,62.5,-65,62.5,115,-130,-130,115,285
1,Laura de Wet,1977,G,F,SBD,Raw,71.85,72,Masters 1,140,145,-149,145,70,75,-75.5,75,160,170,180.5,180.5,400.5
2,Michelle Hamman,1976,WP,F,SBD,Raw,67.7,72,Masters 1,90,95,-102.5,95,45,47.5,50,50,120,-130,130,130,275
3,Gaenor Cripps,1976,G,F,SBD,Raw,67.6,72,Masters 1,85,-90,-90,85,45,47.5,-50,47.5,-115,115,132.5,132.5,265
4,Gail Mathewson,1969,G,F,SBD,Raw,69.95,72,Masters 1,70,-80,80,80,50,55,57.5,57.5,110,117.5,125,125,262.5
5,Claire Pacariz,1977,G,F,SBD,Raw,64.65,72,Masters 1,90,100,-107.5,100,40,45,50,50,100,107.5,110,110,260
1,Fenton Deborah,1974,G,F,SBD,Raw,83.6,84,Masters 1,105,110,-112.5,110,55,60,-65,60,140,150,-157.5,150,320
2,Marion Tanzer,1968,G,F,SBD,Raw,81.4,84,Masters 1,90,97.5,-105,97.5,50,-55,-55,50,125,135,145,145,292.5
3,Jodi Poxon,1975,G,F,SBD,Raw,80.75,84,Masters 1,95,102.5,107.5,107.5,50,-57.5,-57.5,50,115,-120,-120,115,272.5
1,Jennifer Ramsay,1962,G,F,SBD,Raw,60.25,63,Masters 2,65,72.5,80,80,32.5,37.5,-42.5,37.5,95,102.5,-110,102.5,220
1,Janita Kruger,1967,G,F,SBD,Raw,70.25,72,Masters 2,85,90,92.5,92.5,45,50,-55,50,115,125.5,-130.5,125.5,268
2,Candice Firmani,1967,G,F,SBD,Raw,66.05,72,Masters 2,90,95,100,100,50,57.5,-60,57.5,95,110,-120,110,267.5
3,Linda Rubin,1964,G,F,SBD,Raw,71.2,72,Masters 2,50,55,60,60,37.5,40,-42.5,40,77.5,87.5,92.5,92.5,192.5
1,Bridgette Quagliani,1967,G,F,SBD,Raw,82.85,84,Masters 2,-65,70,-80,70,50,55,-60,55,80,100,-112.5,100,225
1,Susan Farrell,1951,G,F,SBD,Raw,57.75,63,Masters 3,72.5,77.5,-80,77.5,40,42.5,45,45,105,110,115,115,237.5
1,Chaka Dalfie,1999,NW,M,SBD,Raw,51.8,53,Sub-Juniors,90,95,100,100,50,55,65,65,135,140,155,155,320
2,Ronaldo Phillips,1999,NW,M,SBD,Raw,53,53,Sub-Juniors,95,-100,-100,95,60,65,70,70,120,-125,-125,120,285
3,Sinovuyo Lindi,2000,EP,M,SBD,Raw,49.2,53,Sub-Juniors,80,87.5,92.5,92.5,60,65,-70,65,110,120,-132.5,120,277.5
1,Janalon Damarah,1999,NW,M,SBD,Raw,58.95,59,Sub-Juniors,130,-135,-135,130,60,65,75,75,160,165,170,170,375
1,Mpho Hlanyane,2000,NW,M,SBD,Raw,64.05,66,Sub-Juniors,-120,-120,120,120,97.5,100,105,105,170,185,-195,185,410
2,Paseka Ntoagae,1999,NW,M,SBD,Raw,59.2,66,Sub-Juniors,100,110,115,115,80,85,-90,85,-175,175,-180,175,375
3,Daniel Lotter,2000,EP,M,SBD,Raw,62.8,66,Sub-Juniors,105,112.5,115,115,75,77.5,-80,77.5,145,152.5,-155,152.5,345
4,Brian Mashile,2000,G,M,SBD,Raw,63.75,66,Sub-Juniors,120,130,-135,130,70,80,-85,80,120,135,-145,135,345
1,Azeem Moerat,1999,WP,M,SBD,Raw,71,74,Sub-Juniors,140,150,-155,150,80,90,-95,90,140,150,155,155,395
1,Joaquim de Jenga,1999,G,M,SBD,Raw,79.5,83,Sub-Juniors,183,190,200,200,125.5,132.5,140,140,225,240.5,252.5,252.5,592.5
2,Mohammed Fareed Isaacs,1999,WP,M,SBD,Raw,81,83,Sub-Juniors,185,192.5,-200,192.5,125,-130,130,130,190,200,212.5,212.5,535
1,Josh Kiggens,1999,WP,M,SBD,Raw,91.45,93,Sub-Juniors,210,227.5,230,230,130,140,142.5,142.5,230,252.5,262.5,262.5,635
2,Thomas Frederick Klopper,1999,FS,M,SBD,Raw,87,93,Sub-Juniors,130,145,152.5,152.5,80,90,-100,90,175,190,200,200,442.5
3,Jaydin Lensing,1999,WP,M,SBD,Raw,92.15,93,Sub-Juniors,130,140,-150,140,85,-95,-100,85,185,-200,200,200,425
4,Keno De Jesus,2003,G,M,SBD,Raw,87.2,93,Sub-Juniors,45,55,65,65,40,47.5,50,50,75,90,100,100,215
1,Lukha De Jesus,1999,G,M,SBD,Raw,103.75,105,Sub-Juniors,155,-162.5,162.5,162.5,70,-77.5,77.5,77.5,150,162.5,-170,162.5,402.5
DQ,Jandre Britz,1999,WP,M,SBD,Raw,97.55,105,Sub-Juniors,205,210,220.5,220.5,-133,-133,-133,,-225,,,,
1,Masunyane Bokang,1994,G,M,SBD,Raw,58.25,59,Juniors,130,145,155,155,70,-77.5,-77.5,70,140,170,-190,170,395
2,Damon Langeveld,1998,NW,M,SBD,Raw,53.2,59,Juniors,140,-145,-145,140,75,-80,-80,75,150,-160,160,160,375
3,Aubrey Pietersen,1995,NW,M,SBD,Raw,55.65,59,Juniors,90,100,-105,100,90,95,100,100,110,135,-140,135,335
1,Marcel Vorster,1994,G,M,SBD,Raw,64.3,66,Juniors,170,180,185,185,110,117.5,122.5,122.5,170,180,-190,180,487.5
2,Ruben van der Linde,1998,G,M,SBD,Raw,65.65,66,Juniors,160,170.5,180.5,180.5,95,100,-102.5,100,190,-200,-207.5,190,470.5
3,Arno van Niekerk,1996,G,M,SBD,Raw,64.7,66,Juniors,140,147.5,155,155,87.5,95,-100,95,185,195,205,205,455
1,Orbert Booysen,1998,NW,M,SBD,Raw,72.2,74,Juniors,140,150,-165,150,105,110,112.5,112.5,160,170,180,180,442.5
2,Charles-Lee Fourie,1994,G,M,SBD,Raw,72.9,74,Juniors,130,135,-140,135,75,80,-82.5,80,187.5,195,-200,195,410
DQ,Willis Pietersen Sint,1995,NW,M,SBD,Raw,73.55,74,Juniors,180,-190,-200,180,-115,-115,,,,,,,
1,Abdul-Karnem Davids,1994,WP,M,SBD,Raw,80.55,83,Juniors,210,220,225,225,150,155,160,160,220,230,-235,230,615
2,Umar Pregnolato,1994,WP,M,SBD,Raw,75.5,83,Juniors,190,200,-210,200,140,150,155,155,225,-235,-235,225,580
3,Jaydee Williams,1997,NW,M,SBD,Raw,79.65,83,Juniors,175,185,-195,185,102.5,115,-117.5,115,190,205,210,210,510
4,Lebogang Gumede,1996,G,M,SBD,Raw,78,83,Juniors,145,155,-160,155,60,70,-80,70,195,215,-225,215,440
5,Matthew Wilkinson,1994,G,M,SBD,Raw,82.2,83,Juniors,130,-137.5,137.5,137.5,80,90,100,100,160,180,190,190,427.5
1,Spencer Hammond,1998,WP,M,SBD,Raw,87.9,93,Juniors,185,200,210,210,130,135,140,140,240,250,-257.5,250,600
2,Eugene Scheepers,1995,WP,M,SBD,Raw,89.1,93,Juniors,195,205,220,220,130,137.5,140,140,222.5,235,240,240,600
3,Una Mudlalo,1994,G,M,SBD,Raw,89.85,93,Juniors,180,195,200,200,110,115,125,125,240,270,-280,270,595
4,Adrian Smith,1995,G,M,SBD,Raw,91.95,93,Juniors,190,200,-205,200,150,-157.5,157.5,157.5,220,235,-245,235,592.5
1,Rinus Bezuidenhout,1995,NW,M,SBD,Raw,103.95,105,Juniors,257.5,270,,270,130,140,-145,140,290,-303,-303,290,700
2,Terence Bosman,1996,G,M,SBD,Raw,103.6,105,Juniors,220,-230,-230,220,135,142.5,147.5,147.5,270,290,-305,290,657.5
3,Zander Worst,1995,G,M,SBD,Raw,101.25,105,Juniors,180,-200,200,200,140,147.5,150,150,220,250,-260,250,600
1,Marcelle Els,1998,NW,M,SBD,Raw,119.9,120,Juniors,-230,230,240,240,140,155,165,165,260,280,-290,280,685
2,Grant Flanagan,1994,WP,M,SBD,Raw,105.6,120,Juniors,160,165,170,170,105,-110,112.5,112.5,220,-237.5,-237.5,220,502.5
1,Jerome Korf,1996,WP,M,SBD,Raw,129.25,120+,Juniors,275,,,275,190,-195,,190,305,-312,,305,770
2,Johnde Victor,1998,FS,M,SBD,Raw,140.15,120+,Juniors,200,215,225,225,120,140,-150,140,225,240,-255,240,605
1,Imdadullah Adam,1989,FS,M,SBD,Raw,54.3,59,Open,120,137.5,140,140,-70,70,80,80,155,-170,-170,155,375
1,Nicholas Lazarides,1992,G,M,SBD,Raw,65.85,66,Open,150,160,165,165,112.5,-117.5,-117.5,112.5,200,210,217.5,217.5,495
2,Jason Eliason,1991,G,M,SBD,Raw,65.45,66,Open,140,150,157.5,157.5,90,100,105,105,170,180,185,185,447.5
3,Ishtiyaaq Martin,1992,NW,M,SBD,Raw,61.85,66,Open,135,140,150,150,80,85,-90,85,175,185,200,200,435
4,Peter Jafta,1993,NW,M,SBD,Raw,65.55,66,Open,100,120,130,130,90,100,110,110,120,170,190,190,430
1,Andrew Ramsay,1988,G,M,SBD,Raw,73.25,74,Open,200,215,-220.5,215,130,137.5,-142.5,137.5,240,-255,-255,240,592.5
2,Jason Stolzenberg,1993,G,M,SBD,Raw,73.5,74,Open,190,200,205,205,120,125,127.5,127.5,225,232.5,237.5,237.5,570
3,Tumelo Ramaisa,1987,NW,M,SBD,Raw,72.9,74,Open,175,-185,190,190,117.5,120,-127.5,120,230,240,-242.5,240,550
4,Jonathan Kariv,1983,G,M,SBD,Raw,73.65,74,Open,190,197.5,-202.5,197.5,125,135,140,140,210,-220,-222.5,210,547.5
5,Dylan Van Houten,1988,G,M,SBD,Raw,73.9,74,Open,190,200,-207.5,200,110,-115,,110,210,227.5,-240,227.5,537.5
6,Sashen Moodley,1993,G,M,SBD,Raw,72.7,74,Open,145,-155,-165,145,105,115,117.5,117.5,200,215,-230,215,477.5
7,Richard Quan,1985,G,M,SBD,Raw,73.35,74,Open,-135,-145,155,155,80,90,100,100,160,180,-200,180,435
8,Sibulele Ntlokwana,1993,EP,M,SBD,Raw,70.75,74,Open,110,117.5,122.5,122.5,100,-107.5,107.5,107.5,155,170,180,180,410
9,Thabo Mzinganye,1985,NW,M,SBD,Raw,72.9,74,Open,-120,130,-140,130,80,90,100,100,140,150,160,160,390
DQ,Chili Philani,1984,KZN,M,SBD,Raw,72,74,Open,170,-180,-180,170,-140,-140,-140,,180,205,220,220,
1,Jonathan Baptista,1988,G,M,SBD,Raw,82,83,Open,215,222.5,227.5,227.5,145,152.5,160,160,245,257.5,-262.5,257.5,645
2,Gian Smit,1990,G,M,SBD,Raw,82.15,83,Open,210,217.5,222.5,222.5,142.5,-147.5,-147.5,142.5,240,260,-282.5,260,625
3,Archie Ayekpa,1985,G,M,SBD,Raw,80.4,83,Open,175,-190,195,195,130,140,-145,140,210,220,230,230,565
4,Pierre Mynhardt,1991,G,M,SBD,Raw,81.3,83,Open,190,200,-210,200,110,117.5,-122.5,117.5,-230,247.5,-252.5,247.5,565
5,Raymond Norman,1986,G,M,SBD,Raw,77.2,83,Open,160,170,177.5,177.5,120,130,132.5,132.5,195,205,-212.5,205,515
6,Tebogo Mokoena,1979,NW,M,SBD,Raw,76.15,83,Open,125,135,155,155,120,130,140,140,160,190,210,210,505
7,Wayne Laubscher,1981,G,M,SBD,Raw,81.65,83,Open,162.5,-167.5,167.5,167.5,97.5,102.5,-107.5,102.5,195,212.5,227.5,227.5,497.5
8,Howard Snoyman,1982,G,M,SBD,Raw,81.2,83,Open,145,160,-165,160,117.5,122.5,-125,122.5,205,-225,-225,205,487.5
DQ,Wonga Jola,1992,EP,M,SBD,Raw,76.75,83,Open,-200,-200,-200,,120,130,-140,130,210,225,-247.5,225,
1,Jason Nisbet,1990,WP,M,SBD,Raw,92.8,93,Open,215,225,-235,225,130,142.5,147.5,147.5,275,295,-300,295,667.5
2,Adrian Smith,1995,G,M,SBD,Raw,91.95,93,Open,190,200,-205,200,150,-157.5,157.5,157.5,220,235,-245,235,592.5
3,Jorncy Page,1972,G,M,SBD,Raw,92.9,93,Open,190,205,210,210,140,147.5,-152.5,147.5,215,230,235,235,592.5
4,Vuk Vucetic,1993,G,M,SBD,Raw,91.6,93,Open,160,165,-170,165,120,-125,125,125,215,220,222.5,222.5,512.5
5,Chesney Miles,1987,G,M,SBD,Raw,92.1,93,Open,135,145,152.5,152.5,115,120,127.5,127.5,195,210,-230,210,490
DQ,Severiano Malgas,1985,WP,M,SBD,Raw,90.15,93,Open,175,-180,-180,175,-160,-160,-160,,-220,,,,
1,Nicholas Deetlefs,1984,G,M,SBD,Raw,104.45,105,Open,260,275,285,285,197.5,-205.5,-205.5,197.5,280,295,-300,295,777.5
2,Rinus Bezuidenhout,1995,NW,M,SBD,Raw,103.95,105,Open,257.5,270,,270,130,140,-145,140,290,-303,-303,290,700
3,Wimpie Van Zyl,1988,NC,M,SBD,Raw,102.95,105,Open,235,245,255,255,145,150,-152.5,150,260,270,280,280,685
4,Johann de Bruin,1990,G,M,SBD,Raw,103.15,105,Open,220,235,240,240,145,152.5,-155,152.5,280,-300,-300,280,672.5
5,Terence Bosman,1996,G,M,SBD,Raw,103.6,105,Open,220,-230,-230,220,135,142.5,147.5,147.5,270,290,-305,290,657.5
6,Keegan Gobey,1987,G,M,SBD,Raw,102.85,105,Open,210,-220,-220,210,140,147.5,150,150,250,270,-285,270,630
7,Henk de Wet,1974,G,M,SBD,Raw,100.7,105,Open,200,220,,220,150,160,-165,160,240,-275,-275,240,620
8,Michael Klinck,1991,G,M,SBD,Raw,103.1,105,Open,215,230,-240,230,140,150,-155,150,225,240,-247.5,240,620
9,Ryan Galvin,1980,KZN,M,SBD,Raw,103.55,105,Open,180,200,-215,200,132.5,-140,-140,132.5,235,-245,-245,235,567.5
10,JD Claassen,1980,G,M,SBD,Raw,103.15,105,Open,190,200,-210,200,100,107.5,-110,107.5,230,250,-265,250,557.5
11,Norman Wessels,1980,G,M,SBD,Raw,100.45,105,Open,-160,170,180,180,110,115,-122.5,115,210,230,-250,230,525
12,Jacques Stander,1990,G,M,SBD,Raw,104.6,105,Open,165,175,185,185,110,117.5,125,125,200,-230,-230,200,510
1,Benedict Bucarizza,1991,G,M,SBD,Raw,118.15,120,Open,300,320,325,325,225,-232.5,-232.5,225,300,330,340,340,890
2,Francois Maritz,1993,G,M,SBD,Raw,111.45,120,Open,280,290,300,300,185,192.5,-200,192.5,280,290,-297.5,290,782.5
3,Thabo Modisadife,1988,NW,M,SBD,Raw,105.01,120,Open,180,190,-220,190,150,165,175,175,190,205,225,225,590
4,Amerko Ndubane,1993,NW,M,SBD,Raw,105.75,120,Open,160,180,200,200,115,125,135,135,190,220,240,240,575
1,Mathys Herbst,1975,G,M,SBD,Raw,152.5,120+,Open,250,270,285,285,170,180,185,185,280,300,307.5,307.5,777.5
2,Ian Mouton,1974,NC,M,SBD,Raw,135.8,120+,Open,230,255,,255,200,-207.5,,200,-295,295,,295,750
3,Ruan Roux,1991,G,M,SBD,Raw,142.5,120+,Open,220,230,-237.5,230,120,127.5,-135,127.5,260,290,-300,290,647.5
1,Moses Tsimane,1975,FS,M,SBD,Raw,60.9,66,Masters 1,-80,80,-110,80,100,110,117.5,117.5,170,190,200,200,397.5
1,Marlon Daniels,1975,G,M,SBD,Raw,80,83,Masters 1,180,193,205,205,142.5,150,155,155,175,195,210,210,570
2,Craig Reichman,1970,G,M,SBD,Raw,82.1,83,Masters 1,-152.5,152.5,162.5,162.5,105,112.5,-117.5,112.5,180,200,220,220,495
1,Jorncy Page,1972,G,M,SBD,Raw,92.9,93,Masters 1,190,205,210,210,140,147.5,-152.5,147.5,215,230,235,235,592.5
2,Darwin Andrews,1976,KZN,M,SBD,Raw,91,93,Masters 1,172.5,-192.5,195,195,132.5,142.5,145,145,230,240,-252.5,240,580
3,Steve Harding,1972,EP,M,SBD,Raw,84.6,93,Masters 1,105,112.5,-115,112.5,85,92.5,100,100,160,170,175,175,387.5
1,Henk de Wet,1974,G,M,SBD,Raw,100.7,105,Masters 1,200,220,,220,150,160,-165,160,240,-275,-275,240,620
2,Denzel Vermeulen,1970,WP,M,SBD,Raw,100.45,105,Masters 1,160,175,-180,175,70,90,-100,90,120,150,200,200,465
1,Malone Horn,1970,KZN,M,SBD,Raw,115.2,120,Masters 1,220,-230,230,230,195,200,-205,200,290,-301,-301,290,720
2,Madikane Faku,1975,NW,M,SBD,Raw,113.25,120,Masters 1,220,230,235,235,130,140,-155,140,230,,,230,605
3,Anthonie Jansen van Vuuren,1977,G,M,SBD,Raw,117,120,Masters 1,155,165,175,175,95,100,-105,100,195,210,-225,210,485
1,Mathys Herbst,1975,G,M,SBD,Raw,152.5,120+,Masters 1,250,270,285,285,170,180,185,185,280,300,307.5,307.5,777.5
2,Ian Mouton,1974,NC,M,SBD,Raw,135.8,120+,Masters 1,230,255,,255,200,-207.5,,200,-295,295,,295,750
3,Dawie Els,1972,NW,M,SBD,Raw,133.8,120+,Masters 1,235,250,265,265,140,150,160,160,230,240,250,250,675
1,Stanley Lameyer,1959,WP,M,SBD,Raw,72.7,74,Masters 2,-150,165,-180,165,70,85,-95,85,180,200,205,205,455
1,Ian Hacker,1964,G,M,SBD,Raw,75.8,83,Masters 2,165,175,185.5,185.5,100,107.5,-112.5,107.5,180,200,-210,200,493
2,David Quatse,1962,NW,M,SBD,Raw,80.3,83,Masters 2,100,125,145,145,75,85,-105,85,145,175,205,205,435
1,Christo Schoonraad,1963,NW,M,SBD,Raw,104.5,105,Masters 2,-225,-225,225,225,130,145.5,-150,145.5,225,240.5,250,250,620.5
2,Denis Bensch,1965,G,M,SBD,Raw,104.4,105,Masters 2,160,165,170,170,92.5,100,-110,100,170,-185,185,185,455
3,Eric Kobal,1958,G,M,SBD,Raw,99.8,105,Masters 2,110,120,-130,120,100,115,117.5,117.5,170,-197.5,-197.5,170,407.5
1,Johan Kruger,1966,WP,M,SBD,Raw,120,120,Masters 2,170,180,190,190,110,115,120,120,220,235,-242.5,235,545
1,Burton Haupt,1961,G,M,SBD,Raw,130.7,120+,Masters 2,180,200,210,210,130,140,147.5,147.5,220,242.5,,242.5,600
1,Glen van der Linde,1945,G,M,B,Raw,66,66,Masters 4,,,,,105,-112.5,112.5,112.5,,,,,112.5
1,Colin Young,1957,WP,M,SBD,Raw,103.6,105,Masters 3,140,150,,150,140,145,,145,180,,,180,475
1,André Ludik,1957,EP,M,SBD,Raw,114.05,120,Masters 3,142.5,152.5,160,160,130,135,137.5,137.5,200,210,,210,507.5
1,Dan Oppenheim,1945,G,M,SBD,Raw,74,74,Masters 4,110,115,120,120,80,85,90,90,172.5,-186,,172.5,382.5
